EESchema Schematic File Version 4
EELAYER 30 0
EELAYER END
$Descr A3 16535 11693
encoding utf-8
Sheet 1 1
Title "display_digital guitar effect pedal"
Date "2021-03-31"
Rev "v01"
Comp ""
Comment1 ""
Comment2 ""
Comment3 ""
Comment4 "Author: Damjan Prerad"
$EndDescr
$Comp
L Regulator_Switching:TPS560200 U1
U 1 1 6064785E
P 1825 9775
F 0 "U1" H 1825 10100 50  0000 C CNN
F 1 "TPS560200" H 1825 10009 50  0000 C CNN
F 2 "Package_TO_SOT_SMD:SOT-23-5" H 1875 9525 50  0001 L CNN
F 3 "http://www.ti.com/lit/ds/symlink/tps560200.pdf" H 1575 9425 50  0001 C CNN
	1    1825 9775
	1    0    0    -1  
$EndComp
$Comp
L power:+9V #PWR01
U 1 1 60648F0F
P 850 9525
F 0 "#PWR01" H 850 9375 50  0001 C CNN
F 1 "+9V" H 865 9698 50  0000 C CNN
F 2 "" H 850 9525 50  0001 C CNN
F 3 "" H 850 9525 50  0001 C CNN
	1    850  9525
	1    0    0    -1  
$EndComp
$Comp
L Device:C C2
U 1 1 60649717
P 1200 9925
F 0 "C2" H 1315 9971 50  0000 L CNN
F 1 "100nF" H 1315 9880 50  0000 L CNN
F 2 "" H 1238 9775 50  0001 C CNN
F 3 "~" H 1200 9925 50  0001 C CNN
	1    1200 9925
	1    0    0    -1  
$EndComp
$Comp
L Device:CP C1
U 1 1 60649C5C
P 850 9925
F 0 "C1" H 875 10025 50  0000 L CNN
F 1 "100uF" H 875 9825 50  0000 L CNN
F 2 "" H 888 9775 50  0001 C CNN
F 3 "~" H 850 9925 50  0001 C CNN
	1    850  9925
	1    0    0    -1  
$EndComp
Wire Wire Line
	850  9525 850  9675
Wire Wire Line
	1525 9675 1200 9675
Connection ~ 850  9675
Wire Wire Line
	850  9675 850  9775
Wire Wire Line
	1200 9775 1200 9675
Connection ~ 1200 9675
Wire Wire Line
	1200 9675 850  9675
NoConn ~ 1525 9875
$Comp
L Device:L L1
U 1 1 6064ACB7
P 2425 9675
F 0 "L1" V 2615 9675 50  0000 C CNN
F 1 "10u" V 2524 9675 50  0000 C CNN
F 2 "" H 2425 9675 50  0001 C CNN
F 3 "~" H 2425 9675 50  0001 C CNN
	1    2425 9675
	0    -1   -1   0   
$EndComp
$Comp
L Device:C C5
U 1 1 6064B391
P 2725 9875
F 0 "C5" H 2840 9921 50  0000 L CNN
F 1 "NS" H 2840 9830 50  0000 L CNN
F 2 "" H 2763 9725 50  0001 C CNN
F 3 "~" H 2725 9875 50  0001 C CNN
	1    2725 9875
	1    0    0    -1  
$EndComp
$Comp
L Device:R R8
U 1 1 6064B801
P 3075 9875
F 0 "R8" H 3145 9921 50  0000 L CNN
F 1 "62k" H 3145 9830 50  0000 L CNN
F 2 "" V 3005 9875 50  0001 C CNN
F 3 "~" H 3075 9875 50  0001 C CNN
	1    3075 9875
	1    0    0    -1  
$EndComp
$Comp
L Device:R R9
U 1 1 6064BE35
P 3075 10325
F 0 "R9" H 3145 10371 50  0000 L CNN
F 1 "29k" H 3145 10280 50  0000 L CNN
F 2 "" V 3005 10325 50  0001 C CNN
F 3 "~" H 3075 10325 50  0001 C CNN
	1    3075 10325
	1    0    0    -1  
$EndComp
Wire Wire Line
	2125 9675 2275 9675
Wire Wire Line
	2125 9875 2450 9875
Wire Wire Line
	2450 9875 2450 10100
Wire Wire Line
	2450 10100 2725 10100
Wire Wire Line
	3075 10100 3075 10025
Wire Wire Line
	3075 10175 3075 10100
Connection ~ 3075 10100
Wire Wire Line
	2575 9675 2725 9675
Wire Wire Line
	3075 9675 3075 9725
Wire Wire Line
	2725 9725 2725 9675
Connection ~ 2725 9675
Wire Wire Line
	2725 9675 3075 9675
Wire Wire Line
	2725 10025 2725 10100
Connection ~ 2725 10100
Wire Wire Line
	2725 10100 3075 10100
Wire Wire Line
	3075 10475 3075 10600
Wire Wire Line
	850  10075 850  10600
Wire Wire Line
	1200 10075 1200 10600
Wire Wire Line
	1825 10075 1825 10600
$Comp
L Device:C C10
U 1 1 6064F776
P 3425 9900
F 0 "C10" H 3540 9946 50  0000 L CNN
F 1 "10uF" H 3540 9855 50  0000 L CNN
F 2 "" H 3463 9750 50  0001 C CNN
F 3 "~" H 3425 9900 50  0001 C CNN
	1    3425 9900
	1    0    0    -1  
$EndComp
$Comp
L Device:C C11
U 1 1 60650246
P 3850 9900
F 0 "C11" H 3965 9946 50  0000 L CNN
F 1 "10uF" H 3965 9855 50  0000 L CNN
F 2 "" H 3888 9750 50  0001 C CNN
F 3 "~" H 3850 9900 50  0001 C CNN
	1    3850 9900
	1    0    0    -1  
$EndComp
Wire Wire Line
	3075 9675 3425 9675
Wire Wire Line
	3850 9675 3850 9750
Connection ~ 3075 9675
Wire Wire Line
	3425 9750 3425 9675
Connection ~ 3425 9675
Wire Wire Line
	3425 9675 3850 9675
Wire Wire Line
	3425 10050 3425 10600
Wire Wire Line
	3850 10050 3850 10600
$Comp
L power:+3.3V #PWR024
U 1 1 60651B42
P 3850 9525
F 0 "#PWR024" H 3850 9375 50  0001 C CNN
F 1 "+3.3V" H 3865 9698 50  0000 C CNN
F 2 "" H 3850 9525 50  0001 C CNN
F 3 "" H 3850 9525 50  0001 C CNN
	1    3850 9525
	1    0    0    -1  
$EndComp
Wire Wire Line
	3850 9525 3850 9675
Connection ~ 3850 9675
$Comp
L Regulator_Linear:LP2951-3.0_SOIC U3
U 1 1 60652885
P 5875 9900
F 0 "U3" H 5875 10467 50  0000 C CNN
F 1 "LP2951-3.0_SOIC" H 5875 10376 50  0000 C CNN
F 2 "Package_SO:SOIC-8_3.9x4.9mm_P1.27mm" H 5875 9250 50  0001 C CNN
F 3 "http://www.ti.com/lit/ds/symlink/lp2951-n.pdf" H 5875 9900 50  0001 C CNN
	1    5875 9900
	1    0    0    -1  
$EndComp
NoConn ~ 6275 9900
$Comp
L Device:C C14
U 1 1 60655ECE
P 5075 9900
F 0 "C14" H 5190 9946 50  0000 L CNN
F 1 "1uF" H 5190 9855 50  0000 L CNN
F 2 "" H 5113 9750 50  0001 C CNN
F 3 "~" H 5075 9900 50  0001 C CNN
	1    5075 9900
	1    0    0    -1  
$EndComp
Wire Wire Line
	5400 10600 5400 9800
Wire Wire Line
	5400 9800 5475 9800
Wire Wire Line
	5875 10400 5875 10600
Wire Wire Line
	5075 10050 5075 10600
Wire Wire Line
	5475 9600 5075 9600
Wire Wire Line
	5075 9600 5075 9750
$Comp
L power:+9V #PWR031
U 1 1 606583BA
P 5075 9525
F 0 "#PWR031" H 5075 9375 50  0001 C CNN
F 1 "+9V" H 5090 9698 50  0000 C CNN
F 2 "" H 5075 9525 50  0001 C CNN
F 3 "" H 5075 9525 50  0001 C CNN
	1    5075 9525
	1    0    0    -1  
$EndComp
Wire Wire Line
	5075 9525 5075 9600
Connection ~ 5075 9600
NoConn ~ 6275 10100
$Comp
L Device:R R17
U 1 1 6065970C
P 6775 9800
F 0 "R17" H 6845 9846 50  0000 L CNN
F 1 "300k" H 6845 9755 50  0000 L CNN
F 2 "" V 6705 9800 50  0001 C CNN
F 3 "~" H 6775 9800 50  0001 C CNN
	1    6775 9800
	1    0    0    -1  
$EndComp
$Comp
L Device:R R18
U 1 1 60659E71
P 6775 10250
F 0 "R18" H 6845 10296 50  0000 L CNN
F 1 "100k" H 6845 10205 50  0000 L CNN
F 2 "" V 6705 10250 50  0001 C CNN
F 3 "~" H 6775 10250 50  0001 C CNN
	1    6775 10250
	1    0    0    -1  
$EndComp
$Comp
L power:GNDA #PWR051
U 1 1 6065A96B
P 7975 10575
F 0 "#PWR051" H 7975 10325 50  0001 C CNN
F 1 "GNDA" H 7980 10402 50  0000 C CNN
F 2 "" H 7975 10575 50  0001 C CNN
F 3 "" H 7975 10575 50  0001 C CNN
	1    7975 10575
	1    0    0    -1  
$EndComp
$Comp
L power:GNDD #PWR050
U 1 1 6065AB7C
P 7575 10575
F 0 "#PWR050" H 7575 10325 50  0001 C CNN
F 1 "GNDD" H 7579 10420 50  0000 C CNN
F 2 "" H 7575 10575 50  0001 C CNN
F 3 "" H 7575 10575 50  0001 C CNN
	1    7575 10575
	1    0    0    -1  
$EndComp
$Comp
L power:GNDD #PWR02
U 1 1 6065BF62
P 850 10600
F 0 "#PWR02" H 850 10350 50  0001 C CNN
F 1 "GNDD" H 854 10445 50  0000 C CNN
F 2 "" H 850 10600 50  0001 C CNN
F 3 "" H 850 10600 50  0001 C CNN
	1    850  10600
	1    0    0    -1  
$EndComp
$Comp
L power:GNDD #PWR05
U 1 1 6065C86E
P 1200 10600
F 0 "#PWR05" H 1200 10350 50  0001 C CNN
F 1 "GNDD" H 1204 10445 50  0000 C CNN
F 2 "" H 1200 10600 50  0001 C CNN
F 3 "" H 1200 10600 50  0001 C CNN
	1    1200 10600
	1    0    0    -1  
$EndComp
$Comp
L power:GNDD #PWR011
U 1 1 6065CD7C
P 1825 10600
F 0 "#PWR011" H 1825 10350 50  0001 C CNN
F 1 "GNDD" H 1829 10445 50  0000 C CNN
F 2 "" H 1825 10600 50  0001 C CNN
F 3 "" H 1825 10600 50  0001 C CNN
	1    1825 10600
	1    0    0    -1  
$EndComp
$Comp
L power:GNDD #PWR018
U 1 1 6065D1A2
P 3075 10600
F 0 "#PWR018" H 3075 10350 50  0001 C CNN
F 1 "GNDD" H 3079 10445 50  0000 C CNN
F 2 "" H 3075 10600 50  0001 C CNN
F 3 "" H 3075 10600 50  0001 C CNN
	1    3075 10600
	1    0    0    -1  
$EndComp
$Comp
L power:GNDD #PWR022
U 1 1 6065D633
P 3425 10600
F 0 "#PWR022" H 3425 10350 50  0001 C CNN
F 1 "GNDD" H 3429 10445 50  0000 C CNN
F 2 "" H 3425 10600 50  0001 C CNN
F 3 "" H 3425 10600 50  0001 C CNN
	1    3425 10600
	1    0    0    -1  
$EndComp
$Comp
L power:GNDD #PWR025
U 1 1 6065DA17
P 3850 10600
F 0 "#PWR025" H 3850 10350 50  0001 C CNN
F 1 "GNDD" H 3854 10445 50  0000 C CNN
F 2 "" H 3850 10600 50  0001 C CNN
F 3 "" H 3850 10600 50  0001 C CNN
	1    3850 10600
	1    0    0    -1  
$EndComp
$Comp
L power:GNDD #PWR032
U 1 1 6065DC44
P 5075 10600
F 0 "#PWR032" H 5075 10350 50  0001 C CNN
F 1 "GNDD" H 5079 10445 50  0000 C CNN
F 2 "" H 5075 10600 50  0001 C CNN
F 3 "" H 5075 10600 50  0001 C CNN
	1    5075 10600
	1    0    0    -1  
$EndComp
$Comp
L power:GNDA #PWR034
U 1 1 6065E08B
P 5400 10600
F 0 "#PWR034" H 5400 10350 50  0001 C CNN
F 1 "GNDA" H 5405 10427 50  0000 C CNN
F 2 "" H 5400 10600 50  0001 C CNN
F 3 "" H 5400 10600 50  0001 C CNN
	1    5400 10600
	1    0    0    -1  
$EndComp
$Comp
L power:GNDA #PWR038
U 1 1 6065E6C2
P 5875 10600
F 0 "#PWR038" H 5875 10350 50  0001 C CNN
F 1 "GNDA" H 5880 10427 50  0000 C CNN
F 2 "" H 5875 10600 50  0001 C CNN
F 3 "" H 5875 10600 50  0001 C CNN
	1    5875 10600
	1    0    0    -1  
$EndComp
$Comp
L power:GNDA #PWR046
U 1 1 6065EA02
P 6775 10600
F 0 "#PWR046" H 6775 10350 50  0001 C CNN
F 1 "GNDA" H 6780 10427 50  0000 C CNN
F 2 "" H 6775 10600 50  0001 C CNN
F 3 "" H 6775 10600 50  0001 C CNN
	1    6775 10600
	1    0    0    -1  
$EndComp
Wire Wire Line
	6775 10400 6775 10600
NoConn ~ 6275 9700
$Comp
L Device:C C21
U 1 1 6066009C
P 7150 10050
F 0 "C21" H 7265 10096 50  0000 L CNN
F 1 "1uF" H 7265 10005 50  0000 L CNN
F 2 "" H 7188 9900 50  0001 C CNN
F 3 "~" H 7150 10050 50  0001 C CNN
	1    7150 10050
	1    0    0    -1  
$EndComp
$Comp
L power:GNDA #PWR049
U 1 1 60660BE4
P 7150 10600
F 0 "#PWR049" H 7150 10350 50  0001 C CNN
F 1 "GNDA" H 7155 10427 50  0000 C CNN
F 2 "" H 7150 10600 50  0001 C CNN
F 3 "" H 7150 10600 50  0001 C CNN
	1    7150 10600
	1    0    0    -1  
$EndComp
Wire Wire Line
	7150 10200 7150 10600
Wire Wire Line
	6775 10100 6775 10000
Wire Wire Line
	6275 9600 6775 9600
Wire Wire Line
	7150 9600 7150 9900
Wire Wire Line
	6775 9650 6775 9600
Connection ~ 6775 9600
Wire Wire Line
	6775 9600 7150 9600
$Comp
L power:+5V #PWR048
U 1 1 60662F55
P 7150 9525
F 0 "#PWR048" H 7150 9375 50  0001 C CNN
F 1 "+5V" H 7165 9698 50  0000 C CNN
F 2 "" H 7150 9525 50  0001 C CNN
F 3 "" H 7150 9525 50  0001 C CNN
	1    7150 9525
	1    0    0    -1  
$EndComp
Wire Wire Line
	7150 9525 7150 9600
Connection ~ 7150 9600
$Comp
L Device:R R19
U 1 1 60664B1D
P 7775 10450
F 0 "R19" V 7568 10450 50  0000 C CNN
F 1 "0" V 7659 10450 50  0000 C CNN
F 2 "" V 7705 10450 50  0001 C CNN
F 3 "~" H 7775 10450 50  0001 C CNN
	1    7775 10450
	0    1    1    0   
$EndComp
Wire Wire Line
	7575 10575 7575 10450
Wire Wire Line
	7575 10450 7625 10450
Wire Wire Line
	7975 10575 7975 10450
Wire Wire Line
	7975 10450 7925 10450
$Comp
L power:+3.3V #PWR065
U 1 1 606724D7
P 9800 1150
F 0 "#PWR065" H 9800 1000 50  0001 C CNN
F 1 "+3.3V" H 9815 1323 50  0000 C CNN
F 2 "" H 9800 1150 50  0001 C CNN
F 3 "" H 9800 1150 50  0001 C CNN
	1    9800 1150
	1    0    0    -1  
$EndComp
Wire Wire Line
	9600 1700 9600 1500
Wire Wire Line
	10000 1700 10000 1500
Wire Wire Line
	9900 1700 9900 1500
Wire Wire Line
	9600 1500 9700 1500
Connection ~ 9900 1500
Wire Wire Line
	9900 1500 10000 1500
Wire Wire Line
	9800 1700 9800 1500
Connection ~ 9800 1500
Wire Wire Line
	9700 1700 9700 1500
Connection ~ 9700 1500
Wire Wire Line
	9700 1500 9800 1500
$Comp
L Device:C C24
U 1 1 6067B756
P 8025 1350
F 0 "C24" H 7875 1425 50  0000 L CNN
F 1 "100nF" H 7775 1275 50  0000 L CNN
F 2 "" H 8063 1200 50  0001 C CNN
F 3 "~" H 8025 1350 50  0001 C CNN
	1    8025 1350
	1    0    0    -1  
$EndComp
$Comp
L Device:C C25
U 1 1 6067C3C1
P 8350 1350
F 0 "C25" H 8200 1425 50  0000 L CNN
F 1 "100nF" H 8100 1275 50  0000 L CNN
F 2 "" H 8388 1200 50  0001 C CNN
F 3 "~" H 8350 1350 50  0001 C CNN
	1    8350 1350
	1    0    0    -1  
$EndComp
$Comp
L Device:C C27
U 1 1 6067C727
P 8675 1350
F 0 "C27" H 8525 1425 50  0000 L CNN
F 1 "100nF" H 8425 1275 50  0000 L CNN
F 2 "" H 8713 1200 50  0001 C CNN
F 3 "~" H 8675 1350 50  0001 C CNN
	1    8675 1350
	1    0    0    -1  
$EndComp
$Comp
L Device:C C29
U 1 1 6067CC98
P 9025 1350
F 0 "C29" H 8875 1425 50  0000 L CNN
F 1 "100nF" H 8775 1275 50  0000 L CNN
F 2 "" H 9063 1200 50  0001 C CNN
F 3 "~" H 9025 1350 50  0001 C CNN
	1    9025 1350
	1    0    0    -1  
$EndComp
$Comp
L Device:C C30
U 1 1 6067CFC5
P 9350 1350
F 0 "C30" H 9200 1425 50  0000 L CNN
F 1 "100nF" H 9125 1275 50  0000 L CNN
F 2 "" H 9388 1200 50  0001 C CNN
F 3 "~" H 9350 1350 50  0001 C CNN
	1    9350 1350
	1    0    0    -1  
$EndComp
$Comp
L power:+3.3V #PWR052
U 1 1 6067DDEF
P 8025 1050
F 0 "#PWR052" H 8025 900 50  0001 C CNN
F 1 "+3.3V" H 8040 1223 50  0000 C CNN
F 2 "" H 8025 1050 50  0001 C CNN
F 3 "" H 8025 1050 50  0001 C CNN
	1    8025 1050
	1    0    0    -1  
$EndComp
$Comp
L power:GNDD #PWR053
U 1 1 6067E6C6
P 8025 1700
F 0 "#PWR053" H 8025 1450 50  0001 C CNN
F 1 "GNDD" H 8029 1545 50  0000 C CNN
F 2 "" H 8025 1700 50  0001 C CNN
F 3 "" H 8025 1700 50  0001 C CNN
	1    8025 1700
	1    0    0    -1  
$EndComp
Wire Wire Line
	8025 1050 8025 1125
Wire Wire Line
	8025 1700 8025 1550
Wire Wire Line
	9350 1500 9350 1550
Wire Wire Line
	9350 1550 9025 1550
Connection ~ 8025 1550
Wire Wire Line
	8025 1550 8025 1500
Wire Wire Line
	9350 1200 9350 1125
Wire Wire Line
	9350 1125 9025 1125
Connection ~ 8025 1125
Wire Wire Line
	8025 1125 8025 1200
Wire Wire Line
	9025 1200 9025 1125
Connection ~ 9025 1125
Wire Wire Line
	9025 1125 8675 1125
Wire Wire Line
	8675 1200 8675 1125
Connection ~ 8675 1125
Wire Wire Line
	8675 1125 8350 1125
Wire Wire Line
	8350 1200 8350 1125
Connection ~ 8350 1125
Wire Wire Line
	8350 1125 8025 1125
Wire Wire Line
	8350 1500 8350 1550
Connection ~ 8350 1550
Wire Wire Line
	8350 1550 8025 1550
Wire Wire Line
	8675 1500 8675 1550
Connection ~ 8675 1550
Wire Wire Line
	8675 1550 8350 1550
Wire Wire Line
	9025 1500 9025 1550
Connection ~ 9025 1550
Wire Wire Line
	9025 1550 8675 1550
$Comp
L Device:C C32
U 1 1 6068C6DF
P 10325 1350
F 0 "C32" H 10350 1425 50  0000 L CNN
F 1 "100nF" H 10325 1275 50  0000 L CNN
F 2 "" H 10363 1200 50  0001 C CNN
F 3 "~" H 10325 1350 50  0001 C CNN
	1    10325 1350
	1    0    0    -1  
$EndComp
$Comp
L Device:C C34
U 1 1 6068CD9B
P 10650 1350
F 0 "C34" H 10765 1396 50  0000 L CNN
F 1 "10uF" H 10765 1305 50  0000 L CNN
F 2 "" H 10688 1200 50  0001 C CNN
F 3 "~" H 10650 1350 50  0001 C CNN
	1    10650 1350
	1    0    0    -1  
$EndComp
Wire Wire Line
	10325 1500 10325 1525
Wire Wire Line
	10325 1525 10650 1525
Wire Wire Line
	10650 1525 10650 1500
Wire Wire Line
	10650 1575 10650 1525
Connection ~ 10650 1525
Wire Wire Line
	10100 1700 10100 1175
Wire Wire Line
	10100 1175 10325 1175
Wire Wire Line
	10650 1175 10650 1200
Wire Wire Line
	10325 1200 10325 1175
Connection ~ 10325 1175
Wire Wire Line
	10325 1175 10650 1175
$Comp
L power:+3.3V #PWR071
U 1 1 60699EBC
P 10650 1150
F 0 "#PWR071" H 10650 1000 50  0001 C CNN
F 1 "+3.3V" H 10665 1323 50  0000 C CNN
F 2 "" H 10650 1150 50  0001 C CNN
F 3 "" H 10650 1150 50  0001 C CNN
	1    10650 1150
	1    0    0    -1  
$EndComp
Wire Wire Line
	10650 1150 10650 1175
Connection ~ 10650 1175
$Comp
L power:GNDD #PWR072
U 1 1 606A00F2
P 10650 1575
F 0 "#PWR072" H 10650 1325 50  0001 C CNN
F 1 "GNDD" H 10654 1420 50  0000 C CNN
F 2 "" H 10650 1575 50  0001 C CNN
F 3 "" H 10650 1575 50  0001 C CNN
	1    10650 1575
	1    0    0    -1  
$EndComp
$Comp
L power:GNDD #PWR066
U 1 1 606A5B4D
P 9800 5600
F 0 "#PWR066" H 9800 5350 50  0001 C CNN
F 1 "GNDD" H 9804 5445 50  0000 C CNN
F 2 "" H 9800 5600 50  0001 C CNN
F 3 "" H 9800 5600 50  0001 C CNN
	1    9800 5600
	1    0    0    -1  
$EndComp
Wire Wire Line
	9700 5300 9700 5500
Wire Wire Line
	9700 5500 9800 5500
Wire Wire Line
	9900 5500 9900 5300
Wire Wire Line
	9800 5300 9800 5500
Connection ~ 9800 5500
Wire Wire Line
	9800 5500 9900 5500
Wire Wire Line
	9800 5600 9800 5500
$Comp
L Device:Crystal Y1
U 1 1 606B2463
P 7875 3150
F 0 "Y1" V 7829 3281 50  0000 L CNN
F 1 "Crystal" V 7920 3281 50  0000 L CNN
F 2 "" H 7875 3150 50  0001 C CNN
F 3 "~" H 7875 3150 50  0001 C CNN
	1    7875 3150
	0    1    1    0   
$EndComp
$Comp
L Device:C C22
U 1 1 606B317F
P 7600 2925
F 0 "C22" V 7348 2925 50  0000 C CNN
F 1 "18pF" V 7439 2925 50  0000 C CNN
F 2 "" H 7638 2775 50  0001 C CNN
F 3 "~" H 7600 2925 50  0001 C CNN
	1    7600 2925
	0    1    1    0   
$EndComp
$Comp
L Device:C C23
U 1 1 606B3B04
P 7600 3400
F 0 "C23" V 7348 3400 50  0000 C CNN
F 1 "18pF" V 7439 3400 50  0000 C CNN
F 2 "" H 7638 3250 50  0001 C CNN
F 3 "~" H 7600 3400 50  0001 C CNN
	1    7600 3400
	0    1    1    0   
$EndComp
Wire Wire Line
	8100 3200 8100 3400
Wire Wire Line
	8100 3400 7875 3400
Wire Wire Line
	8100 3100 8100 2925
Wire Wire Line
	8100 2925 7875 2925
Wire Wire Line
	7875 3000 7875 2925
Connection ~ 7875 2925
Wire Wire Line
	7875 2925 7750 2925
Wire Wire Line
	7875 3300 7875 3400
Connection ~ 7875 3400
Wire Wire Line
	7875 3400 7750 3400
$Comp
L power:GNDD #PWR047
U 1 1 606C11C9
P 7100 3325
F 0 "#PWR047" H 7100 3075 50  0001 C CNN
F 1 "GNDD" H 7104 3170 50  0000 C CNN
F 2 "" H 7100 3325 50  0001 C CNN
F 3 "" H 7100 3325 50  0001 C CNN
	1    7100 3325
	1    0    0    -1  
$EndComp
Wire Wire Line
	7450 2925 7375 2925
Wire Wire Line
	7375 2925 7375 3150
Wire Wire Line
	7375 3400 7450 3400
Wire Wire Line
	7375 3150 7100 3150
Wire Wire Line
	7100 3150 7100 3325
Connection ~ 7375 3150
Wire Wire Line
	7375 3150 7375 3400
$Comp
L Device:C C28
U 1 1 606C8AB0
P 8900 2600
F 0 "C28" H 8785 2554 50  0000 R CNN
F 1 "2.2uF" H 8785 2645 50  0000 R CNN
F 2 "" H 8938 2450 50  0001 C CNN
F 3 "~" H 8900 2600 50  0001 C CNN
	1    8900 2600
	-1   0    0    1   
$EndComp
$Comp
L Device:C C26
U 1 1 606C919D
P 8625 2600
F 0 "C26" H 8900 2550 50  0000 R CNN
F 1 "2.2uF" H 8950 2650 50  0000 R CNN
F 2 "" H 8663 2450 50  0001 C CNN
F 3 "~" H 8625 2600 50  0001 C CNN
	1    8625 2600
	-1   0    0    1   
$EndComp
$Comp
L power:GNDD #PWR061
U 1 1 606C9391
P 8625 2800
F 0 "#PWR061" H 8625 2550 50  0001 C CNN
F 1 "GNDD" H 8629 2645 50  0000 C CNN
F 2 "" H 8625 2800 50  0001 C CNN
F 3 "" H 8625 2800 50  0001 C CNN
	1    8625 2800
	1    0    0    -1  
$EndComp
$Comp
L power:GNDD #PWR062
U 1 1 606C97BA
P 8900 2800
F 0 "#PWR062" H 8900 2550 50  0001 C CNN
F 1 "GNDD" H 8904 2645 50  0000 C CNN
F 2 "" H 8900 2800 50  0001 C CNN
F 3 "" H 8900 2800 50  0001 C CNN
	1    8900 2800
	1    0    0    -1  
$EndComp
Wire Wire Line
	8625 2750 8625 2800
Wire Wire Line
	8900 2750 8900 2800
Wire Wire Line
	9100 2400 8900 2400
Wire Wire Line
	8900 2400 8900 2450
Wire Wire Line
	9100 2300 8625 2300
Wire Wire Line
	8625 2300 8625 2450
$Comp
L Device:LED D2
U 1 1 606DE64F
P 8250 3625
F 0 "D2" V 8289 3507 50  0000 R CNN
F 1 "LED" V 8198 3507 50  0000 R CNN
F 2 "" H 8250 3625 50  0001 C CNN
F 3 "~" H 8250 3625 50  0001 C CNN
	1    8250 3625
	0    -1   -1   0   
$EndComp
$Comp
L Device:R R20
U 1 1 606E0505
P 8250 4025
F 0 "R20" H 8320 4071 50  0000 L CNN
F 1 "R" H 8320 3980 50  0000 L CNN
F 2 "" V 8180 4025 50  0001 C CNN
F 3 "~" H 8250 4025 50  0001 C CNN
	1    8250 4025
	1    0    0    -1  
$EndComp
$Comp
L power:GNDD #PWR055
U 1 1 606E0D93
P 8250 4275
F 0 "#PWR055" H 8250 4025 50  0001 C CNN
F 1 "GNDD" H 8254 4120 50  0000 C CNN
F 2 "" H 8250 4275 50  0001 C CNN
F 3 "" H 8250 4275 50  0001 C CNN
	1    8250 4275
	1    0    0    -1  
$EndComp
Wire Wire Line
	8250 4275 8250 4175
Wire Wire Line
	8250 3400 8250 3475
Wire Wire Line
	8250 3775 8250 3875
Wire Wire Line
	8100 3100 9100 3100
Wire Wire Line
	8100 3200 9100 3200
Wire Wire Line
	8250 3400 9100 3400
$Comp
L Amplifier_Operational:LMC6482 U2
U 1 1 606516E8
P 2925 7675
F 0 "U2" H 3025 7900 50  0000 C CNN
F 1 "LMC6482" H 3125 7825 50  0000 C CNN
F 2 "" H 2925 7675 50  0001 C CNN
F 3 "http://www.ti.com/lit/ds/symlink/lmc6482.pdf" H 2925 7675 50  0001 C CNN
	1    2925 7675
	1    0    0    -1  
$EndComp
$Comp
L Amplifier_Operational:LMC6482 U2
U 2 1 60654100
P 5275 7775
F 0 "U2" H 5275 8142 50  0000 C CNN
F 1 "LMC6482" H 5275 8051 50  0000 C CNN
F 2 "" H 5275 7775 50  0001 C CNN
F 3 "http://www.ti.com/lit/ds/symlink/lmc6482.pdf" H 5275 7775 50  0001 C CNN
	2    5275 7775
	1    0    0    -1  
$EndComp
$Comp
L Amplifier_Operational:LMC6482 U2
U 3 1 6065844E
P 3000 7650
F 0 "U2" H 2625 8125 50  0000 L CNN
F 1 "LMC6482" H 2450 8225 50  0000 L CNN
F 2 "" H 3000 7650 50  0001 C CNN
F 3 "http://www.ti.com/lit/ds/symlink/lmc6482.pdf" H 3000 7650 50  0001 C CNN
	3    3000 7650
	1    0    0    -1  
$EndComp
$Comp
L power:GNDA #PWR017
U 1 1 6065AD1E
P 2900 8125
F 0 "#PWR017" H 2900 7875 50  0001 C CNN
F 1 "GNDA" H 2905 7952 50  0000 C CNN
F 2 "" H 2900 8125 50  0001 C CNN
F 3 "" H 2900 8125 50  0001 C CNN
	1    2900 8125
	1    0    0    -1  
$EndComp
Wire Wire Line
	2900 7950 2900 8125
$Comp
L power:+5V #PWR016
U 1 1 6065F869
P 2900 7250
F 0 "#PWR016" H 2900 7100 50  0001 C CNN
F 1 "+5V" H 2915 7423 50  0000 C CNN
F 2 "" H 2900 7250 50  0001 C CNN
F 3 "" H 2900 7250 50  0001 C CNN
	1    2900 7250
	1    0    0    -1  
$EndComp
Wire Wire Line
	2900 7350 2900 7325
$Comp
L Device:C C6
U 1 1 6066DF7A
P 3225 7325
F 0 "C6" H 3340 7371 50  0000 L CNN
F 1 "100nF" H 3340 7280 50  0000 L CNN
F 2 "" H 3263 7175 50  0001 C CNN
F 3 "~" H 3225 7325 50  0001 C CNN
	1    3225 7325
	0    -1   -1   0   
$EndComp
$Comp
L power:GNDA #PWR023
U 1 1 6066E880
P 3475 7425
F 0 "#PWR023" H 3475 7175 50  0001 C CNN
F 1 "GNDA" H 3480 7252 50  0000 C CNN
F 2 "" H 3475 7425 50  0001 C CNN
F 3 "" H 3475 7425 50  0001 C CNN
	1    3475 7425
	1    0    0    -1  
$EndComp
Wire Wire Line
	3075 7325 2900 7325
Connection ~ 2900 7325
Wire Wire Line
	2900 7325 2900 7250
Wire Wire Line
	3375 7325 3475 7325
Wire Wire Line
	3475 7325 3475 7425
Wire Wire Line
	3225 7675 3350 7675
Wire Wire Line
	3350 7675 3350 8375
Wire Wire Line
	3350 8375 2550 8375
Wire Wire Line
	2550 8375 2550 7775
Wire Wire Line
	2550 7775 2625 7775
$Comp
L Amplifier_Operational:LMC6482 U5
U 1 1 60681731
P 9225 9900
F 0 "U5" H 9350 10125 50  0000 C CNN
F 1 "LMC6482" H 9450 10050 50  0000 C CNN
F 2 "" H 9225 9900 50  0001 C CNN
F 3 "http://www.ti.com/lit/ds/symlink/lmc6482.pdf" H 9225 9900 50  0001 C CNN
	1    9225 9900
	1    0    0    -1  
$EndComp
$Comp
L Amplifier_Operational:LMC6482 U5
U 2 1 606854DF
P 14275 7450
F 0 "U5" H 14275 7817 50  0000 C CNN
F 1 "LMC6482" H 14275 7726 50  0000 C CNN
F 2 "" H 14275 7450 50  0001 C CNN
F 3 "http://www.ti.com/lit/ds/symlink/lmc6482.pdf" H 14275 7450 50  0001 C CNN
	2    14275 7450
	1    0    0    -1  
$EndComp
$Comp
L Amplifier_Operational:LMC6482 U5
U 3 1 60687B1D
P 9300 9900
F 0 "U5" H 8775 10250 50  0000 L CNN
F 1 "LMC6482" H 8775 10175 50  0000 L CNN
F 2 "" H 9300 9900 50  0001 C CNN
F 3 "http://www.ti.com/lit/ds/symlink/lmc6482.pdf" H 9300 9900 50  0001 C CNN
	3    9300 9900
	1    0    0    -1  
$EndComp
$Comp
L Device:R R23
U 1 1 6068C04F
P 8600 9550
F 0 "R23" V 8393 9550 50  0000 C CNN
F 1 "100k" V 8484 9550 50  0000 C CNN
F 2 "" V 8530 9550 50  0001 C CNN
F 3 "~" H 8600 9550 50  0001 C CNN
	1    8600 9550
	1    0    0    -1  
$EndComp
$Comp
L Device:R R24
U 1 1 6068CB19
P 8600 10050
F 0 "R24" V 8393 10050 50  0000 C CNN
F 1 "100k" V 8484 10050 50  0000 C CNN
F 2 "" V 8530 10050 50  0001 C CNN
F 3 "~" H 8600 10050 50  0001 C CNN
	1    8600 10050
	1    0    0    -1  
$EndComp
$Comp
L power:GNDA #PWR064
U 1 1 6068D05A
P 9200 10325
F 0 "#PWR064" H 9200 10075 50  0001 C CNN
F 1 "GNDA" H 9205 10152 50  0000 C CNN
F 2 "" H 9200 10325 50  0001 C CNN
F 3 "" H 9200 10325 50  0001 C CNN
	1    9200 10325
	1    0    0    -1  
$EndComp
Wire Wire Line
	9200 10200 9200 10325
$Comp
L power:+5V #PWR063
U 1 1 60692505
P 9200 9475
F 0 "#PWR063" H 9200 9325 50  0001 C CNN
F 1 "+5V" H 9215 9648 50  0000 C CNN
F 2 "" H 9200 9475 50  0001 C CNN
F 3 "" H 9200 9475 50  0001 C CNN
	1    9200 9475
	1    0    0    -1  
$EndComp
Wire Wire Line
	9200 9475 9200 9525
Wire Wire Line
	8600 9700 8600 9800
Wire Wire Line
	8925 9800 8600 9800
Connection ~ 8600 9800
Wire Wire Line
	8600 9800 8600 9900
$Comp
L power:GNDA #PWR060
U 1 1 606A20CC
P 8600 10325
F 0 "#PWR060" H 8600 10075 50  0001 C CNN
F 1 "GNDA" H 8605 10152 50  0000 C CNN
F 2 "" H 8600 10325 50  0001 C CNN
F 3 "" H 8600 10325 50  0001 C CNN
	1    8600 10325
	1    0    0    -1  
$EndComp
Wire Wire Line
	8600 10200 8600 10325
$Comp
L power:+5V #PWR059
U 1 1 606A7B5E
P 8600 9325
F 0 "#PWR059" H 8600 9175 50  0001 C CNN
F 1 "+5V" H 8615 9498 50  0000 C CNN
F 2 "" H 8600 9325 50  0001 C CNN
F 3 "" H 8600 9325 50  0001 C CNN
	1    8600 9325
	1    0    0    -1  
$EndComp
Wire Wire Line
	8600 9325 8600 9400
Wire Wire Line
	8925 10000 8875 10000
Wire Wire Line
	8875 10000 8875 10575
$Comp
L Device:R R26
U 1 1 606B8647
P 9750 9900
F 0 "R26" V 9850 9875 50  0000 C CNN
F 1 "249" V 9925 9875 50  0000 C CNN
F 2 "" V 9680 9900 50  0001 C CNN
F 3 "~" H 9750 9900 50  0001 C CNN
	1    9750 9900
	0    1    1    0   
$EndComp
$Comp
L Device:R R27
U 1 1 606B8D89
P 10175 9900
F 0 "R27" V 9968 9900 50  0000 C CNN
F 1 "10" V 10059 9900 50  0000 C CNN
F 2 "" V 10105 9900 50  0001 C CNN
F 3 "~" H 10175 9900 50  0001 C CNN
	1    10175 9900
	0    1    1    0   
$EndComp
Wire Wire Line
	9525 9900 9600 9900
Wire Wire Line
	9900 9900 9950 9900
Wire Wire Line
	9950 10575 9950 9900
Wire Wire Line
	8875 10575 9950 10575
Connection ~ 9950 9900
Wire Wire Line
	9950 9900 10025 9900
$Comp
L Device:C C33
U 1 1 606CAB08
P 10475 10125
F 0 "C33" H 10300 10225 50  0000 L CNN
F 1 "10uF" H 10300 10050 50  0000 L CNN
F 2 "" H 10513 9975 50  0001 C CNN
F 3 "~" H 10475 10125 50  0001 C CNN
	1    10475 10125
	1    0    0    -1  
$EndComp
$Comp
L Device:C C35
U 1 1 606CB2C3
P 10800 10125
F 0 "C35" H 10915 10171 50  0000 L CNN
F 1 "100nF" H 10915 10080 50  0000 L CNN
F 2 "" H 10838 9975 50  0001 C CNN
F 3 "~" H 10800 10125 50  0001 C CNN
	1    10800 10125
	1    0    0    -1  
$EndComp
$Comp
L power:GNDA #PWR070
U 1 1 606CB4F7
P 10475 10325
F 0 "#PWR070" H 10475 10075 50  0001 C CNN
F 1 "GNDA" H 10480 10152 50  0000 C CNN
F 2 "" H 10475 10325 50  0001 C CNN
F 3 "" H 10475 10325 50  0001 C CNN
	1    10475 10325
	1    0    0    -1  
$EndComp
$Comp
L power:GNDA #PWR074
U 1 1 606CB807
P 10800 10325
F 0 "#PWR074" H 10800 10075 50  0001 C CNN
F 1 "GNDA" H 10805 10152 50  0000 C CNN
F 2 "" H 10800 10325 50  0001 C CNN
F 3 "" H 10800 10325 50  0001 C CNN
	1    10800 10325
	1    0    0    -1  
$EndComp
Wire Wire Line
	10475 10325 10475 10275
Wire Wire Line
	10800 10325 10800 10275
Wire Wire Line
	10325 9900 10475 9900
Wire Wire Line
	10800 9900 10800 9975
Wire Wire Line
	10475 9975 10475 9900
Connection ~ 10475 9900
Wire Wire Line
	10475 9900 10800 9900
$Comp
L power:+2V5 #PWR073
U 1 1 606E4AC4
P 10800 9525
F 0 "#PWR073" H 10800 9375 50  0001 C CNN
F 1 "+2V5" H 10815 9698 50  0000 C CNN
F 2 "" H 10800 9525 50  0001 C CNN
F 3 "" H 10800 9525 50  0001 C CNN
	1    10800 9525
	1    0    0    -1  
$EndComp
Wire Wire Line
	10800 9525 10800 9900
Connection ~ 10800 9900
$Comp
L Device:R R3
U 1 1 606ED3B9
P 2175 7325
F 0 "R3" H 2245 7371 50  0000 L CNN
F 1 "1M" H 2245 7280 50  0000 L CNN
F 2 "" V 2105 7325 50  0001 C CNN
F 3 "~" H 2175 7325 50  0001 C CNN
	1    2175 7325
	1    0    0    -1  
$EndComp
$Comp
L power:+2V5 #PWR012
U 1 1 606EDC3D
P 2175 7050
F 0 "#PWR012" H 2175 6900 50  0001 C CNN
F 1 "+2V5" H 2190 7223 50  0000 C CNN
F 2 "" H 2175 7050 50  0001 C CNN
F 3 "" H 2175 7050 50  0001 C CNN
	1    2175 7050
	1    0    0    -1  
$EndComp
Wire Wire Line
	2625 7575 2175 7575
Wire Wire Line
	2175 7575 2175 7475
Wire Wire Line
	2175 7175 2175 7050
$Comp
L Device:C C4
U 1 1 606FBEAC
P 1900 7575
F 0 "C4" H 2015 7621 50  0000 L CNN
F 1 "10nF" H 2015 7530 50  0000 L CNN
F 2 "" H 1938 7425 50  0001 C CNN
F 3 "~" H 1900 7575 50  0001 C CNN
	1    1900 7575
	0    -1   -1   0   
$EndComp
$Comp
L Device:C C3
U 1 1 606FC36B
P 1475 7575
F 0 "C3" H 1590 7621 50  0000 L CNN
F 1 "10nF" H 1590 7530 50  0000 L CNN
F 2 "" H 1513 7425 50  0001 C CNN
F 3 "~" H 1475 7575 50  0001 C CNN
	1    1475 7575
	0    -1   -1   0   
$EndComp
$Comp
L Device:R R4
U 1 1 606FC761
P 2450 6600
F 0 "R4" H 2520 6646 50  0000 L CNN
F 1 "1M" H 2520 6555 50  0000 L CNN
F 2 "" V 2380 6600 50  0001 C CNN
F 3 "~" H 2450 6600 50  0001 C CNN
	1    2450 6600
	0    1    1    0   
$EndComp
Wire Wire Line
	1750 7575 1700 7575
Wire Wire Line
	2050 7575 2175 7575
Connection ~ 2175 7575
Wire Wire Line
	3350 7675 3600 7675
Connection ~ 3350 7675
Wire Wire Line
	2300 6600 1700 6600
Wire Wire Line
	1700 6600 1700 7575
Connection ~ 1700 7575
Wire Wire Line
	1700 7575 1625 7575
$Comp
L Device:R R1
U 1 1 60719193
P 1225 7850
F 0 "R1" H 1295 7896 50  0000 L CNN
F 1 "1M" H 1295 7805 50  0000 L CNN
F 2 "" V 1155 7850 50  0001 C CNN
F 3 "~" H 1225 7850 50  0001 C CNN
	1    1225 7850
	1    0    0    -1  
$EndComp
Wire Wire Line
	1325 7575 1225 7575
Wire Wire Line
	1225 7575 1225 7700
$Comp
L power:GNDA #PWR07
U 1 1 60720F09
P 1225 8125
F 0 "#PWR07" H 1225 7875 50  0001 C CNN
F 1 "GNDA" H 1230 7952 50  0000 C CNN
F 2 "" H 1225 8125 50  0001 C CNN
F 3 "" H 1225 8125 50  0001 C CNN
	1    1225 8125
	1    0    0    -1  
$EndComp
Wire Wire Line
	1225 8000 1225 8125
Wire Wire Line
	1225 7575 1050 7575
Connection ~ 1225 7575
$Comp
L Device:R R10
U 1 1 6073128C
P 3850 7675
F 0 "R10" H 3920 7721 50  0000 L CNN
F 1 "15k" H 3920 7630 50  0000 L CNN
F 2 "" V 3780 7675 50  0001 C CNN
F 3 "~" H 3850 7675 50  0001 C CNN
	1    3850 7675
	0    1    1    0   
$EndComp
$Comp
L Device:R R11
U 1 1 607317C0
P 4350 7675
F 0 "R11" H 4420 7721 50  0000 L CNN
F 1 "15k" H 4420 7630 50  0000 L CNN
F 2 "" V 4280 7675 50  0001 C CNN
F 3 "~" H 4350 7675 50  0001 C CNN
	1    4350 7675
	0    1    1    0   
$EndComp
$Comp
L Device:C C12
U 1 1 60731C1A
P 4650 7925
F 0 "C12" H 4765 7971 50  0000 L CNN
F 1 "470pF" H 4765 7880 50  0000 L CNN
F 2 "" H 4688 7775 50  0001 C CNN
F 3 "~" H 4650 7925 50  0001 C CNN
	1    4650 7925
	1    0    0    -1  
$EndComp
$Comp
L power:GNDA #PWR026
U 1 1 607321A7
P 4650 8125
F 0 "#PWR026" H 4650 7875 50  0001 C CNN
F 1 "GNDA" H 4655 7952 50  0000 C CNN
F 2 "" H 4650 8125 50  0001 C CNN
F 3 "" H 4650 8125 50  0001 C CNN
	1    4650 8125
	1    0    0    -1  
$EndComp
Wire Wire Line
	4650 8075 4650 8125
Wire Wire Line
	4500 7675 4650 7675
Wire Wire Line
	4650 7675 4650 7775
Wire Wire Line
	4975 7875 4900 7875
Wire Wire Line
	4900 7875 4900 8175
Wire Wire Line
	4900 8175 5650 8175
Wire Wire Line
	5650 8175 5650 7775
Wire Wire Line
	5650 7775 5575 7775
$Comp
L Device:C C13
U 1 1 607663CB
P 4900 7075
F 0 "C13" H 5015 7121 50  0000 L CNN
F 1 "1uF" H 5015 7030 50  0000 L CNN
F 2 "" H 4938 6925 50  0001 C CNN
F 3 "~" H 4900 7075 50  0001 C CNN
	1    4900 7075
	0    1    1    0   
$EndComp
Wire Wire Line
	5050 7075 5650 7075
Wire Wire Line
	5650 7075 5650 7775
Connection ~ 5650 7775
$Comp
L Device:R R15
U 1 1 60779623
P 6100 7775
F 0 "R15" H 6170 7821 50  0000 L CNN
F 1 "20" H 6170 7730 50  0000 L CNN
F 2 "" V 6030 7775 50  0001 C CNN
F 3 "~" H 6100 7775 50  0001 C CNN
	1    6100 7775
	0    1    1    0   
$EndComp
$Comp
L Device:R R16
U 1 1 60779B50
P 6125 8200
F 0 "R16" H 6195 8246 50  0000 L CNN
F 1 "20" H 6195 8155 50  0000 L CNN
F 2 "" V 6055 8200 50  0001 C CNN
F 3 "~" H 6125 8200 50  0001 C CNN
	1    6125 8200
	0    1    1    0   
$EndComp
$Comp
L Device:C C19
U 1 1 60779F0E
P 6350 7975
F 0 "C19" H 6465 8021 50  0000 L CNN
F 1 "3.3uF" H 6465 7930 50  0000 L CNN
F 2 "" H 6388 7825 50  0001 C CNN
F 3 "~" H 6350 7975 50  0001 C CNN
	1    6350 7975
	1    0    0    -1  
$EndComp
Wire Wire Line
	6250 7775 6350 7775
Wire Wire Line
	6350 7775 6350 7825
Wire Wire Line
	6275 8200 6350 8200
Wire Wire Line
	6350 8200 6350 8125
Wire Wire Line
	5650 7775 5950 7775
$Comp
L power:GNDA #PWR037
U 1 1 607AB5E6
P 5850 8275
F 0 "#PWR037" H 5850 8025 50  0001 C CNN
F 1 "GNDA" H 5855 8102 50  0000 C CNN
F 2 "" H 5850 8275 50  0001 C CNN
F 3 "" H 5850 8275 50  0001 C CNN
	1    5850 8275
	1    0    0    -1  
$EndComp
Wire Wire Line
	5850 8275 5850 8200
Wire Wire Line
	5850 8200 5975 8200
$Comp
L Device:R R39
U 1 1 607BACD3
P 14300 7925
F 0 "R39" V 14093 7925 50  0000 C CNN
F 1 "10k" V 14184 7925 50  0000 C CNN
F 2 "" V 14230 7925 50  0001 C CNN
F 3 "~" H 14300 7925 50  0001 C CNN
	1    14300 7925
	0    1    1    0   
$EndComp
$Comp
L Device:R R38
U 1 1 607BB5EF
P 13925 8200
F 0 "R38" V 13718 8200 50  0000 C CNN
F 1 "10k" V 13809 8200 50  0000 C CNN
F 2 "" V 13855 8200 50  0001 C CNN
F 3 "~" H 13925 8200 50  0001 C CNN
	1    13925 8200
	-1   0    0    1   
$EndComp
Wire Wire Line
	13925 7550 13925 7925
Wire Wire Line
	13925 7550 13975 7550
Wire Wire Line
	14150 7925 13925 7925
Connection ~ 13925 7925
Wire Wire Line
	13925 7925 13925 8050
$Comp
L power:GNDA #PWR084
U 1 1 607D08BC
P 13925 8425
F 0 "#PWR084" H 13925 8175 50  0001 C CNN
F 1 "GNDA" H 13930 8252 50  0000 C CNN
F 2 "" H 13925 8425 50  0001 C CNN
F 3 "" H 13925 8425 50  0001 C CNN
	1    13925 8425
	1    0    0    -1  
$EndComp
Wire Wire Line
	13925 8350 13925 8425
$Comp
L Device:C C42
U 1 1 607DB800
P 15000 7450
F 0 "C42" H 15115 7496 50  0000 L CNN
F 1 "1uF" H 15115 7405 50  0000 L CNN
F 2 "" H 15038 7300 50  0001 C CNN
F 3 "~" H 15000 7450 50  0001 C CNN
	1    15000 7450
	0    1    1    0   
$EndComp
Wire Wire Line
	14575 7450 14725 7450
Wire Wire Line
	14450 7925 14725 7925
Wire Wire Line
	14725 7925 14725 7450
Connection ~ 14725 7450
Wire Wire Line
	14725 7450 14850 7450
$Comp
L Device:R R43
U 1 1 607F1BEC
P 15275 7675
F 0 "R43" V 15068 7675 50  0000 C CNN
F 1 "1k" V 15159 7675 50  0000 C CNN
F 2 "" V 15205 7675 50  0001 C CNN
F 3 "~" H 15275 7675 50  0001 C CNN
	1    15275 7675
	-1   0    0    1   
$EndComp
$Comp
L Device:C C41
U 1 1 607FCEBA
P 14225 6775
F 0 "C41" H 13950 6825 50  0000 L CNN
F 1 "680p" H 13900 6750 50  0000 L CNN
F 2 "" H 14263 6625 50  0001 C CNN
F 3 "~" H 14225 6775 50  0001 C CNN
	1    14225 6775
	0    1    1    0   
$EndComp
Wire Wire Line
	14375 6775 14725 6775
Wire Wire Line
	14725 6775 14725 7450
$Comp
L Device:R R37
U 1 1 60809E77
P 13450 7350
F 0 "R37" V 13243 7350 50  0000 C CNN
F 1 "30k" V 13334 7350 50  0000 C CNN
F 2 "" V 13380 7350 50  0001 C CNN
F 3 "~" H 13450 7350 50  0001 C CNN
	1    13450 7350
	0    1    1    0   
$EndComp
$Comp
L Device:C C39
U 1 1 6080A32E
P 13725 7600
F 0 "C39" H 13840 7646 50  0000 L CNN
F 1 "470pF" H 13840 7555 50  0000 L CNN
F 2 "" H 13763 7450 50  0001 C CNN
F 3 "~" H 13725 7600 50  0001 C CNN
	1    13725 7600
	-1   0    0    1   
$EndComp
Wire Wire Line
	13600 7350 13725 7350
Wire Wire Line
	13725 7450 13725 7350
Connection ~ 13725 7350
Wire Wire Line
	13725 7350 13975 7350
$Comp
L power:GNDA #PWR083
U 1 1 60820D03
P 13725 8425
F 0 "#PWR083" H 13725 8175 50  0001 C CNN
F 1 "GNDA" H 13730 8252 50  0000 C CNN
F 2 "" H 13725 8425 50  0001 C CNN
F 3 "" H 13725 8425 50  0001 C CNN
	1    13725 8425
	1    0    0    -1  
$EndComp
Wire Wire Line
	13725 7750 13725 8425
$Comp
L Device:R R36
U 1 1 6082D757
P 12950 7350
F 0 "R36" V 12743 7350 50  0000 C CNN
F 1 "9.1k" V 12834 7350 50  0000 C CNN
F 2 "" V 12880 7350 50  0001 C CNN
F 3 "~" H 12950 7350 50  0001 C CNN
	1    12950 7350
	0    1    1    0   
$EndComp
Wire Wire Line
	13100 7350 13200 7350
Wire Wire Line
	14075 6775 13200 6775
Wire Wire Line
	13200 6775 13200 7350
Connection ~ 13200 7350
Wire Wire Line
	13200 7350 13300 7350
$Comp
L Device:C C31
U 1 1 60845A0B
P 9425 9525
F 0 "C31" H 9540 9571 50  0000 L CNN
F 1 "100nF" H 9540 9480 50  0000 L CNN
F 2 "" H 9463 9375 50  0001 C CNN
F 3 "~" H 9425 9525 50  0001 C CNN
	1    9425 9525
	0    -1   -1   0   
$EndComp
$Comp
L power:GNDA #PWR067
U 1 1 60846461
P 9925 9575
F 0 "#PWR067" H 9925 9325 50  0001 C CNN
F 1 "GNDA" H 9930 9402 50  0000 C CNN
F 2 "" H 9925 9575 50  0001 C CNN
F 3 "" H 9925 9575 50  0001 C CNN
	1    9925 9575
	1    0    0    -1  
$EndComp
Wire Wire Line
	9275 9525 9200 9525
Connection ~ 9200 9525
Wire Wire Line
	9200 9525 9200 9600
Wire Wire Line
	9925 9575 9925 9525
Wire Wire Line
	9925 9525 9575 9525
$Comp
L Device:R R25
U 1 1 60860ACA
P 8825 2100
F 0 "R25" V 8725 2025 50  0000 L CNN
F 1 "10k" V 8825 2025 50  0000 L CNN
F 2 "" V 8755 2100 50  0001 C CNN
F 3 "~" H 8825 2100 50  0001 C CNN
	1    8825 2100
	0    -1   -1   0   
$EndComp
Wire Wire Line
	9100 2100 8975 2100
$Comp
L power:GNDD #PWR057
U 1 1 6086D3BA
P 8400 2250
F 0 "#PWR057" H 8400 2000 50  0001 C CNN
F 1 "GNDD" H 8404 2095 50  0000 C CNN
F 2 "" H 8400 2250 50  0001 C CNN
F 3 "" H 8400 2250 50  0001 C CNN
	1    8400 2250
	1    0    0    -1  
$EndComp
Wire Wire Line
	8675 2100 8400 2100
Wire Wire Line
	8400 2100 8400 2250
$Comp
L Memory_Flash:W25Q128JVS U8
U 1 1 6087AF81
P 13650 1775
F 0 "U8" H 13350 2300 50  0000 C CNN
F 1 "W25Q128JVS" H 13350 2200 50  0000 C CNN
F 2 "Package_SO:SOIC-8_5.23x5.23mm_P1.27mm" H 13650 1775 50  0001 C CNN
F 3 "http://www.winbond.com/resource-files/w25q128jv_dtr%20revc%2003272018%20plus.pdf" H 13650 1775 50  0001 C CNN
	1    13650 1775
	1    0    0    -1  
$EndComp
$Comp
L power:GNDD #PWR082
U 1 1 6087C4ED
P 13650 2275
F 0 "#PWR082" H 13650 2025 50  0001 C CNN
F 1 "GNDD" H 13654 2120 50  0000 C CNN
F 2 "" H 13650 2275 50  0001 C CNN
F 3 "" H 13650 2275 50  0001 C CNN
	1    13650 2275
	1    0    0    -1  
$EndComp
Wire Wire Line
	13650 2275 13650 2175
$Comp
L power:+3.3V #PWR081
U 1 1 60889530
P 13650 1125
F 0 "#PWR081" H 13650 975 50  0001 C CNN
F 1 "+3.3V" H 13665 1298 50  0000 C CNN
F 2 "" H 13650 1125 50  0001 C CNN
F 3 "" H 13650 1125 50  0001 C CNN
	1    13650 1125
	1    0    0    -1  
$EndComp
Wire Wire Line
	13650 1125 13650 1200
$Comp
L Device:C C40
U 1 1 60896742
P 13875 1200
F 0 "C40" H 13990 1246 50  0000 L CNN
F 1 "C" H 13990 1155 50  0000 L CNN
F 2 "" H 13913 1050 50  0001 C CNN
F 3 "~" H 13875 1200 50  0001 C CNN
	1    13875 1200
	0    -1   -1   0   
$EndComp
$Comp
L power:GNDD #PWR085
U 1 1 6089714D
P 14125 1275
F 0 "#PWR085" H 14125 1025 50  0001 C CNN
F 1 "GNDD" H 14129 1120 50  0000 C CNN
F 2 "" H 14125 1275 50  0001 C CNN
F 3 "" H 14125 1275 50  0001 C CNN
	1    14125 1275
	1    0    0    -1  
$EndComp
Wire Wire Line
	13725 1200 13650 1200
Connection ~ 13650 1200
Wire Wire Line
	13650 1200 13650 1375
Wire Wire Line
	14025 1200 14125 1200
Wire Wire Line
	14125 1200 14125 1275
$Comp
L Device:R R41
U 1 1 6090EB31
P 14775 1275
F 0 "R41" H 14575 1350 50  0000 L CNN
F 1 "100k" H 14550 1275 50  0000 L CNN
F 2 "" V 14705 1275 50  0001 C CNN
F 3 "~" H 14775 1275 50  0001 C CNN
	1    14775 1275
	1    0    0    -1  
$EndComp
$Comp
L Device:R R42
U 1 1 6090F246
P 15000 1275
F 0 "R42" H 15070 1321 50  0000 L CNN
F 1 "100k" H 15070 1230 50  0000 L CNN
F 2 "" V 14930 1275 50  0001 C CNN
F 3 "~" H 15000 1275 50  0001 C CNN
	1    15000 1275
	1    0    0    -1  
$EndComp
Wire Wire Line
	14150 1575 15150 1575
Wire Wire Line
	14150 1875 14775 1875
Wire Wire Line
	14150 1975 15000 1975
Wire Wire Line
	14775 1425 14775 1875
Connection ~ 14775 1875
Wire Wire Line
	14775 1875 15150 1875
Wire Wire Line
	15000 1425 15000 1975
Connection ~ 15000 1975
Wire Wire Line
	15000 1975 15150 1975
$Comp
L power:+3.3V #PWR086
U 1 1 609610B2
P 14775 1075
F 0 "#PWR086" H 14775 925 50  0001 C CNN
F 1 "+3.3V" H 14790 1248 50  0000 C CNN
F 2 "" H 14775 1075 50  0001 C CNN
F 3 "" H 14775 1075 50  0001 C CNN
	1    14775 1075
	1    0    0    -1  
$EndComp
Wire Wire Line
	14775 1075 14775 1125
$Comp
L power:+3.3V #PWR087
U 1 1 6096EF18
P 15000 1075
F 0 "#PWR087" H 15000 925 50  0001 C CNN
F 1 "+3.3V" H 15015 1248 50  0000 C CNN
F 2 "" H 15000 1075 50  0001 C CNN
F 3 "" H 15000 1075 50  0001 C CNN
	1    15000 1075
	1    0    0    -1  
$EndComp
Wire Wire Line
	15000 1075 15000 1125
$Comp
L Device:R R35
U 1 1 6097CFFD
P 12925 1300
F 0 "R35" H 12700 1350 50  0000 L CNN
F 1 "100k" H 12675 1275 50  0000 L CNN
F 2 "" V 12855 1300 50  0001 C CNN
F 3 "~" H 12925 1300 50  0001 C CNN
	1    12925 1300
	1    0    0    -1  
$EndComp
$Comp
L power:+3.3V #PWR078
U 1 1 6097D562
P 12925 1100
F 0 "#PWR078" H 12925 950 50  0001 C CNN
F 1 "+3.3V" H 12940 1273 50  0000 C CNN
F 2 "" H 12925 1100 50  0001 C CNN
F 3 "" H 12925 1100 50  0001 C CNN
	1    12925 1100
	1    0    0    -1  
$EndComp
Wire Wire Line
	12925 1100 12925 1150
Wire Wire Line
	12925 1450 12925 1675
Wire Wire Line
	12925 1675 13150 1675
Wire Wire Line
	12925 1675 12775 1675
Connection ~ 12925 1675
Wire Wire Line
	13150 1875 12775 1875
$Comp
L ADS8319:ADS8319IBDGSR U4
U 1 1 60771C6F
P 7375 7850
F 0 "U4" H 7375 8638 60  0000 C CNN
F 1 "ADS8319IBDGSR" H 7375 8532 60  0000 C CNN
F 2 "DGS0010A_N" H 7375 7790 60  0001 C CNN
F 3 "" H 7375 7850 60  0000 C CNN
	1    7375 7850
	1    0    0    -1  
$EndComp
Wire Wire Line
	6525 7775 6525 7850
Wire Wire Line
	6525 7850 6675 7850
Wire Wire Line
	6350 7775 6525 7775
Connection ~ 6350 7775
Wire Wire Line
	6675 8050 6525 8050
Wire Wire Line
	6525 8050 6525 8200
Wire Wire Line
	6525 8200 6350 8200
Connection ~ 6350 8200
$Comp
L power:+5V #PWR043
U 1 1 607A190F
P 6475 8475
F 0 "#PWR043" H 6475 8325 50  0001 C CNN
F 1 "+5V" H 6490 8648 50  0000 C CNN
F 2 "" H 6475 8475 50  0001 C CNN
F 3 "" H 6475 8475 50  0001 C CNN
	1    6475 8475
	1    0    0    -1  
$EndComp
Wire Wire Line
	6475 8475 6475 8550
Wire Wire Line
	6475 8550 6675 8550
Wire Wire Line
	6675 8550 6675 8250
$Comp
L power:+3.3V #PWR044
U 1 1 607B1661
P 6525 7400
F 0 "#PWR044" H 6525 7250 50  0001 C CNN
F 1 "+3.3V" H 6540 7573 50  0000 C CNN
F 2 "" H 6525 7400 50  0001 C CNN
F 3 "" H 6525 7400 50  0001 C CNN
	1    6525 7400
	1    0    0    -1  
$EndComp
Wire Wire Line
	6675 7650 6525 7650
$Comp
L power:+5V #PWR045
U 1 1 607C1DA3
P 6675 6850
F 0 "#PWR045" H 6675 6700 50  0001 C CNN
F 1 "+5V" H 6690 7023 50  0000 C CNN
F 2 "" H 6675 6850 50  0001 C CNN
F 3 "" H 6675 6850 50  0001 C CNN
	1    6675 6850
	1    0    0    -1  
$EndComp
Wire Wire Line
	6675 6850 6675 6950
$Comp
L power:GNDA #PWR040
U 1 1 607E27C9
P 6300 7050
F 0 "#PWR040" H 6300 6800 50  0001 C CNN
F 1 "GNDA" H 6305 6877 50  0000 C CNN
F 2 "" H 6300 7050 50  0001 C CNN
F 3 "" H 6300 7050 50  0001 C CNN
	1    6300 7050
	1    0    0    -1  
$EndComp
$Comp
L Device:C C20
U 1 1 607E32FA
P 6500 6950
F 0 "C20" H 6615 6996 50  0000 L CNN
F 1 "1uF" H 6615 6905 50  0000 L CNN
F 2 "" H 6538 6800 50  0001 C CNN
F 3 "~" H 6500 6950 50  0001 C CNN
	1    6500 6950
	0    1    1    0   
$EndComp
Wire Wire Line
	6650 6950 6675 6950
Wire Wire Line
	6675 6950 6675 7450
$Comp
L Device:C C18
U 1 1 60804524
P 6275 7450
F 0 "C18" H 6390 7496 50  0000 L CNN
F 1 "1u" H 6390 7405 50  0000 L CNN
F 2 "" H 6313 7300 50  0001 C CNN
F 3 "~" H 6275 7450 50  0001 C CNN
	1    6275 7450
	0    1    1    0   
$EndComp
Wire Wire Line
	6300 6950 6300 7050
Wire Wire Line
	6300 6950 6350 6950
$Comp
L power:GNDA #PWR039
U 1 1 60826FD5
P 6075 7500
F 0 "#PWR039" H 6075 7250 50  0001 C CNN
F 1 "GNDA" H 6080 7327 50  0000 C CNN
F 2 "" H 6075 7500 50  0001 C CNN
F 3 "" H 6075 7500 50  0001 C CNN
	1    6075 7500
	1    0    0    -1  
$EndComp
Wire Wire Line
	6525 7400 6525 7450
Wire Wire Line
	6075 7500 6075 7450
Wire Wire Line
	6075 7450 6125 7450
Wire Wire Line
	6425 7450 6525 7450
Connection ~ 6525 7450
Wire Wire Line
	6525 7450 6525 7650
$Comp
L power:+3.3V #PWR056
U 1 1 6085B40F
P 8300 7050
F 0 "#PWR056" H 8300 6900 50  0001 C CNN
F 1 "+3.3V" H 8315 7223 50  0000 C CNN
F 2 "" H 8300 7050 50  0001 C CNN
F 3 "" H 8300 7050 50  0001 C CNN
	1    8300 7050
	1    0    0    -1  
$EndComp
$Comp
L Device:R R22
U 1 1 6086DDA0
P 8550 7225
F 0 "R22" H 8620 7271 50  0000 L CNN
F 1 "100k" H 8620 7180 50  0000 L CNN
F 2 "" V 8480 7225 50  0001 C CNN
F 3 "~" H 8550 7225 50  0001 C CNN
	1    8550 7225
	1    0    0    -1  
$EndComp
Wire Wire Line
	8075 7950 8550 7950
$Comp
L power:+3.3V #PWR058
U 1 1 60880F9F
P 8550 7050
F 0 "#PWR058" H 8550 6900 50  0001 C CNN
F 1 "+3.3V" H 8565 7223 50  0000 C CNN
F 2 "" H 8550 7050 50  0001 C CNN
F 3 "" H 8550 7050 50  0001 C CNN
	1    8550 7050
	1    0    0    -1  
$EndComp
Wire Wire Line
	8625 6950 8625 6975
$Comp
L power:GNDA #PWR054
U 1 1 608EDA38
P 8150 8400
F 0 "#PWR054" H 8150 8150 50  0001 C CNN
F 1 "GNDA" H 8155 8227 50  0000 C CNN
F 2 "" H 8150 8400 50  0001 C CNN
F 3 "" H 8150 8400 50  0001 C CNN
	1    8150 8400
	1    0    0    -1  
$EndComp
Wire Wire Line
	8075 8250 8150 8250
Wire Wire Line
	8150 8250 8150 8400
Text GLabel 8900 7650 2    50   Input ~ 0
SPI_MISO
Text GLabel 8900 7450 2    50   Input ~ 0
SPI_SCK
Text GLabel 8900 7950 2    50   Input ~ 0
SPI_CS_ADCn
Wire Wire Line
	6275 10000 6775 10000
Connection ~ 6775 10000
Wire Wire Line
	6775 10000 6775 9950
Text GLabel 1050 7575 0    50   Input ~ 0
AUDIO_IN
$Comp
L Device:R_POT RV1
U 1 1 60945BAA
P 15275 8050
F 0 "RV1" H 15206 8096 50  0000 R CNN
F 1 "100k" H 15206 8005 50  0000 R CNN
F 2 "" H 15275 8050 50  0001 C CNN
F 3 "~" H 15275 8050 50  0001 C CNN
	1    15275 8050
	1    0    0    -1  
$EndComp
Wire Wire Line
	15150 7450 15275 7450
Wire Wire Line
	15275 7450 15275 7525
$Comp
L power:GNDA #PWR088
U 1 1 609F20B9
P 15275 8425
F 0 "#PWR088" H 15275 8175 50  0001 C CNN
F 1 "GNDA" H 15280 8252 50  0000 C CNN
F 2 "" H 15275 8425 50  0001 C CNN
F 3 "" H 15275 8425 50  0001 C CNN
	1    15275 8425
	1    0    0    -1  
$EndComp
Wire Wire Line
	15275 8200 15275 8425
Text GLabel 15475 8050 2    50   Input ~ 0
AUDIO_OUT
$Comp
L DAC8551:DAC8551IADGKR U7
U 1 1 60A1D35A
P 12650 7150
F 0 "U7" H 13850 7537 60  0000 C CNN
F 1 "DAC8551IADGKR" H 13850 7431 60  0000 C CNN
F 2 "DGK8" H 13850 7390 60  0001 C CNN
F 3 "" H 12650 7150 60  0000 C CNN
	1    12650 7150
	-1   0    0    -1  
$EndComp
Wire Wire Line
	8300 7050 8300 7550
Wire Wire Line
	8075 7550 8300 7550
Wire Wire Line
	8550 7375 8550 7950
Connection ~ 8550 7950
Wire Wire Line
	8550 7050 8550 7075
Wire Wire Line
	8550 7950 8900 7950
Wire Wire Line
	12650 7350 12725 7350
Wire Wire Line
	12650 7450 12725 7450
Wire Wire Line
	12725 7450 12725 7350
Connection ~ 12725 7350
Wire Wire Line
	12725 7350 12800 7350
$Comp
L power:GNDA #PWR068
U 1 1 60B562B9
P 10025 6925
F 0 "#PWR068" H 10025 6675 50  0001 C CNN
F 1 "GNDA" H 10030 6752 50  0000 C CNN
F 2 "" H 10025 6925 50  0001 C CNN
F 3 "" H 10025 6925 50  0001 C CNN
	1    10025 6925
	1    0    0    -1  
$EndComp
Wire Wire Line
	10025 6925 10025 6875
Wire Wire Line
	10025 6875 10200 6875
Wire Wire Line
	10200 6875 10200 7150
Wire Wire Line
	10200 7150 10250 7150
$Comp
L power:+2V5 #PWR079
U 1 1 60B6C3DF
P 12950 6525
F 0 "#PWR079" H 12950 6375 50  0001 C CNN
F 1 "+2V5" H 12965 6698 50  0000 C CNN
F 2 "" H 12950 6525 50  0001 C CNN
F 3 "" H 12950 6525 50  0001 C CNN
	1    12950 6525
	1    0    0    -1  
$EndComp
Wire Wire Line
	12650 7250 12950 7250
Wire Wire Line
	12950 7250 12950 6600
$Comp
L Device:C C38
U 1 1 60B827A7
P 13150 6600
F 0 "C38" H 13265 6646 50  0000 L CNN
F 1 "100nF" H 13265 6555 50  0000 L CNN
F 2 "" H 13188 6450 50  0001 C CNN
F 3 "~" H 13150 6600 50  0001 C CNN
	1    13150 6600
	0    -1   -1   0   
$EndComp
$Comp
L power:GNDA #PWR080
U 1 1 60B83171
P 13375 6625
F 0 "#PWR080" H 13375 6375 50  0001 C CNN
F 1 "GNDA" H 13380 6452 50  0000 C CNN
F 2 "" H 13375 6625 50  0001 C CNN
F 3 "" H 13375 6625 50  0001 C CNN
	1    13375 6625
	1    0    0    -1  
$EndComp
Wire Wire Line
	12950 6600 13000 6600
Connection ~ 12950 6600
Wire Wire Line
	12950 6600 12950 6525
Wire Wire Line
	13300 6600 13375 6600
Wire Wire Line
	13375 6600 13375 6625
$Comp
L power:+3.3V #PWR077
U 1 1 60BAE664
P 12725 6275
F 0 "#PWR077" H 12725 6125 50  0001 C CNN
F 1 "+3.3V" H 12740 6448 50  0000 C CNN
F 2 "" H 12725 6275 50  0001 C CNN
F 3 "" H 12725 6275 50  0001 C CNN
	1    12725 6275
	1    0    0    -1  
$EndComp
Wire Wire Line
	12725 7150 12650 7150
Text GLabel 10200 7350 0    50   Input ~ 0
SPI_SCK
Wire Wire Line
	10200 7350 10250 7350
Text GLabel 10200 7250 0    50   Input ~ 0
SPI_MOSI
Wire Wire Line
	10200 7250 10250 7250
Text GLabel 10200 7450 0    50   Input ~ 0
SPI_CS_DACn
Wire Wire Line
	10200 7450 10225 7450
$Comp
L Device:C C37
U 1 1 60C0B87C
P 12425 6525
F 0 "C37" H 12540 6571 50  0000 L CNN
F 1 "1uF" H 12540 6480 50  0000 L CNN
F 2 "" H 12463 6375 50  0001 C CNN
F 3 "~" H 12425 6525 50  0001 C CNN
	1    12425 6525
	1    0    0    -1  
$EndComp
$Comp
L Device:C C36
U 1 1 60C0C4A5
P 12100 6525
F 0 "C36" H 11850 6550 50  0000 L CNN
F 1 "100nF" H 11775 6475 50  0000 L CNN
F 2 "" H 12138 6375 50  0001 C CNN
F 3 "~" H 12100 6525 50  0001 C CNN
	1    12100 6525
	1    0    0    -1  
$EndComp
$Comp
L power:GNDA #PWR075
U 1 1 60C22D43
P 12100 6725
F 0 "#PWR075" H 12100 6475 50  0001 C CNN
F 1 "GNDA" H 12105 6552 50  0000 C CNN
F 2 "" H 12100 6725 50  0001 C CNN
F 3 "" H 12100 6725 50  0001 C CNN
	1    12100 6725
	1    0    0    -1  
$EndComp
$Comp
L power:GNDA #PWR076
U 1 1 60C232AE
P 12425 6725
F 0 "#PWR076" H 12425 6475 50  0001 C CNN
F 1 "GNDA" H 12430 6552 50  0000 C CNN
F 2 "" H 12425 6725 50  0001 C CNN
F 3 "" H 12425 6725 50  0001 C CNN
	1    12425 6725
	1    0    0    -1  
$EndComp
Wire Wire Line
	12725 6275 12725 6325
Wire Wire Line
	12100 6375 12100 6325
Wire Wire Line
	12100 6325 12425 6325
Connection ~ 12725 6325
Wire Wire Line
	12725 6325 12725 7150
Wire Wire Line
	12425 6375 12425 6325
Connection ~ 12425 6325
Wire Wire Line
	12425 6325 12725 6325
Wire Wire Line
	12100 6675 12100 6725
Wire Wire Line
	12425 6675 12425 6725
$Comp
L Device:R R28
U 1 1 60C9720F
P 10225 6625
F 0 "R28" H 10295 6671 50  0000 L CNN
F 1 "100k" H 10295 6580 50  0000 L CNN
F 2 "" V 10155 6625 50  0001 C CNN
F 3 "~" H 10225 6625 50  0001 C CNN
	1    10225 6625
	1    0    0    -1  
$EndComp
Wire Wire Line
	10225 6775 10225 7450
Connection ~ 10225 7450
Wire Wire Line
	10225 7450 10250 7450
$Comp
L power:+3.3V #PWR069
U 1 1 60CC850A
P 10225 6275
F 0 "#PWR069" H 10225 6125 50  0001 C CNN
F 1 "+3.3V" H 10240 6448 50  0000 C CNN
F 2 "" H 10225 6275 50  0001 C CNN
F 3 "" H 10225 6275 50  0001 C CNN
	1    10225 6275
	1    0    0    -1  
$EndComp
Wire Wire Line
	10225 6275 10225 6475
Text GLabel 12775 1675 0    50   Input ~ 0
SPI_CS_FLASHn
Text GLabel 12775 1875 0    50   Input ~ 0
SPI_FLASH_SCK
Text GLabel 15150 1575 2    50   Input ~ 0
SPI_FLASH_MOSI
Text GLabel 15150 1675 2    50   Input ~ 0
SPI_FLASH_MISO
Text GLabel 15150 1975 2    50   Input ~ 0
FLASH_HOLDn
Text GLabel 15150 1875 2    50   Input ~ 0
FLASH_WPn
$Comp
L win:Conn_ARM_JTAG_SWD J4
U 1 1 60D0D7C9
P 1625 1350
F 0 "J4" H 1625 1967 50  0000 C CNN
F 1 "Conn_ARM_JTAG_SWD" H 1625 1876 50  0000 C CNN
F 2 "Connector_PinHeader_1.27mm:PinHeader_2x05_P1.27mm_Vertical" H 1625 1450 50  0001 C CNN
F 3 "" H 1275 1450 50  0001 C CNN
	1    1625 1350
	-1   0    0    -1  
$EndComp
$Comp
L power:GNDD #PWR04
U 1 1 60DB9737
P 925 1550
F 0 "#PWR04" H 925 1300 50  0001 C CNN
F 1 "GNDD" H 929 1395 50  0000 C CNN
F 2 "" H 925 1550 50  0001 C CNN
F 3 "" H 925 1550 50  0001 C CNN
	1    925  1550
	1    0    0    -1  
$EndComp
Wire Wire Line
	1075 1250 925  1250
Wire Wire Line
	1075 1350 925  1350
Wire Wire Line
	925  1250 925  1350
Connection ~ 925  1350
Wire Wire Line
	925  1350 925  1450
Wire Wire Line
	1075 1450 925  1450
Connection ~ 925  1450
Wire Wire Line
	925  1450 925  1550
$Comp
L power:+3.3V #PWR03
U 1 1 60E036BF
P 925 975
F 0 "#PWR03" H 925 825 50  0001 C CNN
F 1 "+3.3V" H 940 1148 50  0000 C CNN
F 2 "" H 925 975 50  0001 C CNN
F 3 "" H 925 975 50  0001 C CNN
	1    925  975 
	1    0    0    -1  
$EndComp
Wire Wire Line
	925  975  925  1050
Wire Wire Line
	925  1050 1075 1050
Text GLabel 10575 3300 2    50   Input ~ 0
SWCLK
Wire Wire Line
	10500 3300 10575 3300
Text GLabel 2325 1150 2    50   Input ~ 0
SWCLK
Wire Wire Line
	2175 1150 2325 1150
Wire Wire Line
	2175 1050 2325 1050
Text GLabel 2325 1050 2    50   Input ~ 0
NRST
Text GLabel 9025 1900 0    50   Input ~ 0
NRST
Text GLabel 2325 1250 2    50   Input ~ 0
SWDIO
Wire Wire Line
	2175 1250 2325 1250
Text GLabel 10575 3200 2    50   Input ~ 0
SWDIO
Wire Wire Line
	10500 3200 10575 3200
Text GLabel 2325 1350 2    50   Input ~ 0
SWO
Wire Wire Line
	2175 1350 2325 1350
Text GLabel 10575 3900 2    50   Input ~ 0
SWO
Wire Wire Line
	10500 3900 10575 3900
Text GLabel 2325 1450 2    50   Input ~ 0
TDI
Wire Wire Line
	2175 1450 2325 1450
Text GLabel 10575 3400 2    50   Input ~ 0
TDI
Wire Wire Line
	10500 3400 10575 3400
Wire Wire Line
	15275 7825 15275 7900
Wire Wire Line
	15475 8050 15425 8050
Text GLabel 10575 5000 2    50   Input ~ 0
SPI_MISO
Wire Wire Line
	10500 5000 10575 5000
Text GLabel 10925 4900 2    50   Input ~ 0
SPI_SCK
Wire Wire Line
	10925 4900 10850 4900
Text GLabel 10925 5100 2    50   Input ~ 0
SPI_MOSI
Wire Wire Line
	10850 5100 10925 5100
Text GLabel 10925 4800 2    50   Input ~ 0
SPI_CS_DACn
Wire Wire Line
	10850 4800 10925 4800
Text GLabel 10575 4600 2    50   Input ~ 0
SPI_CS_ADCn
Wire Wire Line
	10500 4600 10575 4600
Wire Wire Line
	9800 1500 9900 1500
Wire Wire Line
	9800 1150 9800 1500
Text GLabel 10950 2400 2    50   Input ~ 0
SPI_FLASH_SCK
Wire Wire Line
	10850 2400 10950 2400
Text GLabel 10950 2300 2    50   Input ~ 0
SPI_CS_FLASHn
Wire Wire Line
	10850 2300 10950 2300
Text GLabel 10950 2600 2    50   Input ~ 0
SPI_FLASH_MOSI
Wire Wire Line
	10850 2600 10950 2600
Text GLabel 10600 2500 2    50   Input ~ 0
SPI_FLASH_MISO
Wire Wire Line
	10600 2500 10500 2500
Wire Wire Line
	9025 1900 9100 1900
$Comp
L Connector:Conn_01x02_Male J3
U 1 1 607DC85B
P 950 2275
F 0 "J3" H 1058 2456 50  0000 C CNN
F 1 "AUDIO_IN" H 1058 2365 50  0000 C CNN
F 2 "" H 950 2275 50  0001 C CNN
F 3 "~" H 950 2275 50  0001 C CNN
	1    950  2275
	1    0    0    -1  
$EndComp
$Comp
L power:GNDA #PWR08
U 1 1 607DDF05
P 1250 2775
F 0 "#PWR08" H 1250 2525 50  0001 C CNN
F 1 "GNDA" H 1255 2602 50  0000 C CNN
F 2 "" H 1250 2775 50  0001 C CNN
F 3 "" H 1250 2775 50  0001 C CNN
	1    1250 2775
	1    0    0    -1  
$EndComp
Wire Wire Line
	1150 2375 1250 2375
$Comp
L Connector:Conn_01x02_Male J2
U 1 1 607FED43
P 925 3175
F 0 "J2" H 1033 3356 50  0000 C CNN
F 1 "AUDIO_OUT" H 1033 3265 50  0000 C CNN
F 2 "" H 925 3175 50  0001 C CNN
F 3 "~" H 925 3175 50  0001 C CNN
	1    925  3175
	1    0    0    -1  
$EndComp
$Comp
L power:GNDA #PWR06
U 1 1 60800003
P 1225 3700
F 0 "#PWR06" H 1225 3450 50  0001 C CNN
F 1 "GNDA" H 1230 3527 50  0000 C CNN
F 2 "" H 1225 3700 50  0001 C CNN
F 3 "" H 1225 3700 50  0001 C CNN
	1    1225 3700
	1    0    0    -1  
$EndComp
Wire Wire Line
	1125 3275 1225 3275
Text GLabel 1300 2275 2    50   Input ~ 0
AUDIO_IN
Wire Wire Line
	1150 2275 1300 2275
Text GLabel 1275 3175 2    50   Input ~ 0
AUDIO_OUT
Wire Wire Line
	1125 3175 1275 3175
Connection ~ 6675 6950
$Comp
L Device:Ferrite_Bead FB2
U 1 1 608D5383
P 1250 2575
F 0 "FB2" H 1387 2621 50  0000 L CNN
F 1 "Ferrite_Bead" H 1387 2530 50  0000 L CNN
F 2 "" V 1180 2575 50  0001 C CNN
F 3 "~" H 1250 2575 50  0001 C CNN
	1    1250 2575
	1    0    0    -1  
$EndComp
$Comp
L Device:Ferrite_Bead FB1
U 1 1 608D6903
P 1225 3500
F 0 "FB1" H 1362 3546 50  0000 L CNN
F 1 "Ferrite_Bead" H 1362 3455 50  0000 L CNN
F 2 "" V 1155 3500 50  0001 C CNN
F 3 "~" H 1225 3500 50  0001 C CNN
	1    1225 3500
	1    0    0    -1  
$EndComp
Wire Wire Line
	1250 2375 1250 2425
Wire Wire Line
	1250 2725 1250 2775
Wire Wire Line
	1225 3275 1225 3350
$Comp
L Connector:Conn_01x02_Male J1
U 1 1 609DC96B
P 900 4200
F 0 "J1" H 1008 4381 50  0000 C CNN
F 1 "EFFECT_ACTIVE" H 1008 4290 50  0000 C CNN
F 2 "" H 900 4200 50  0001 C CNN
F 3 "~" H 900 4200 50  0001 C CNN
	1    900  4200
	1    0    0    -1  
$EndComp
$Comp
L Device:LED D1
U 1 1 609DD98A
P 1400 4525
F 0 "D1" V 1439 4407 50  0000 R CNN
F 1 "LED" V 1348 4407 50  0000 R CNN
F 2 "" H 1400 4525 50  0001 C CNN
F 3 "~" H 1400 4525 50  0001 C CNN
	1    1400 4525
	0    -1   -1   0   
$EndComp
$Comp
L Device:R R2
U 1 1 609DE4FF
P 1400 4875
F 0 "R2" H 1470 4921 50  0000 L CNN
F 1 "R" H 1470 4830 50  0000 L CNN
F 2 "" V 1330 4875 50  0001 C CNN
F 3 "~" H 1400 4875 50  0001 C CNN
	1    1400 4875
	1    0    0    -1  
$EndComp
$Comp
L power:GNDD #PWR010
U 1 1 609DEC34
P 1400 5100
F 0 "#PWR010" H 1400 4850 50  0001 C CNN
F 1 "GNDD" H 1404 4945 50  0000 C CNN
F 2 "" H 1400 5100 50  0001 C CNN
F 3 "" H 1400 5100 50  0001 C CNN
	1    1400 5100
	1    0    0    -1  
$EndComp
Wire Wire Line
	1400 5025 1400 5100
Wire Wire Line
	1400 4675 1400 4725
$Comp
L power:+3.3V #PWR09
U 1 1 60A3A3D1
P 1400 4125
F 0 "#PWR09" H 1400 3975 50  0001 C CNN
F 1 "+3.3V" H 1415 4298 50  0000 C CNN
F 2 "" H 1400 4125 50  0001 C CNN
F 3 "" H 1400 4125 50  0001 C CNN
	1    1400 4125
	1    0    0    -1  
$EndComp
Wire Wire Line
	1100 4200 1400 4200
Wire Wire Line
	1400 4200 1400 4125
Wire Wire Line
	1400 4300 1400 4375
Wire Wire Line
	1100 4300 1400 4300
Wire Notes Line
	600  1975 2100 1975
Wire Notes Line
	2100 1975 2100 5375
Wire Notes Line
	2100 5375 600  5375
Wire Notes Line
	600  5375 600  1975
Text Notes 625  5350 0    50   ~ 0
3PDT Switch\n
Wire Notes Line
	11275 9050 11275 11025
Wire Notes Line
	11275 11025 575  11025
Wire Notes Line
	575  11025 575  9050
Wire Notes Line
	575  9050 11275 9050
Text Notes 625  10975 0    50   ~ 0
Power supply\n
$Comp
L Connector:Conn_01x02_Male J5
U 1 1 60AD7EA6
P 2375 2675
F 0 "J5" H 2483 2856 50  0000 C CNN
F 1 "EFFECT_UP" H 2483 2765 50  0000 C CNN
F 2 "" H 2375 2675 50  0001 C CNN
F 3 "~" H 2375 2675 50  0001 C CNN
	1    2375 2675
	1    0    0    -1  
$EndComp
$Comp
L Connector:Conn_01x02_Male J6
U 1 1 60B1DB45
P 2400 3575
F 0 "J6" H 2508 3756 50  0000 C CNN
F 1 "EFFECT_DOWN" H 2508 3665 50  0000 C CNN
F 2 "" H 2400 3575 50  0001 C CNN
F 3 "~" H 2400 3575 50  0001 C CNN
	1    2400 3575
	1    0    0    -1  
$EndComp
$Comp
L Connector:Conn_01x02_Male J7
U 1 1 60B1E689
P 2400 4500
F 0 "J7" H 2508 4681 50  0000 C CNN
F 1 "EFFECT_OK" H 2508 4590 50  0000 C CNN
F 2 "" H 2400 4500 50  0001 C CNN
F 3 "~" H 2400 4500 50  0001 C CNN
	1    2400 4500
	1    0    0    -1  
$EndComp
$Comp
L Device:R R5
U 1 1 60B20AF8
P 2950 2675
F 0 "R5" V 2743 2675 50  0000 C CNN
F 1 "1k" V 2834 2675 50  0000 C CNN
F 2 "" V 2880 2675 50  0001 C CNN
F 3 "~" H 2950 2675 50  0001 C CNN
	1    2950 2675
	0    1    1    0   
$EndComp
$Comp
L Device:R R6
U 1 1 60B21FED
P 2950 3575
F 0 "R6" V 2743 3575 50  0000 C CNN
F 1 "1k" V 2834 3575 50  0000 C CNN
F 2 "" V 2880 3575 50  0001 C CNN
F 3 "~" H 2950 3575 50  0001 C CNN
	1    2950 3575
	0    1    1    0   
$EndComp
$Comp
L Device:R R7
U 1 1 60B22541
P 2950 4500
F 0 "R7" V 2743 4500 50  0000 C CNN
F 1 "1k" V 2834 4500 50  0000 C CNN
F 2 "" V 2880 4500 50  0001 C CNN
F 3 "~" H 2950 4500 50  0001 C CNN
	1    2950 4500
	0    1    1    0   
$EndComp
$Comp
L Device:C C7
U 1 1 60B2293B
P 3250 2900
F 0 "C7" H 3365 2946 50  0000 L CNN
F 1 "C" H 3365 2855 50  0000 L CNN
F 2 "" H 3288 2750 50  0001 C CNN
F 3 "~" H 3250 2900 50  0001 C CNN
	1    3250 2900
	1    0    0    -1  
$EndComp
$Comp
L Device:C C8
U 1 1 60B23E99
P 3275 3800
F 0 "C8" H 3390 3846 50  0000 L CNN
F 1 "C" H 3390 3755 50  0000 L CNN
F 2 "" H 3313 3650 50  0001 C CNN
F 3 "~" H 3275 3800 50  0001 C CNN
	1    3275 3800
	1    0    0    -1  
$EndComp
$Comp
L Device:C C9
U 1 1 60B24227
P 3300 4775
F 0 "C9" H 3415 4821 50  0000 L CNN
F 1 "C" H 3415 4730 50  0000 L CNN
F 2 "" H 3338 4625 50  0001 C CNN
F 3 "~" H 3300 4775 50  0001 C CNN
	1    3300 4775
	1    0    0    -1  
$EndComp
Wire Wire Line
	1225 3650 1225 3700
$Comp
L power:GNDD #PWR013
U 1 1 60B82C85
P 2625 3125
F 0 "#PWR013" H 2625 2875 50  0001 C CNN
F 1 "GNDD" H 2629 2970 50  0000 C CNN
F 2 "" H 2625 3125 50  0001 C CNN
F 3 "" H 2625 3125 50  0001 C CNN
	1    2625 3125
	1    0    0    -1  
$EndComp
$Comp
L power:GNDD #PWR019
U 1 1 60B833F4
P 3250 3100
F 0 "#PWR019" H 3250 2850 50  0001 C CNN
F 1 "GNDD" H 3254 2945 50  0000 C CNN
F 2 "" H 3250 3100 50  0001 C CNN
F 3 "" H 3250 3100 50  0001 C CNN
	1    3250 3100
	1    0    0    -1  
$EndComp
$Comp
L power:GNDD #PWR014
U 1 1 60BA2EA8
P 2625 4050
F 0 "#PWR014" H 2625 3800 50  0001 C CNN
F 1 "GNDD" H 2629 3895 50  0000 C CNN
F 2 "" H 2625 4050 50  0001 C CNN
F 3 "" H 2625 4050 50  0001 C CNN
	1    2625 4050
	1    0    0    -1  
$EndComp
$Comp
L power:GNDD #PWR020
U 1 1 60BA31B8
P 3275 4050
F 0 "#PWR020" H 3275 3800 50  0001 C CNN
F 1 "GNDD" H 3279 3895 50  0000 C CNN
F 2 "" H 3275 4050 50  0001 C CNN
F 3 "" H 3275 4050 50  0001 C CNN
	1    3275 4050
	1    0    0    -1  
$EndComp
$Comp
L power:GNDD #PWR021
U 1 1 60BA34BF
P 3300 5050
F 0 "#PWR021" H 3300 4800 50  0001 C CNN
F 1 "GNDD" H 3304 4895 50  0000 C CNN
F 2 "" H 3300 5050 50  0001 C CNN
F 3 "" H 3300 5050 50  0001 C CNN
	1    3300 5050
	1    0    0    -1  
$EndComp
$Comp
L power:GNDD #PWR015
U 1 1 60BA37FB
P 2650 5025
F 0 "#PWR015" H 2650 4775 50  0001 C CNN
F 1 "GNDD" H 2654 4870 50  0000 C CNN
F 2 "" H 2650 5025 50  0001 C CNN
F 3 "" H 2650 5025 50  0001 C CNN
	1    2650 5025
	1    0    0    -1  
$EndComp
Wire Wire Line
	2625 2775 2625 3125
Wire Wire Line
	2575 2775 2625 2775
Wire Wire Line
	2575 2675 2800 2675
Wire Wire Line
	3100 2675 3250 2675
Wire Wire Line
	3250 2675 3250 2750
Wire Wire Line
	3250 3050 3250 3100
Wire Wire Line
	2600 3675 2625 3675
Wire Wire Line
	2625 3675 2625 4050
Wire Wire Line
	2600 3575 2800 3575
Wire Wire Line
	3100 3575 3275 3575
Wire Wire Line
	3275 3575 3275 3650
Wire Wire Line
	3275 3950 3275 4050
Wire Wire Line
	2600 4600 2650 4600
Wire Wire Line
	2650 4600 2650 5025
Wire Wire Line
	2600 4500 2800 4500
Wire Wire Line
	3100 4500 3300 4500
Wire Wire Line
	3300 4500 3300 4625
Wire Wire Line
	3300 4925 3300 5050
Text GLabel 3425 2675 2    50   Input ~ 0
EFFECT_UP
Text GLabel 3425 3575 2    50   Input ~ 0
EFFECT_DOWN
Text GLabel 3425 4500 2    50   Input ~ 0
EFFECT_OK
Wire Wire Line
	3300 4500 3425 4500
Connection ~ 3300 4500
Wire Wire Line
	3275 3575 3425 3575
Connection ~ 3275 3575
Wire Wire Line
	3250 2675 3425 2675
Connection ~ 3250 2675
Wire Notes Line
	2200 2375 4050 2375
Wire Notes Line
	4050 2375 4050 5375
Wire Notes Line
	4050 5375 2200 5375
Wire Notes Line
	2200 5375 2200 2375
Text Notes 2250 5350 0    50   ~ 0
STOMP SWITCHES\n
Wire Notes Line
	600  1900 600  675 
Wire Notes Line
	600  675  2775 675 
Wire Notes Line
	2775 675  2775 1900
Wire Notes Line
	2775 1900 600  1900
Text Notes 650  1850 0    50   ~ 0
JTAG Programmer Connector\n
Wire Wire Line
	3600 7675 3600 6600
Wire Wire Line
	3600 6600 2600 6600
Wire Wire Line
	4000 7675 4100 7675
Wire Wire Line
	4975 7675 4650 7675
Connection ~ 4650 7675
Wire Wire Line
	4100 7675 4100 7075
Connection ~ 4100 7675
Wire Wire Line
	4100 7675 4200 7675
Wire Wire Line
	4100 7075 4750 7075
Wire Wire Line
	3600 7675 3700 7675
Connection ~ 3600 7675
Wire Notes Line
	575  6350 9525 6350
Wire Notes Line
	9525 6350 9525 8925
Wire Notes Line
	9525 8925 575  8925
Wire Notes Line
	575  8925 575  6350
Text Notes 625  8875 0    50   ~ 0
Input\n
Wire Notes Line
	15975 5950 15975 8925
Wire Notes Line
	15975 8925 9600 8925
Wire Notes Line
	9600 8925 9600 5950
Wire Notes Line
	9600 5950 15975 5950
Text Notes 9650 8875 0    50   ~ 0
Output\n
$Comp
L Connector_Generic:Conn_01x05 J9
U 1 1 610C40B4
P 4450 4500
F 0 "J9" H 4368 4075 50  0000 C CNN
F 1 "Conn_01x05" H 4368 4166 50  0000 C CNN
F 2 "" H 4450 4500 50  0001 C CNN
F 3 "~" H 4450 4500 50  0001 C CNN
	1    4450 4500
	-1   0    0    1   
$EndComp
$Comp
L power:+3.3V #PWR029
U 1 1 610C6321
P 4925 4200
F 0 "#PWR029" H 4925 4050 50  0001 C CNN
F 1 "+3.3V" H 4940 4373 50  0000 C CNN
F 2 "" H 4925 4200 50  0001 C CNN
F 3 "" H 4925 4200 50  0001 C CNN
	1    4925 4200
	1    0    0    -1  
$EndComp
Wire Wire Line
	4650 4300 4925 4300
Wire Wire Line
	4925 4300 4925 4200
$Comp
L power:GNDD #PWR030
U 1 1 610EC075
P 4925 5050
F 0 "#PWR030" H 4925 4800 50  0001 C CNN
F 1 "GNDD" H 4929 4895 50  0000 C CNN
F 2 "" H 4925 5050 50  0001 C CNN
F 3 "" H 4925 5050 50  0001 C CNN
	1    4925 5050
	1    0    0    -1  
$EndComp
Wire Wire Line
	4650 4700 4925 4700
$Comp
L Device:R R12
U 1 1 61113125
P 4875 4400
F 0 "R12" V 4875 4275 50  0000 C CNN
F 1 "1k" V 4875 4450 50  0000 C CNN
F 2 "" V 4805 4400 50  0001 C CNN
F 3 "~" H 4875 4400 50  0001 C CNN
	1    4875 4400
	0    1    1    0   
$EndComp
$Comp
L Device:R R13
U 1 1 611138DE
P 4875 4500
F 0 "R13" V 4875 4375 50  0000 C CNN
F 1 "1k" V 4875 4550 50  0000 C CNN
F 2 "" V 4805 4500 50  0001 C CNN
F 3 "~" H 4875 4500 50  0001 C CNN
	1    4875 4500
	0    1    1    0   
$EndComp
$Comp
L Device:R R14
U 1 1 61113B9F
P 4875 4600
F 0 "R14" V 4875 4475 50  0000 C CNN
F 1 "1k" V 4875 4650 50  0000 C CNN
F 2 "" V 4805 4600 50  0001 C CNN
F 3 "~" H 4875 4600 50  0001 C CNN
	1    4875 4600
	0    1    1    0   
$EndComp
$Comp
L Device:C C15
U 1 1 611153C8
P 5225 4800
F 0 "C15" H 5340 4846 50  0000 L CNN
F 1 "C" H 5340 4755 50  0000 L CNN
F 2 "" H 5263 4650 50  0001 C CNN
F 3 "~" H 5225 4800 50  0001 C CNN
	1    5225 4800
	1    0    0    -1  
$EndComp
$Comp
L Device:C C16
U 1 1 61115DAC
P 5525 4800
F 0 "C16" H 5640 4846 50  0000 L CNN
F 1 "C" H 5640 4755 50  0000 L CNN
F 2 "" H 5563 4650 50  0001 C CNN
F 3 "~" H 5525 4800 50  0001 C CNN
	1    5525 4800
	1    0    0    -1  
$EndComp
$Comp
L Device:C C17
U 1 1 61116065
P 5825 4800
F 0 "C17" H 5940 4846 50  0000 L CNN
F 1 "C" H 5940 4755 50  0000 L CNN
F 2 "" H 5863 4650 50  0001 C CNN
F 3 "~" H 5825 4800 50  0001 C CNN
	1    5825 4800
	1    0    0    -1  
$EndComp
Wire Wire Line
	5025 4400 5825 4400
Wire Wire Line
	5825 4400 5825 4650
Wire Wire Line
	5025 4500 5525 4500
Wire Wire Line
	5525 4500 5525 4650
Wire Wire Line
	5025 4600 5225 4600
Wire Wire Line
	5225 4600 5225 4650
Wire Wire Line
	4925 4700 4925 5050
$Comp
L power:GNDD #PWR033
U 1 1 611B19DE
P 5225 5050
F 0 "#PWR033" H 5225 4800 50  0001 C CNN
F 1 "GNDD" H 5229 4895 50  0000 C CNN
F 2 "" H 5225 5050 50  0001 C CNN
F 3 "" H 5225 5050 50  0001 C CNN
	1    5225 5050
	1    0    0    -1  
$EndComp
$Comp
L power:GNDD #PWR035
U 1 1 611B1DB2
P 5525 5050
F 0 "#PWR035" H 5525 4800 50  0001 C CNN
F 1 "GNDD" H 5529 4895 50  0000 C CNN
F 2 "" H 5525 5050 50  0001 C CNN
F 3 "" H 5525 5050 50  0001 C CNN
	1    5525 5050
	1    0    0    -1  
$EndComp
$Comp
L power:GNDD #PWR036
U 1 1 611B2056
P 5825 5050
F 0 "#PWR036" H 5825 4800 50  0001 C CNN
F 1 "GNDD" H 5829 4895 50  0000 C CNN
F 2 "" H 5825 5050 50  0001 C CNN
F 3 "" H 5825 5050 50  0001 C CNN
	1    5825 5050
	1    0    0    -1  
$EndComp
Wire Wire Line
	5225 4950 5225 5050
Wire Wire Line
	5525 4950 5525 5050
Wire Wire Line
	5825 4950 5825 5050
Wire Wire Line
	5825 4400 5950 4400
Connection ~ 5825 4400
Wire Wire Line
	5525 4500 5950 4500
Connection ~ 5525 4500
Wire Wire Line
	5225 4600 5950 4600
Connection ~ 5225 4600
Text GLabel 5950 4400 2    50   Input ~ 0
ENC_A
Text GLabel 5950 4500 2    50   Input ~ 0
ENC_B
Text GLabel 5950 4600 2    50   Input ~ 0
ENC_SW
Wire Wire Line
	4650 4400 4725 4400
Wire Wire Line
	4650 4500 4725 4500
Wire Wire Line
	4650 4600 4725 4600
Wire Notes Line
	4150 3825 6425 3825
Wire Notes Line
	6425 3825 6425 5375
Wire Notes Line
	6425 5375 4150 5375
Wire Notes Line
	4150 5375 4150 3825
Text Notes 4200 5350 0    50   ~ 0
Encoder\n
Text GLabel 10600 2700 2    50   Input ~ 0
EFFECT_UP
Text GLabel 10600 2900 2    50   Input ~ 0
EFFECT_DOWN
Text GLabel 10575 3600 2    50   Input ~ 0
EFFECT_OK
Text GLabel 10575 4400 2    50   Input ~ 0
ENC_A
Text GLabel 10575 4500 2    50   Input ~ 0
ENC_B
Text GLabel 10575 3700 2    50   Input ~ 0
ENC_SW
Wire Wire Line
	10575 3600 10500 3600
Wire Wire Line
	10575 3700 10500 3700
Wire Wire Line
	10500 4400 10575 4400
Wire Wire Line
	10575 4500 10500 4500
Wire Wire Line
	10600 2700 10500 2700
Wire Wire Line
	10600 2900 10500 2900
Wire Notes Line
	11875 675  15950 675 
Wire Notes Line
	15950 675  15950 2650
Wire Notes Line
	15950 2650 11875 2650
Wire Notes Line
	11875 2650 11875 675 
Text Notes 11975 2575 0    50   ~ 0
Flash memory\n
$Comp
L Device:R R29
U 1 1 6166C745
P 10700 2300
F 0 "R29" V 10700 2350 50  0000 L CNN
F 1 "33" V 10700 2225 50  0000 L CNN
F 2 "" V 10630 2300 50  0001 C CNN
F 3 "~" H 10700 2300 50  0001 C CNN
	1    10700 2300
	0    -1   -1   0   
$EndComp
$Comp
L Device:R R30
U 1 1 616E9FB7
P 10700 2400
F 0 "R30" V 10700 2450 50  0000 L CNN
F 1 "33" V 10700 2325 50  0000 L CNN
F 2 "" V 10630 2400 50  0001 C CNN
F 3 "~" H 10700 2400 50  0001 C CNN
	1    10700 2400
	0    -1   -1   0   
$EndComp
$Comp
L Device:R R31
U 1 1 616EA2AC
P 10700 2600
F 0 "R31" V 10700 2650 50  0000 L CNN
F 1 "33" V 10700 2525 50  0000 L CNN
F 2 "" V 10630 2600 50  0001 C CNN
F 3 "~" H 10700 2600 50  0001 C CNN
	1    10700 2600
	0    -1   -1   0   
$EndComp
$Comp
L Device:R R32
U 1 1 616EA910
P 10700 4800
F 0 "R32" V 10700 4850 50  0000 L CNN
F 1 "33" V 10700 4725 50  0000 L CNN
F 2 "" V 10630 4800 50  0001 C CNN
F 3 "~" H 10700 4800 50  0001 C CNN
	1    10700 4800
	0    -1   -1   0   
$EndComp
$Comp
L Device:R R33
U 1 1 616EB593
P 10700 4900
F 0 "R33" V 10700 4950 50  0000 L CNN
F 1 "33" V 10700 4825 50  0000 L CNN
F 2 "" V 10630 4900 50  0001 C CNN
F 3 "~" H 10700 4900 50  0001 C CNN
	1    10700 4900
	0    -1   -1   0   
$EndComp
$Comp
L Device:R R34
U 1 1 61715064
P 10700 5100
F 0 "R34" V 10700 5150 50  0000 L CNN
F 1 "33" V 10700 5025 50  0000 L CNN
F 2 "" V 10630 5100 50  0001 C CNN
F 3 "~" H 10700 5100 50  0001 C CNN
	1    10700 5100
	0    -1   -1   0   
$EndComp
Wire Wire Line
	10500 4800 10550 4800
Wire Wire Line
	10500 4900 10550 4900
Wire Wire Line
	10500 5100 10550 5100
Wire Wire Line
	10500 2300 10550 2300
Wire Wire Line
	10500 2400 10550 2400
Wire Wire Line
	10500 2600 10550 2600
$Comp
L Device:R R40
U 1 1 61895AAB
P 14375 1675
F 0 "R40" V 14375 1725 50  0000 L CNN
F 1 "33" V 14375 1600 50  0000 L CNN
F 2 "" V 14305 1675 50  0001 C CNN
F 3 "~" H 14375 1675 50  0001 C CNN
	1    14375 1675
	0    -1   -1   0   
$EndComp
Wire Wire Line
	14150 1675 14225 1675
Wire Wire Line
	14525 1675 15150 1675
$Comp
L Device:R R21
U 1 1 6199CEB6
P 8325 7650
F 0 "R21" V 8325 7700 50  0000 L CNN
F 1 "33" V 8325 7575 50  0000 L CNN
F 2 "" V 8255 7650 50  0001 C CNN
F 3 "~" H 8325 7650 50  0001 C CNN
	1    8325 7650
	0    -1   -1   0   
$EndComp
Wire Wire Line
	8075 7450 8900 7450
Wire Wire Line
	8075 7650 8175 7650
Wire Wire Line
	8475 7650 8900 7650
NoConn ~ 9100 3600
NoConn ~ 9100 3700
NoConn ~ 9100 3800
NoConn ~ 9100 3900
NoConn ~ 9100 4000
NoConn ~ 9100 4100
NoConn ~ 9100 4200
NoConn ~ 9100 4300
NoConn ~ 9100 4400
NoConn ~ 9100 4500
NoConn ~ 9100 4600
NoConn ~ 9100 4700
NoConn ~ 9100 4800
NoConn ~ 9100 4900
NoConn ~ 9100 5000
NoConn ~ 9100 5100
NoConn ~ 10500 4700
NoConn ~ 10500 3800
NoConn ~ 10500 3100
NoConn ~ 10500 3000
NoConn ~ 10500 2800
NoConn ~ 10500 2200
NoConn ~ 10500 2100
NoConn ~ 10500 2000
NoConn ~ 10500 1900
Wire Notes Line
	11725 675  11725 5825
Wire Notes Line
	11725 5825 6875 5825
Wire Notes Line
	6875 5825 6875 675 
Wire Notes Line
	6875 675  11725 675 
Text Notes 6975 5750 0    50   ~ 0
Microcontroller\n
$Comp
L Connector:Conn_01x02_Male J8
U 1 1 62331C94
P 4325 2950
F 0 "J8" H 4433 3131 50  0000 C CNN
F 1 "POWER" H 4433 3040 50  0000 C CNN
F 2 "" H 4325 2950 50  0001 C CNN
F 3 "~" H 4325 2950 50  0001 C CNN
	1    4325 2950
	1    0    0    -1  
$EndComp
$Comp
L power:GNDD #PWR028
U 1 1 62333A1E
P 4700 3175
F 0 "#PWR028" H 4700 2925 50  0001 C CNN
F 1 "GNDD" H 4704 3020 50  0000 C CNN
F 2 "" H 4700 3175 50  0001 C CNN
F 3 "" H 4700 3175 50  0001 C CNN
	1    4700 3175
	1    0    0    -1  
$EndComp
Wire Wire Line
	4525 3050 4700 3050
$Comp
L power:+9V #PWR027
U 1 1 62360432
P 4700 2825
F 0 "#PWR027" H 4700 2675 50  0001 C CNN
F 1 "+9V" H 4715 2998 50  0000 C CNN
F 2 "" H 4700 2825 50  0001 C CNN
F 3 "" H 4700 2825 50  0001 C CNN
	1    4700 2825
	1    0    0    -1  
$EndComp
Wire Wire Line
	4525 2950 4700 2950
Wire Wire Line
	4700 2950 4700 2825
Wire Notes Line
	4150 2375 4150 3475
Text Notes 4200 3425 0    50   ~ 0
Power\n
Wire Wire Line
	4700 3050 4700 3175
Wire Notes Line
	4900 3475 4900 2375
Wire Notes Line
	4900 2375 4150 2375
Wire Notes Line
	4900 3475 4150 3475
$Comp
L Connector_Generic:Conn_01x08 J10
U 1 1 6254F889
P 5250 2975
F 0 "J10" H 5168 2350 50  0000 C CNN
F 1 "Conn_01x08" H 5168 2441 50  0000 C CNN
F 2 "" H 5250 2975 50  0001 C CNN
F 3 "~" H 5250 2975 50  0001 C CNN
	1    5250 2975
	-1   0    0    1   
$EndComp
$Comp
L power:GNDD #PWR042
U 1 1 625516DC
P 6425 3350
F 0 "#PWR042" H 6425 3100 50  0001 C CNN
F 1 "GNDD" H 6429 3195 50  0000 C CNN
F 2 "" H 6425 3350 50  0001 C CNN
F 3 "" H 6425 3350 50  0001 C CNN
	1    6425 3350
	1    0    0    -1  
$EndComp
Wire Wire Line
	6425 3275 6425 3350
$Comp
L power:+5V #PWR041
U 1 1 625AD32C
P 6425 3125
F 0 "#PWR041" H 6425 2975 50  0001 C CNN
F 1 "+5V" H 6440 3298 50  0000 C CNN
F 2 "" H 6425 3125 50  0001 C CNN
F 3 "" H 6425 3125 50  0001 C CNN
	1    6425 3125
	1    0    0    -1  
$EndComp
Wire Wire Line
	6425 3175 6425 3125
Text GLabel 5675 3075 2    50   Input ~ 0
SPI_FLASH_SCK
Wire Wire Line
	5450 3175 6425 3175
Wire Wire Line
	5450 3275 6425 3275
Wire Wire Line
	5450 3075 5675 3075
Text GLabel 5675 2975 2    50   Input ~ 0
SPI_FLASH_MOSI
Wire Wire Line
	5450 2975 5675 2975
Wire Wire Line
	5450 2875 5675 2875
Text GLabel 5675 2875 2    50   Input ~ 0
DISP_RES
Wire Wire Line
	5450 2775 5675 2775
Text GLabel 5675 2775 2    50   Input ~ 0
DC
Wire Wire Line
	5450 2675 5675 2675
Text GLabel 5675 2675 2    50   Input ~ 0
DISPLAY_CS
Text GLabel 10575 4100 2    50   Input ~ 0
DISP_RES
Text GLabel 10575 4200 2    50   Input ~ 0
DC
Text GLabel 10575 4300 2    50   Input ~ 0
DISPLAY_CS
$Comp
L MCU_ST_STM32F4:STM32F405RGTx U6
U 1 1 6066B64B
P 9800 3500
F 0 "U6" H 9800 1611 50  0000 C CNN
F 1 "STM32F405RGTx" H 9800 1520 50  0000 C CNN
F 2 "Package_QFP:LQFP-64_10x10mm_P0.5mm" H 9200 1800 50  0001 R CNN
F 3 "http://www.st.com/st-web-ui/static/active/en/resource/technical/document/datasheet/DM00037051.pdf" H 9800 3500 50  0001 C CNN
	1    9800 3500
	1    0    0    -1  
$EndComp
Wire Wire Line
	10575 4100 10500 4100
Wire Wire Line
	10575 4200 10500 4200
Wire Wire Line
	10575 4300 10500 4300
Text GLabel 5675 2575 2    50   Input ~ 0
BL
Wire Wire Line
	5450 2575 5675 2575
Text GLabel 10575 4000 2    50   Input ~ 0
BL
Wire Wire Line
	10500 4000 10575 4000
Wire Notes Line
	6600 3675 5025 3675
Wire Notes Line
	5025 3675 5025 2275
Wire Notes Line
	5025 2275 6600 2275
Wire Notes Line
	6600 2275 6600 3675
Text Notes 5100 3600 0    50   ~ 0
Display
$EndSCHEMATC
