%!PS-Adobe-3.0
%%Creator: PCBNEW
%%CreationDate: Mon Apr 19 20:59:22 2021
%%Title: C:\Users\damja\Desktop\EffectPedalsGit_repo\effectpedals\simple_digital\SimpleDigital\Gerber_files\SimpleDigital-drl_map.ps
%%Pages: 1
%%PageOrder: Ascend
%%BoundingBox: 0 0 596 842
%%DocumentMedia: A4 595 842 0 () ()
%%Orientation: Landscape
%%EndComments
%%BeginProlog
/line { newpath moveto lineto stroke } bind def
/cir0 { newpath 0 360 arc stroke } bind def
/cir1 { newpath 0 360 arc gsave fill grestore stroke } bind def
/cir2 { newpath 0 360 arc gsave fill grestore stroke } bind def
/arc0 { newpath arc stroke } bind def
/arc1 { newpath 4 index 4 index moveto arc closepath gsave fill
    grestore stroke } bind def
/arc2 { newpath 4 index 4 index moveto arc closepath gsave fill
    grestore stroke } bind def
/poly0 { stroke } bind def
/poly1 { closepath gsave fill grestore stroke } bind def
/poly2 { closepath gsave fill grestore stroke } bind def
/rect0 { rectstroke } bind def
/rect1 { rectfill } bind def
/rect2 { rectfill } bind def
/linemode0 { 0 setlinecap 0 setlinejoin 0 setlinewidth } bind def
/linemode1 { 1 setlinecap 1 setlinejoin } bind def
/dashedline { [200] 100 setdash } bind def
/solidline { [] 0 setdash } bind def
/phantomshow { moveto
    /KicadFont findfont 0.000001 scalefont setfont
    show } bind def
/textshow { gsave
    findfont exch scalefont setfont concat 1 scale 0 0 moveto show
    } bind def
/reencodefont {
  findfont dup length dict begin
  { 1 index /FID ne
    { def }
    { pop pop } ifelse
  } forall
  /Encoding ISOLatin1Encoding def
  currentdict
  end } bind def
/KicadFont /Helvetica reencodefont definefont pop
/KicadFont-Bold /Helvetica-Bold reencodefont definefont pop
/KicadFont-Oblique /Helvetica-Oblique reencodefont definefont pop
/KicadFont-BoldOblique /Helvetica-BoldOblique reencodefont definefont pop
%%EndProlog
%%Page: 1 1
%%BeginPageSetup
gsave
0.0072 0.0072 scale
linemode1
82680 0 translate 90 rotate
50.9391 setlinewidth
%%EndPageSetup
0 0 0 setrgbcolor
20.0548 setlinewidth
newpath
74689.3 43135.7 moveto
74689.3 52080.2 lineto
stroke
0 0 0 setrgbcolor
newpath
85117.8 43135.7 moveto
74689.3 43135.7 lineto
stroke
0 0 0 setrgbcolor
newpath
85117.8 52080.2 moveto
85117.8 43135.7 lineto
stroke
0 0 0 setrgbcolor
newpath
74689.3 52080.2 moveto
85117.8 52080.2 lineto
stroke
0 0 0 setrgbcolor
newpath
31812.2 43617.1 moveto
42240.7 43617.1 lineto
stroke
0 0 0 setrgbcolor
newpath
31812.2 52561.5 moveto
31812.2 43617.1 lineto
stroke
0 0 0 setrgbcolor
newpath
42240.7 52561.5 moveto
31812.2 52561.5 lineto
stroke
0 0 0 setrgbcolor
newpath
42240.7 43617.1 moveto
42240.7 52561.5 lineto
stroke
0 0 0 setrgbcolor
newpath
43403.9 37019 moveto
43403.9 68304.5 lineto
stroke
0 0 0 setrgbcolor
newpath
73486 37019 moveto
43403.9 37019 lineto
stroke
0 0 0 setrgbcolor
newpath
73486 68304.5 moveto
73486 37019 lineto
stroke
0 0 0 setrgbcolor
newpath
43403.9 68304.5 moveto
73486 68304.5 lineto
stroke
0 0 0 setrgbcolor
newpath
61272.7 78733 moveto
54454 78733 lineto
stroke
0 0 0 setrgbcolor
newpath
61272.7 69066.6 moveto
61272.7 78733 lineto
stroke
0 0 0 setrgbcolor
newpath
54454 69066.6 moveto
61272.7 69066.6 lineto
stroke
0 0 0 setrgbcolor
newpath
54454 78733 moveto
54454 69066.6 lineto
stroke
78.7399 setlinewidth
newpath
44015.5 62528.7 moveto
44176 62368.3 lineto
stroke
newpath
44176 62528.7 moveto
44015.5 62368.3 lineto
stroke
newpath
44125.8 57525 moveto
44286.3 57364.6 lineto
stroke
newpath
44286.3 57525 moveto
44125.8 57364.6 lineto
stroke
newpath
45469.5 64113 moveto
45629.9 63952.6 lineto
stroke
newpath
45629.9 64113 moveto
45469.5 63952.6 lineto
stroke
newpath
45790.4 60763.9 moveto
45950.8 60603.4 lineto
stroke
newpath
45950.8 60763.9 moveto
45790.4 60603.4 lineto
stroke
newpath
45860.6 57535.1 moveto
46021 57374.6 lineto
stroke
newpath
46021 57535.1 moveto
45860.6 57374.6 lineto
stroke
newpath
46051.1 62508.7 moveto
46211.5 62348.2 lineto
stroke
newpath
46211.5 62508.7 moveto
46051.1 62348.2 lineto
stroke
newpath
46051.1 61676.4 moveto
46211.5 61515.9 lineto
stroke
newpath
46211.5 61676.4 moveto
46051.1 61515.9 lineto
stroke
newpath
46081.2 52742 moveto
46241.6 52581.5 lineto
stroke
newpath
46241.6 52742 moveto
46081.2 52581.5 lineto
stroke
newpath
46993.7 56542.4 moveto
47154.1 56381.9 lineto
stroke
newpath
47154.1 56542.4 moveto
46993.7 56381.9 lineto
stroke
newpath
47675.5 66068.4 moveto
47836 65907.9 lineto
stroke
newpath
47836 66068.4 moveto
47675.5 65907.9 lineto
stroke
newpath
47695.6 57635.3 moveto
47856 57474.9 lineto
stroke
newpath
47856 57635.3 moveto
47695.6 57474.9 lineto
stroke
newpath
47765.8 59791.2 moveto
47926.2 59630.8 lineto
stroke
newpath
47926.2 59791.2 moveto
47765.8 59630.8 lineto
stroke
newpath
48926.9 66574.6 moveto
49087.3 66414.2 lineto
stroke
newpath
49087.3 66574.6 moveto
48926.9 66414.2 lineto
stroke
newpath
49069.3 54516.8 moveto
49229.8 54356.4 lineto
stroke
newpath
49229.8 54516.8 moveto
49069.3 54356.4 lineto
stroke
newpath
49089.4 56091.1 moveto
49249.8 55930.7 lineto
stroke
newpath
49249.8 56091.1 moveto
49089.4 55930.7 lineto
stroke
newpath
49911.6 67271.7 moveto
50072.1 67111.2 lineto
stroke
newpath
50072.1 67271.7 moveto
49911.6 67111.2 lineto
stroke
newpath
50001.9 60483.1 moveto
50162.3 60322.7 lineto
stroke
newpath
50162.3 60483.1 moveto
50001.9 60322.7 lineto
stroke
newpath
50282.7 65938 moveto
50443.1 65777.6 lineto
stroke
newpath
50443.1 65938 moveto
50282.7 65777.6 lineto
stroke
newpath
51275.4 46916.1 moveto
51435.8 46755.6 lineto
stroke
newpath
51435.8 46916.1 moveto
51275.4 46755.6 lineto
stroke
newpath
51275.4 45913.3 moveto
51435.8 45752.9 lineto
stroke
newpath
51435.8 45913.3 moveto
51275.4 45752.9 lineto
stroke
newpath
51445.8 62749.3 moveto
51606.3 62588.9 lineto
stroke
newpath
51606.3 62749.3 moveto
51445.8 62588.9 lineto
stroke
newpath
51536.1 52070.1 moveto
51696.5 51909.7 lineto
stroke
newpath
51696.5 52070.1 moveto
51536.1 51909.7 lineto
stroke
newpath
52177.8 50307.3 moveto
52338.3 50146.9 lineto
stroke
newpath
52338.3 50307.3 moveto
52177.8 50146.9 lineto
stroke
newpath
52258 38021.8 moveto
52418.5 37861.3 lineto
stroke
newpath
52418.5 38021.8 moveto
52258 37861.3 lineto
stroke
newpath
52298.2 52862.3 moveto
52458.6 52701.9 lineto
stroke
newpath
52458.6 52862.3 moveto
52298.2 52701.9 lineto
stroke
newpath
52819.6 45863.2 moveto
52980 45702.8 lineto
stroke
newpath
52980 45863.2 moveto
52819.6 45702.8 lineto
stroke
newpath
52929.9 49894.2 moveto
53090.3 49733.8 lineto
stroke
newpath
53090.3 49894.2 moveto
52929.9 49733.8 lineto
stroke
newpath
53019.9 52902.5 moveto
53180.3 52742.1 lineto
stroke
newpath
53180.3 52902.5 moveto
53019.9 52742.1 lineto
stroke
newpath
53050.2 53714.6 moveto
53210.6 53554.2 lineto
stroke
newpath
53210.6 53714.6 moveto
53050.2 53554.2 lineto
stroke
newpath
53160.5 52020 moveto
53321 51859.6 lineto
stroke
newpath
53321 52020 moveto
53160.5 51859.6 lineto
stroke
newpath
53210.6 57134 moveto
53371.1 56973.5 lineto
stroke
newpath
53371.1 57134 moveto
53210.6 56973.5 lineto
stroke
newpath
53280.8 38924.2 moveto
53441.3 38763.8 lineto
stroke
newpath
53441.3 38924.2 moveto
53280.8 38763.8 lineto
stroke
newpath
53290.9 38041.8 moveto
53451.3 37881.4 lineto
stroke
newpath
53451.3 38041.8 moveto
53290.9 37881.4 lineto
stroke
newpath
53752.1 47166.8 moveto
53912.6 47006.3 lineto
stroke
newpath
53912.6 47166.8 moveto
53752.1 47006.3 lineto
stroke
newpath
53752.1 45642.6 moveto
53912.6 45482.1 lineto
stroke
newpath
53912.6 45642.6 moveto
53752.1 45482.1 lineto
stroke
newpath
54432.9 55545.7 moveto
54593.3 55385.3 lineto
stroke
newpath
54593.3 55545.7 moveto
54432.9 55385.3 lineto
stroke
newpath
54514.2 65687.3 moveto
54674.6 65526.9 lineto
stroke
newpath
54674.6 65687.3 moveto
54514.2 65526.9 lineto
stroke
newpath
54634.5 49284.5 moveto
54795 49124.1 lineto
stroke
newpath
54795 49284.5 moveto
54634.5 49124.1 lineto
stroke
newpath
54995.5 46685.4 moveto
55156 46525 lineto
stroke
newpath
55156 46685.4 moveto
54995.5 46525 lineto
stroke
newpath
55065.7 44661.9 moveto
55226.2 44501.5 lineto
stroke
newpath
55226.2 44661.9 moveto
55065.7 44501.5 lineto
stroke
newpath
55075.7 46164 moveto
55236.2 46003.6 lineto
stroke
newpath
55236.2 46164 moveto
55075.7 46003.6 lineto
stroke
newpath
55196.1 42624.3 moveto
55356.5 42463.9 lineto
stroke
newpath
55356.5 42624.3 moveto
55196.1 42463.9 lineto
stroke
newpath
55196.1 42082.9 moveto
55356.5 41922.4 lineto
stroke
newpath
55356.5 42082.9 moveto
55196.1 41922.4 lineto
stroke
newpath
55216.1 41563.4 moveto
55376.6 41403 lineto
stroke
newpath
55376.6 41563.4 moveto
55216.1 41403 lineto
stroke
newpath
55476.8 58277.1 moveto
55637.3 58116.7 lineto
stroke
newpath
55637.3 58277.1 moveto
55476.8 58116.7 lineto
stroke
newpath
55476.8 57755.7 moveto
55637.3 57595.2 lineto
stroke
newpath
55637.3 57755.7 moveto
55476.8 57595.2 lineto
stroke
newpath
55486.9 54246.1 moveto
55647.3 54085.6 lineto
stroke
newpath
55647.3 54246.1 moveto
55486.9 54085.6 lineto
stroke
newpath
55677.4 44010.1 moveto
55837.8 43849.7 lineto
stroke
newpath
55837.8 44010.1 moveto
55677.4 43849.7 lineto
stroke
newpath
55918 47329.2 moveto
56078.5 47168.8 lineto
stroke
newpath
56078.5 47329.2 moveto
55918 47168.8 lineto
stroke
newpath
56098.5 40320.1 moveto
56259 40159.6 lineto
stroke
newpath
56259 40320.1 moveto
56098.5 40159.6 lineto
stroke
newpath
56188.8 38844 moveto
56349.2 38683.6 lineto
stroke
newpath
56349.2 38844 moveto
56188.8 38683.6 lineto
stroke
newpath
56319.1 56111.2 moveto
56479.6 55950.7 lineto
stroke
newpath
56479.6 56111.2 moveto
56319.1 55950.7 lineto
stroke
newpath
56469.5 43498.7 moveto
56630 43338.3 lineto
stroke
newpath
56630 43498.7 moveto
56469.5 43338.3 lineto
stroke
newpath
56474.4 60904.3 moveto
56634.9 60743.9 lineto
stroke
newpath
56634.9 60904.3 moveto
56474.4 60743.9 lineto
stroke
newpath
56489.6 47559.8 moveto
56650 47399.4 lineto
stroke
newpath
56650 47559.8 moveto
56489.6 47399.4 lineto
stroke
newpath
56780.4 58838.6 moveto
56940.8 58678.2 lineto
stroke
newpath
56940.8 58838.6 moveto
56780.4 58678.2 lineto
stroke
newpath
56780.4 58277.1 moveto
56940.8 58116.7 lineto
stroke
newpath
56940.8 58277.1 moveto
56780.4 58116.7 lineto
stroke
newpath
56780.4 57675.5 moveto
56940.8 57515 lineto
stroke
newpath
56940.8 57675.5 moveto
56780.4 57515 lineto
stroke
newpath
57241.7 40330.1 moveto
57402.1 40169.6 lineto
stroke
newpath
57402.1 40330.1 moveto
57241.7 40169.6 lineto
stroke
newpath
57462.3 44850.4 moveto
57622.7 44690 lineto
stroke
newpath
57622.7 44850.4 moveto
57462.3 44690 lineto
stroke
newpath
57462.3 43366.4 moveto
57622.7 43205.9 lineto
stroke
newpath
57622.7 43366.4 moveto
57462.3 43205.9 lineto
stroke
newpath
57582.6 41062.1 moveto
57743 40901.6 lineto
stroke
newpath
57743 41062.1 moveto
57582.6 40901.6 lineto
stroke
newpath
57582.6 42072.8 moveto
57743 41912.4 lineto
stroke
newpath
57743 42072.8 moveto
57582.6 41912.4 lineto
stroke
newpath
57682.9 59801.3 moveto
57843.3 59640.8 lineto
stroke
newpath
57843.3 59801.3 moveto
57682.9 59640.8 lineto
stroke
newpath
57723 59279.8 moveto
57883.4 59119.4 lineto
stroke
newpath
57883.4 59279.8 moveto
57723 59119.4 lineto
stroke
newpath
57809.2 50100.8 moveto
57969.6 49940.3 lineto
stroke
newpath
57969.6 50100.8 moveto
57809.2 49940.3 lineto
stroke
newpath
57893.4 52742 moveto
58053.9 52581.5 lineto
stroke
newpath
58053.9 52742 moveto
57893.4 52581.5 lineto
stroke
newpath
58104 74280.8 moveto
58264.5 74120.4 lineto
stroke
newpath
58264.5 74280.8 moveto
58104 74120.4 lineto
stroke
newpath
58104 73037.4 moveto
58264.5 72877 lineto
stroke
newpath
58264.5 73037.4 moveto
58104 72877 lineto
stroke
newpath
59106.8 60322.7 moveto
59267.2 60162.2 lineto
stroke
newpath
59267.2 60322.7 moveto
59106.8 60162.2 lineto
stroke
newpath
59146.9 62949.9 moveto
59307.3 62789.4 lineto
stroke
newpath
59307.3 62949.9 moveto
59146.9 62789.4 lineto
stroke
newpath
59307.3 50746.5 moveto
59467.7 50586.1 lineto
stroke
newpath
59467.7 50746.5 moveto
59307.3 50586.1 lineto
stroke
newpath
59748.5 52932.5 moveto
59908.9 52772.1 lineto
stroke
newpath
59908.9 52932.5 moveto
59748.5 52772.1 lineto
stroke
newpath
59888.9 49653.5 moveto
60049.3 49493.1 lineto
stroke
newpath
60049.3 49653.5 moveto
59888.9 49493.1 lineto
stroke
newpath
60199.7 39335.4 moveto
60360.2 39174.9 lineto
stroke
newpath
60360.2 39335.4 moveto
60199.7 39174.9 lineto
stroke
newpath
60951.8 53423.8 moveto
61112.2 53263.4 lineto
stroke
newpath
61112.2 53423.8 moveto
60951.8 53263.4 lineto
stroke
newpath
61001.9 43095.6 moveto
61162.4 42935.2 lineto
stroke
newpath
61162.4 43095.6 moveto
61001.9 42935.2 lineto
stroke
newpath
61001.9 42343.6 moveto
61162.4 42183.1 lineto
stroke
newpath
61162.4 42343.6 moveto
61001.9 42183.1 lineto
stroke
newpath
61032 43817.6 moveto
61192.4 43657.2 lineto
stroke
newpath
61192.4 43817.6 moveto
61032 43657.2 lineto
stroke
newpath
61052.1 45772.9 moveto
61212.5 45612.5 lineto
stroke
newpath
61212.5 45772.9 moveto
61052.1 45612.5 lineto
stroke
newpath
61052.1 45141.2 moveto
61212.5 44980.8 lineto
stroke
newpath
61212.5 45141.2 moveto
61052.1 44980.8 lineto
stroke
newpath
61052.1 44499.5 moveto
61212.5 44339 lineto
stroke
newpath
61212.5 44499.5 moveto
61052.1 44339 lineto
stroke
newpath
61242.6 39545.9 moveto
61403 39385.5 lineto
stroke
newpath
61403 39545.9 moveto
61242.6 39385.5 lineto
stroke
newpath
61263.5 60896.3 moveto
61423.9 60735.9 lineto
stroke
newpath
61423.9 60896.3 moveto
61263.5 60735.9 lineto
stroke
newpath
61423.1 62488.6 moveto
61583.5 62328.2 lineto
stroke
newpath
61583.5 62488.6 moveto
61423.1 62328.2 lineto
stroke
newpath
61653.7 63290.8 moveto
61814.1 63130.4 lineto
stroke
newpath
61814.1 63290.8 moveto
61653.7 63130.4 lineto
stroke
newpath
61784.1 53694.6 moveto
61944.5 53534.1 lineto
stroke
newpath
61944.5 53694.6 moveto
61784.1 53534.1 lineto
stroke
newpath
61854.3 52030 moveto
62014.7 51869.6 lineto
stroke
newpath
62014.7 52030 moveto
61854.3 51869.6 lineto
stroke
newpath
61874.3 39004.5 moveto
62034.7 38844 lineto
stroke
newpath
62034.7 39004.5 moveto
61874.3 38844 lineto
stroke
newpath
62185.2 62699.2 moveto
62345.6 62538.7 lineto
stroke
newpath
62345.6 62699.2 moveto
62185.2 62538.7 lineto
stroke
newpath
62235.3 59209.6 moveto
62395.7 59049.2 lineto
stroke
newpath
62395.7 59209.6 moveto
62235.3 59049.2 lineto
stroke
newpath
62425.8 38372.7 moveto
62586.3 38212.3 lineto
stroke
newpath
62586.3 38372.7 moveto
62425.8 38212.3 lineto
stroke
newpath
62455.9 60814 moveto
62616.3 60653.6 lineto
stroke
newpath
62616.3 60814 moveto
62455.9 60653.6 lineto
stroke
newpath
62576.2 62278 moveto
62736.7 62117.6 lineto
stroke
newpath
62736.7 62278 moveto
62576.2 62117.6 lineto
stroke
newpath
62927.2 41461.2 moveto
63087.6 41300.7 lineto
stroke
newpath
63087.6 41461.2 moveto
62927.2 41300.7 lineto
stroke
newpath
63087.6 48951.6 moveto
63248.1 48791.2 lineto
stroke
newpath
63248.1 48951.6 moveto
63087.6 48791.2 lineto
stroke
newpath
63117.7 39866.8 moveto
63278.1 39706.4 lineto
stroke
newpath
63278.1 39866.8 moveto
63117.7 39706.4 lineto
stroke
newpath
63172.7 60900.3 moveto
63333.2 60739.9 lineto
stroke
newpath
63333.2 60900.3 moveto
63172.7 60739.9 lineto
stroke
newpath
63268.1 53684.6 moveto
63428.6 53524.1 lineto
stroke
newpath
63428.6 53684.6 moveto
63268.1 53524.1 lineto
stroke
newpath
64421.3 41441.1 moveto
64581.7 41280.7 lineto
stroke
newpath
64581.7 41441.1 moveto
64421.3 41280.7 lineto
stroke
newpath
64421.3 39796.6 moveto
64581.7 39636.2 lineto
stroke
newpath
64581.7 39796.6 moveto
64421.3 39636.2 lineto
stroke
newpath
64672 63310.8 moveto
64832.4 63150.4 lineto
stroke
newpath
64832.4 63310.8 moveto
64672 63150.4 lineto
stroke
newpath
64672 62398.4 moveto
64832.4 62237.9 lineto
stroke
newpath
64832.4 62398.4 moveto
64672 62237.9 lineto
stroke
newpath
64672 59550.6 moveto
64832.4 59390.1 lineto
stroke
newpath
64832.4 59550.6 moveto
64672 59390.1 lineto
stroke
newpath
64902.6 50235.1 moveto
65063 50074.7 lineto
stroke
newpath
65063 50235.1 moveto
64902.6 50074.7 lineto
stroke
newpath
64982.8 55780.3 moveto
65143.2 55619.8 lineto
stroke
newpath
65143.2 55780.3 moveto
64982.8 55619.8 lineto
stroke
newpath
65022.9 58678.2 moveto
65183.3 58517.8 lineto
stroke
newpath
65183.3 58678.2 moveto
65022.9 58517.8 lineto
stroke
newpath
65063 51318.1 moveto
65223.5 51157.7 lineto
stroke
newpath
65223.5 51318.1 moveto
65063 51157.7 lineto
stroke
newpath
65484.2 55068.3 moveto
65644.6 54907.9 lineto
stroke
newpath
65644.6 55068.3 moveto
65484.2 54907.9 lineto
stroke
newpath
66005.6 57434.8 moveto
66166 57274.4 lineto
stroke
newpath
66166 57434.8 moveto
66005.6 57274.4 lineto
stroke
newpath
66055.7 57946.2 moveto
66216.2 57785.8 lineto
stroke
newpath
66216.2 57946.2 moveto
66055.7 57785.8 lineto
stroke
newpath
66136 43937.9 moveto
66296.4 43777.5 lineto
stroke
newpath
66296.4 43937.9 moveto
66136 43777.5 lineto
stroke
newpath
66186.1 53313.5 moveto
66346.5 53153.1 lineto
stroke
newpath
66346.5 53313.5 moveto
66186.1 53153.1 lineto
stroke
newpath
66306.4 60041.9 moveto
66466.9 59881.5 lineto
stroke
newpath
66466.9 60041.9 moveto
66306.4 59881.5 lineto
stroke
newpath
66356.6 57645.4 moveto
66517 57484.9 lineto
stroke
newpath
66517 57645.4 moveto
66356.6 57484.9 lineto
stroke
newpath
66386.6 51568.8 moveto
66547.1 51408.3 lineto
stroke
newpath
66547.1 51568.8 moveto
66386.6 51408.3 lineto
stroke
newpath
67038.4 57645.4 moveto
67198.9 57484.9 lineto
stroke
newpath
67198.9 57645.4 moveto
67038.4 57484.9 lineto
stroke
newpath
67730.3 53293.5 moveto
67890.7 53133 lineto
stroke
newpath
67890.7 53293.5 moveto
67730.3 53133 lineto
stroke
newpath
67730.3 47297.1 moveto
67890.7 47136.7 lineto
stroke
newpath
67890.7 47297.1 moveto
67730.3 47136.7 lineto
stroke
newpath
67760.4 49733.8 moveto
67920.8 49573.3 lineto
stroke
newpath
67920.8 49733.8 moveto
67760.4 49573.3 lineto
stroke
newpath
67830.6 57655.4 moveto
67991 57495 lineto
stroke
newpath
67991 57655.4 moveto
67830.6 57495 lineto
stroke
51237.3 41150.3 180.493 cir0
51237.3 40131.5 180.493 cir0
51237.3 39112.8 180.493 cir0
51257.3 44306.9 180.493 cir0
51257.3 43288.2 180.493 cir0
51257.3 42269.4 180.493 cir0
69465 61983.2 180.493 cir0
69465 60964.4 180.493 cir0
newpath
49731.1 51328.1 moveto
49731.1 50927 lineto
stroke
newpath
49530.6 51127.6 moveto
49931.7 51127.6 lineto
stroke
newpath
49731.1 50309.3 moveto
49731.1 49908.2 lineto
stroke
newpath
49530.6 50108.8 moveto
49931.7 50108.8 lineto
stroke
newpath
49731.1 49290.6 moveto
49731.1 48889.5 lineto
stroke
newpath
49530.6 49090 moveto
49931.7 49090 lineto
stroke
newpath
49731.1 48271.8 moveto
49731.1 47870.7 lineto
stroke
newpath
49530.6 48071.2 moveto
49931.7 48071.2 lineto
stroke
newpath
49731.1 47253 moveto
49731.1 46851.9 lineto
stroke
newpath
49530.6 47052.4 moveto
49931.7 47052.4 lineto
stroke
newpath
49731.1 46234.2 moveto
49731.1 45833.1 lineto
stroke
newpath
49530.6 46033.7 moveto
49931.7 46033.7 lineto
stroke
newpath
67359.3 64253.4 moveto
67359.3 63852.3 lineto
stroke
newpath
67158.7 64052.9 moveto
67559.8 64052.9 lineto
stroke
newpath
67359.3 63234.6 moveto
67359.3 62833.5 lineto
stroke
newpath
67158.7 63034.1 moveto
67559.8 63034.1 lineto
stroke
newpath
67359.3 62215.9 moveto
67359.3 61814.8 lineto
stroke
newpath
67158.7 62015.3 moveto
67559.8 62015.3 lineto
stroke
newpath
67359.3 61197.1 moveto
67359.3 60796 lineto
stroke
newpath
67158.7 60996.5 moveto
67559.8 60996.5 lineto
stroke
newpath
67359.3 60178.3 moveto
67359.3 59777.2 lineto
stroke
newpath
67158.7 59977.7 moveto
67559.8 59977.7 lineto
stroke
newpath
67359.3 59159.5 moveto
67359.3 58758.4 lineto
stroke
newpath
67158.7 58959 moveto
67559.8 58959 lineto
stroke
newpath
54740.8 39487.8 moveto
54740.8 39086.7 lineto
stroke
newpath
54540.3 39287.2 moveto
54941.4 39287.2 lineto
stroke
newpath
55759.6 39487.8 moveto
55759.6 39086.7 lineto
stroke
newpath
55559.1 39287.2 moveto
55960.2 39287.2 lineto
stroke
newpath
56778.4 39487.8 moveto
56778.4 39086.7 lineto
stroke
newpath
56577.8 39287.2 moveto
56978.9 39287.2 lineto
stroke
newpath
57797.2 39487.8 moveto
57797.2 39086.7 lineto
stroke
newpath
57596.6 39287.2 moveto
57997.7 39287.2 lineto
stroke
newpath
58816 39487.8 moveto
58816 39086.7 lineto
stroke
newpath
58615.4 39287.2 moveto
59016.5 39287.2 lineto
stroke
newpath
62165.1 42253.3 moveto
62165.1 41852.2 lineto
stroke
newpath
61964.6 42052.8 moveto
62365.7 42052.8 lineto
stroke
newpath
62165.1 41234.5 moveto
62165.1 40833.5 lineto
stroke
newpath
61964.6 41034 moveto
62365.7 41034 lineto
stroke
newpath
62165.1 40215.8 moveto
62165.1 39814.7 lineto
stroke
newpath
61964.6 40015.2 moveto
62365.7 40015.2 lineto
stroke
newpath
56194.8 70751.2 moveto
56194.8 70350.1 lineto
stroke
newpath
55994.3 70550.6 moveto
56395.3 70550.6 lineto
stroke
newpath
57213.6 70751.2 moveto
57213.6 70350.1 lineto
stroke
newpath
57013 70550.6 moveto
57414.1 70550.6 lineto
stroke
newpath
58232.4 70751.2 moveto
58232.4 70350.1 lineto
stroke
newpath
58031.8 70550.6 moveto
58432.9 70550.6 lineto
stroke
newpath
59251.1 70751.2 moveto
59251.1 70350.1 lineto
stroke
newpath
59050.6 70550.6 moveto
59451.7 70550.6 lineto
stroke
newpath
60269.9 70751.2 moveto
60269.9 70350.1 lineto
stroke
newpath
60069.4 70550.6 moveto
60470.5 70550.6 lineto
stroke
newpath
41310.1 50905 moveto
41310.1 50503.9 lineto
stroke
newpath
41109.6 50704.4 moveto
41510.7 50704.4 lineto
stroke
newpath
41310.1 49886.2 moveto
41310.1 49485.1 lineto
stroke
newpath
41109.6 49685.6 moveto
41510.7 49685.6 lineto
stroke
newpath
41310.1 48867.4 moveto
41310.1 48466.3 lineto
stroke
newpath
41109.6 48666.8 moveto
41510.7 48666.8 lineto
stroke
newpath
41310.1 47848.6 moveto
41310.1 47447.5 lineto
stroke
newpath
41109.6 47648.1 moveto
41510.7 47648.1 lineto
stroke
newpath
41310.1 46829.8 moveto
41310.1 46428.7 lineto
stroke
newpath
41109.6 46629.3 moveto
41510.7 46629.3 lineto
stroke
newpath
41310.1 45811 moveto
41310.1 45410 lineto
stroke
newpath
41109.6 45610.5 moveto
41510.7 45610.5 lineto
stroke
newpath
57161.4 77890.7 moveto
57161.4 77489.6 lineto
stroke
newpath
56960.9 77690.1 moveto
57362 77690.1 lineto
stroke
newpath
57161.4 72074.8 moveto
57161.4 71673.7 lineto
stroke
newpath
56960.9 71874.2 moveto
57362 71874.2 lineto
stroke
newpath
58164.2 72074.8 moveto
58164.2 71673.7 lineto
stroke
newpath
57963.6 71874.2 moveto
58364.7 71874.2 lineto
stroke
newpath
59166.9 77890.7 moveto
59166.9 77489.6 lineto
stroke
newpath
58966.4 77690.1 moveto
59367.5 77690.1 lineto
stroke
newpath
59166.9 72074.8 moveto
59166.9 71673.7 lineto
stroke
newpath
58966.4 71874.2 moveto
59367.5 71874.2 lineto
stroke
newpath
53020.1 47989 moveto
53020.1 47587.9 lineto
stroke
newpath
52819.6 47788.4 moveto
53220.7 47788.4 lineto
stroke
newpath
53020.1 46970.2 moveto
53020.1 46569.1 lineto
stroke
newpath
52819.6 46769.7 moveto
53220.7 46769.7 lineto
stroke
newpath
62125 50349.4 moveto
62125 49948.3 lineto
stroke
newpath
61924.4 50148.9 moveto
62325.5 50148.9 lineto
stroke
newpath
62125 49330.7 moveto
62125 48929.6 lineto
stroke
newpath
61924.4 49130.1 moveto
62325.5 49130.1 lineto
stroke
newpath
62125 48311.9 moveto
62125 47910.8 lineto
stroke
newpath
61924.4 48111.3 moveto
62325.5 48111.3 lineto
stroke
newpath
62125 47293.1 moveto
62125 46892 lineto
stroke
newpath
61924.4 47092.5 moveto
62325.5 47092.5 lineto
stroke
newpath
62125 46274.3 moveto
62125 45873.2 lineto
stroke
newpath
61924.4 46073.8 moveto
62325.5 46073.8 lineto
stroke
newpath
62155.1 44780.2 moveto
62155.1 44379.1 lineto
stroke
newpath
61954.5 44579.7 moveto
62355.6 44579.7 lineto
stroke
newpath
62155.1 43761.5 moveto
62155.1 43360.4 lineto
stroke
newpath
61954.5 43560.9 moveto
62355.6 43560.9 lineto
stroke
newpath
75559.7 50359.5 moveto
75559.7 49958.4 lineto
stroke
newpath
75359.1 50158.9 moveto
75760.2 50158.9 lineto
stroke
newpath
75559.7 49340.7 moveto
75559.7 48939.6 lineto
stroke
newpath
75359.1 49140.1 moveto
75760.2 49140.1 lineto
stroke
newpath
75559.7 48321.9 moveto
75559.7 47920.8 lineto
stroke
newpath
75359.1 48121.4 moveto
75760.2 48121.4 lineto
stroke
newpath
75559.7 47303.1 moveto
75559.7 46902 lineto
stroke
newpath
75359.1 47102.6 moveto
75760.2 47102.6 lineto
stroke
newpath
75559.7 46284.3 moveto
75559.7 45883.2 lineto
stroke
newpath
75359.1 46083.8 moveto
75760.2 46083.8 lineto
stroke
newpath
75559.7 45265.6 moveto
75559.7 44864.5 lineto
stroke
newpath
75359.1 45065 moveto
75760.2 45065 lineto
stroke
newpath
56732.5 66552.2 moveto
56732.5 66892.6 lineto
56392.2 66892.6 lineto
56392.2 66552.2 lineto
56732.5 66552.2 lineto
poly0
newpath
57771.7 66542 moveto
57771.7 66882.4 lineto
57431.3 66882.4 lineto
57431.3 66542 lineto
57771.7 66542 lineto
poly0
newpath
57771.7 65523.2 moveto
57771.7 65863.6 lineto
57431.3 65863.6 lineto
57431.3 65523.2 lineto
57771.7 65523.2 lineto
poly0
newpath
54804.7 64293.8 moveto
54804.7 64634.2 lineto
54464.4 64634.2 lineto
54464.4 64293.8 lineto
54804.7 64293.8 lineto
poly0
newpath
55823.5 64293.8 moveto
55823.5 64634.2 lineto
55483.1 64634.2 lineto
55483.1 64293.8 lineto
55823.5 64293.8 lineto
poly0
newpath
56842.3 64293.8 moveto
56842.3 64634.2 lineto
56501.9 64634.2 lineto
56501.9 64293.8 lineto
56842.3 64293.8 lineto
poly0
newpath
70929 61786.7 moveto
71189.8 62047.4 lineto
70929 62308.1 lineto
70668.3 62047.4 lineto
70929 61786.7 lineto
poly0
newpath
68131.4 50546 moveto
68392.1 50806.7 lineto
68131.4 51067.4 lineto
67870.7 50806.7 lineto
68131.4 50546 lineto
poly0
newpath
51315.5 49192.3 moveto
51576.2 49453 lineto
51315.5 49713.7 lineto
51054.8 49453 lineto
51315.5 49192.3 lineto
poly0
newpath
68893.5 59129.4 moveto
69154.2 59390.1 lineto
68893.5 59650.8 lineto
68632.8 59390.1 lineto
68893.5 59129.4 lineto
poly0
newpath
63318.3 54426.6 moveto
63579 54687.3 lineto
63318.3 54948 lineto
63057.5 54687.3 lineto
63318.3 54426.6 lineto
poly0
newpath
61733.9 55018.2 moveto
61994.6 55278.9 lineto
61733.9 55539.6 lineto
61473.2 55278.9 lineto
61733.9 55018.2 lineto
poly0
newpath
78086.6 51145.6 moveto
78688.2 50544 lineto
stroke
newpath
78688.2 51145.6 moveto
78086.6 50544 lineto
stroke
78387.4 50844.8 300.822 cir0
newpath
78086.6 44635.8 moveto
78688.2 44034.2 lineto
stroke
newpath
78688.2 44635.8 moveto
78086.6 44034.2 lineto
stroke
78387.4 44335 300.822 cir0
newpath
80633.5 51145.6 moveto
81235.2 50544 lineto
stroke
newpath
81235.2 51145.6 moveto
80633.5 50544 lineto
stroke
80934.4 50844.8 300.822 cir0
newpath
80633.5 44635.8 moveto
81235.2 44034.2 lineto
stroke
newpath
81235.2 44635.8 moveto
80633.5 44034.2 lineto
stroke
80934.4 44335 300.822 cir0
newpath
83180.5 51145.6 moveto
83782.1 50544 lineto
stroke
newpath
83782.1 51145.6 moveto
83180.5 50544 lineto
stroke
83481.3 50844.8 300.822 cir0
newpath
83180.5 44635.8 moveto
83782.1 44034.2 lineto
stroke
newpath
83782.1 44635.8 moveto
83180.5 44034.2 lineto
stroke
83481.3 44335 300.822 cir0
newpath
33115.8 51675.1 moveto
33717.4 51073.4 lineto
stroke
newpath
33717.4 51675.1 moveto
33115.8 51073.4 lineto
stroke
33416.6 51374.2 300.822 cir0
newpath
33115.8 45165.3 moveto
33717.4 44563.6 lineto
stroke
newpath
33717.4 45165.3 moveto
33115.8 44563.6 lineto
stroke
33416.6 44864.5 300.822 cir0
newpath
35662.7 51675.1 moveto
36264.4 51073.4 lineto
stroke
newpath
36264.4 51675.1 moveto
35662.7 51073.4 lineto
stroke
35963.5 51374.2 300.822 cir0
newpath
35662.7 45165.3 moveto
36264.4 44563.6 lineto
stroke
newpath
36264.4 45165.3 moveto
35662.7 44563.6 lineto
stroke
35963.5 44864.5 300.822 cir0
newpath
38209.7 51675.1 moveto
38811.3 51073.4 lineto
stroke
newpath
38811.3 51675.1 moveto
38209.7 51073.4 lineto
stroke
38510.5 51374.2 300.822 cir0
newpath
38209.7 45165.3 moveto
38811.3 44563.6 lineto
stroke
newpath
38811.3 45165.3 moveto
38209.7 44563.6 lineto
stroke
38510.5 44864.5 300.822 cir0
newpath
55516.9 75243.4 moveto
56238.9 74521.5 lineto
stroke
newpath
56238.9 75243.4 moveto
55516.9 74521.5 lineto
stroke
newpath
55877.9 75243.4 moveto
55877.9 74521.5 lineto
stroke
newpath
55516.9 74882.4 moveto
56238.9 74882.4 lineto
stroke
newpath
55556.3 75042.9 moveto
55556.3 74722 lineto
stroke
newpath
56199.6 75042.9 moveto
56199.6 74722 lineto
stroke
55877.9 74722 321.616 180 360 arc0
55877.9 75042.9 321.616 0 180 arc0
newpath
60089.4 75243.4 moveto
60811.4 74521.5 lineto
stroke
newpath
60811.4 75243.4 moveto
60089.4 74521.5 lineto
stroke
newpath
60450.4 75243.4 moveto
60450.4 74521.5 lineto
stroke
newpath
60089.4 74882.4 moveto
60811.4 74882.4 lineto
stroke
newpath
60128.8 75042.9 moveto
60128.8 74722 lineto
stroke
newpath
60772 75042.9 moveto
60772 74722 lineto
stroke
60450.4 74722 321.616 180 360 arc0
60450.4 75042.9 321.616 0 180 arc0
newpath
69435 65557 moveto
70718.5 64273.5 lineto
stroke
newpath
70718.5 65557 moveto
69435 64273.5 lineto
stroke
newpath
70530.5 64461.4 moveto
70530.5 65369 lineto
69622.9 65369 lineto
69622.9 64461.4 lineto
70530.5 64461.4 lineto
poly0
newpath
46171.4 41050 moveto
47454.9 39766.5 lineto
stroke
newpath
47454.9 41050 moveto
46171.4 39766.5 lineto
stroke
newpath
47267 39954.5 moveto
47267 40862.1 lineto
46359.4 40862.1 lineto
46359.4 39954.5 lineto
47267 39954.5 lineto
poly0
newpath
69435 41070.1 moveto
70718.5 39786.6 lineto
stroke
newpath
70718.5 41070.1 moveto
69435 39786.6 lineto
stroke
newpath
70530.5 39974.6 moveto
70530.5 40882.1 lineto
69622.9 40882.1 lineto
69622.9 39974.6 lineto
70530.5 39974.6 lineto
poly0
118.11 setlinewidth
0 0 0 setrgbcolor
0 0 0 setrgbcolor
newpath
32929.8 35175.5 moveto
32929.8 36356.6 lineto
33211.1 36356.6 lineto
33379.8 36300.3 lineto
33492.3 36187.9 lineto
33548.5 36075.4 lineto
33604.8 35850.4 lineto
33604.8 35681.7 lineto
33548.5 35456.7 lineto
33492.3 35344.2 lineto
33379.8 35231.7 lineto
33211.1 35175.5 lineto
32929.8 35175.5 lineto
stroke
newpath
34111 35175.5 moveto
34111 35962.9 lineto
stroke
newpath
34111 35737.9 moveto
34167.2 35850.4 lineto
34223.4 35906.6 lineto
34335.9 35962.9 lineto
34448.4 35962.9 lineto
stroke
newpath
34842.1 35175.5 moveto
34842.1 35962.9 lineto
stroke
newpath
34842.1 36356.6 moveto
34785.9 36300.3 lineto
34842.1 36244.1 lineto
34898.4 36300.3 lineto
34842.1 36356.6 lineto
34842.1 36244.1 lineto
stroke
newpath
35573.3 35175.5 moveto
35460.8 35231.7 lineto
35404.5 35344.2 lineto
35404.5 36356.6 lineto
stroke
newpath
36191.9 35175.5 moveto
36079.5 35231.7 lineto
36023.2 35344.2 lineto
36023.2 36356.6 lineto
stroke
newpath
37541.8 35175.5 moveto
37541.8 36356.6 lineto
37935.5 35512.9 lineto
38329.2 36356.6 lineto
38329.2 35175.5 lineto
stroke
newpath
39397.8 35175.5 moveto
39397.8 35794.2 lineto
39341.5 35906.6 lineto
39229.1 35962.9 lineto
39004.1 35962.9 lineto
38891.6 35906.6 lineto
stroke
newpath
39397.8 35231.7 moveto
39285.3 35175.5 lineto
39004.1 35175.5 lineto
38891.6 35231.7 lineto
38835.4 35344.2 lineto
38835.4 35456.7 lineto
38891.6 35569.2 lineto
39004.1 35625.4 lineto
39285.3 35625.4 lineto
39397.8 35681.7 lineto
stroke
newpath
39960.2 35962.9 moveto
39960.2 34781.8 lineto
stroke
newpath
39960.2 35906.6 moveto
40072.7 35962.9 lineto
40297.7 35962.9 lineto
40410.2 35906.6 lineto
40466.4 35850.4 lineto
40522.6 35737.9 lineto
40522.6 35400.5 lineto
40466.4 35288 lineto
40410.2 35231.7 lineto
40297.7 35175.5 lineto
40072.7 35175.5 lineto
39960.2 35231.7 lineto
stroke
newpath
41028.8 35288 moveto
41085.1 35231.7 lineto
41028.8 35175.5 lineto
40972.6 35231.7 lineto
41028.8 35288 lineto
41028.8 35175.5 lineto
stroke
newpath
41028.8 35906.6 moveto
41085.1 35850.4 lineto
41028.8 35794.2 lineto
40972.6 35850.4 lineto
41028.8 35906.6 lineto
41028.8 35794.2 lineto
stroke
newpath
31641.7 33309.7 moveto
31802.2 33149.3 lineto
stroke
newpath
31802.2 33309.7 moveto
31641.7 33149.3 lineto
stroke
0 0 0 setrgbcolor
0 0 0 setrgbcolor
newpath
33154.8 33876.3 moveto
33267.3 33876.3 lineto
33379.8 33820 lineto
33436 33763.8 lineto
33492.3 33651.3 lineto
33548.5 33426.3 lineto
33548.5 33145.1 lineto
33492.3 32920.1 lineto
33436 32807.7 lineto
33379.8 32751.4 lineto
33267.3 32695.2 lineto
33154.8 32695.2 lineto
33042.3 32751.4 lineto
32986.1 32807.7 lineto
32929.8 32920.1 lineto
32873.6 33145.1 lineto
32873.6 33426.3 lineto
32929.8 33651.3 lineto
32986.1 33763.8 lineto
33042.3 33820 lineto
33154.8 33876.3 lineto
stroke
newpath
34054.7 32807.7 moveto
34111 32751.4 lineto
34054.7 32695.2 lineto
33998.5 32751.4 lineto
34054.7 32807.7 lineto
34054.7 32695.2 lineto
stroke
newpath
35123.3 33482.6 moveto
35123.3 32695.2 lineto
stroke
newpath
34842.1 33932.5 moveto
34560.9 33088.9 lineto
35292.1 33088.9 lineto
stroke
newpath
35967 33876.3 moveto
36079.5 33876.3 lineto
36191.9 33820 lineto
36248.2 33763.8 lineto
36304.4 33651.3 lineto
36360.7 33426.3 lineto
36360.7 33145.1 lineto
36304.4 32920.1 lineto
36248.2 32807.7 lineto
36191.9 32751.4 lineto
36079.5 32695.2 lineto
35967 32695.2 lineto
35854.5 32751.4 lineto
35798.2 32807.7 lineto
35742 32920.1 lineto
35685.8 33145.1 lineto
35685.8 33426.3 lineto
35742 33651.3 lineto
35798.2 33763.8 lineto
35854.5 33820 lineto
35967 33876.3 lineto
stroke
newpath
36866.9 32695.2 moveto
36866.9 33482.6 lineto
stroke
newpath
36866.9 33370.1 moveto
36923.1 33426.3 lineto
37035.6 33482.6 lineto
37204.3 33482.6 lineto
37316.8 33426.3 lineto
37373 33313.8 lineto
37373 32695.2 lineto
stroke
newpath
37373 33313.8 moveto
37429.3 33426.3 lineto
37541.8 33482.6 lineto
37710.5 33482.6 lineto
37823 33426.3 lineto
37879.2 33313.8 lineto
37879.2 32695.2 lineto
stroke
newpath
38441.7 32695.2 moveto
38441.7 33482.6 lineto
stroke
newpath
38441.7 33370.1 moveto
38497.9 33426.3 lineto
38610.4 33482.6 lineto
38779.1 33482.6 lineto
38891.6 33426.3 lineto
38947.8 33313.8 lineto
38947.8 32695.2 lineto
stroke
newpath
38947.8 33313.8 moveto
39004.1 33426.3 lineto
39116.6 33482.6 lineto
39285.3 33482.6 lineto
39397.8 33426.3 lineto
39454 33313.8 lineto
39454 32695.2 lineto
stroke
newpath
41760 33932.5 moveto
40747.6 32414 lineto
stroke
newpath
43278.6 33876.3 moveto
43391 33876.3 lineto
43503.5 33820 lineto
43559.8 33763.8 lineto
43616 33651.3 lineto
43672.3 33426.3 lineto
43672.3 33145.1 lineto
43616 32920.1 lineto
43559.8 32807.7 lineto
43503.5 32751.4 lineto
43391 32695.2 lineto
43278.6 32695.2 lineto
43166.1 32751.4 lineto
43109.8 32807.7 lineto
43053.6 32920.1 lineto
42997.3 33145.1 lineto
42997.3 33426.3 lineto
43053.6 33651.3 lineto
43109.8 33763.8 lineto
43166.1 33820 lineto
43278.6 33876.3 lineto
stroke
newpath
44178.4 32807.7 moveto
44234.7 32751.4 lineto
44178.4 32695.2 lineto
44122.2 32751.4 lineto
44178.4 32807.7 lineto
44178.4 32695.2 lineto
stroke
newpath
44965.8 33876.3 moveto
45078.3 33876.3 lineto
45190.8 33820 lineto
45247.1 33763.8 lineto
45303.3 33651.3 lineto
45359.5 33426.3 lineto
45359.5 33145.1 lineto
45303.3 32920.1 lineto
45247.1 32807.7 lineto
45190.8 32751.4 lineto
45078.3 32695.2 lineto
44965.8 32695.2 lineto
44853.4 32751.4 lineto
44797.1 32807.7 lineto
44740.9 32920.1 lineto
44684.6 33145.1 lineto
44684.6 33426.3 lineto
44740.9 33651.3 lineto
44797.1 33763.8 lineto
44853.4 33820 lineto
44965.8 33876.3 lineto
stroke
newpath
46484.4 32695.2 moveto
45809.5 32695.2 lineto
stroke
newpath
46146.9 32695.2 moveto
46146.9 33876.3 lineto
46034.5 33707.5 lineto
45922 33595.1 lineto
45809.5 33538.8 lineto
stroke
newpath
47496.8 33876.3 moveto
47271.8 33876.3 lineto
47159.3 33820 lineto
47103.1 33763.8 lineto
46990.6 33595.1 lineto
46934.3 33370.1 lineto
46934.3 32920.1 lineto
46990.6 32807.7 lineto
47046.8 32751.4 lineto
47159.3 32695.2 lineto
47384.3 32695.2 lineto
47496.8 32751.4 lineto
47553 32807.7 lineto
47609.3 32920.1 lineto
47609.3 33201.4 lineto
47553 33313.8 lineto
47496.8 33370.1 lineto
47384.3 33426.3 lineto
47159.3 33426.3 lineto
47046.8 33370.1 lineto
46990.6 33313.8 lineto
46934.3 33201.4 lineto
stroke
newpath
48059.2 33876.3 moveto
48059.2 33651.3 lineto
stroke
newpath
48509.2 33876.3 moveto
48509.2 33651.3 lineto
stroke
newpath
50252.7 32245.2 moveto
50196.4 32301.5 lineto
50084 32470.2 lineto
50027.7 32582.7 lineto
49971.5 32751.4 lineto
49915.2 33032.6 lineto
49915.2 33257.6 lineto
49971.5 33538.8 lineto
50027.7 33707.5 lineto
50084 33820 lineto
50196.4 33988.8 lineto
50252.7 34045 lineto
stroke
newpath
51321.3 32695.2 moveto
50646.4 32695.2 lineto
stroke
newpath
50983.8 32695.2 moveto
50983.8 33876.3 lineto
50871.4 33707.5 lineto
50758.9 33595.1 lineto
50646.4 33538.8 lineto
stroke
newpath
51771.2 33763.8 moveto
51827.5 33820 lineto
51940 33876.3 lineto
52221.2 33876.3 lineto
52333.7 33820 lineto
52389.9 33763.8 lineto
52446.2 33651.3 lineto
52446.2 33538.8 lineto
52389.9 33370.1 lineto
51715 32695.2 lineto
52446.2 32695.2 lineto
stroke
newpath
53571 32695.2 moveto
52896.1 32695.2 lineto
stroke
newpath
53233.6 32695.2 moveto
53233.6 33876.3 lineto
53121.1 33707.5 lineto
53008.6 33595.1 lineto
52896.1 33538.8 lineto
stroke
newpath
54977.1 32695.2 moveto
54977.1 33876.3 lineto
stroke
newpath
55483.3 32695.2 moveto
55483.3 33313.8 lineto
55427 33426.3 lineto
55314.5 33482.6 lineto
55145.8 33482.6 lineto
55033.3 33426.3 lineto
54977.1 33370.1 lineto
stroke
newpath
56214.4 32695.2 moveto
56102 32751.4 lineto
56045.7 32807.7 lineto
55989.5 32920.1 lineto
55989.5 33257.6 lineto
56045.7 33370.1 lineto
56102 33426.3 lineto
56214.4 33482.6 lineto
56383.2 33482.6 lineto
56495.7 33426.3 lineto
56551.9 33370.1 lineto
56608.1 33257.6 lineto
56608.1 32920.1 lineto
56551.9 32807.7 lineto
56495.7 32751.4 lineto
56383.2 32695.2 lineto
56214.4 32695.2 lineto
stroke
newpath
57283.1 32695.2 moveto
57170.6 32751.4 lineto
57114.3 32863.9 lineto
57114.3 33876.3 lineto
stroke
newpath
58182.9 32751.4 moveto
58070.5 32695.2 lineto
57845.5 32695.2 lineto
57733 32751.4 lineto
57676.8 32863.9 lineto
57676.8 33313.8 lineto
57733 33426.3 lineto
57845.5 33482.6 lineto
58070.5 33482.6 lineto
58182.9 33426.3 lineto
58239.2 33313.8 lineto
58239.2 33201.4 lineto
57676.8 33088.9 lineto
stroke
newpath
58689.1 32751.4 moveto
58801.6 32695.2 lineto
59026.6 32695.2 lineto
59139.1 32751.4 lineto
59195.3 32863.9 lineto
59195.3 32920.1 lineto
59139.1 33032.6 lineto
59026.6 33088.9 lineto
58857.9 33088.9 lineto
58745.4 33145.1 lineto
58689.1 33257.6 lineto
58689.1 33313.8 lineto
58745.4 33426.3 lineto
58857.9 33482.6 lineto
59026.6 33482.6 lineto
59139.1 33426.3 lineto
stroke
newpath
59589 32245.2 moveto
59645.3 32301.5 lineto
59757.7 32470.2 lineto
59814 32582.7 lineto
59870.2 32751.4 lineto
59926.5 33032.6 lineto
59926.5 33257.6 lineto
59870.2 33538.8 lineto
59814 33707.5 lineto
59757.7 33820 lineto
59645.3 33988.8 lineto
59589 34045 lineto
stroke
31621.7 31670.4 180.493 cir0
0 0 0 setrgbcolor
0 0 0 setrgbcolor
newpath
33154.8 32317.2 moveto
33267.3 32317.2 lineto
33379.8 32261 lineto
33436 32204.7 lineto
33492.3 32092.2 lineto
33548.5 31867.3 lineto
33548.5 31586.1 lineto
33492.3 31361.1 lineto
33436 31248.6 lineto
33379.8 31192.4 lineto
33267.3 31136.1 lineto
33154.8 31136.1 lineto
33042.3 31192.4 lineto
32986.1 31248.6 lineto
32929.8 31361.1 lineto
32873.6 31586.1 lineto
32873.6 31867.3 lineto
32929.8 32092.2 lineto
32986.1 32204.7 lineto
33042.3 32261 lineto
33154.8 32317.2 lineto
stroke
newpath
34054.7 31248.6 moveto
34111 31192.4 lineto
34054.7 31136.1 lineto
33998.5 31192.4 lineto
34054.7 31248.6 lineto
34054.7 31136.1 lineto
stroke
newpath
34673.4 31136.1 moveto
34898.4 31136.1 lineto
35010.8 31192.4 lineto
35067.1 31248.6 lineto
35179.6 31417.3 lineto
35235.8 31642.3 lineto
35235.8 32092.2 lineto
35179.6 32204.7 lineto
35123.3 32261 lineto
35010.8 32317.2 lineto
34785.9 32317.2 lineto
34673.4 32261 lineto
34617.1 32204.7 lineto
34560.9 32092.2 lineto
34560.9 31811 lineto
34617.1 31698.5 lineto
34673.4 31642.3 lineto
34785.9 31586.1 lineto
35010.8 31586.1 lineto
35123.3 31642.3 lineto
35179.6 31698.5 lineto
35235.8 31811 lineto
stroke
newpath
35967 32317.2 moveto
36079.5 32317.2 lineto
36191.9 32261 lineto
36248.2 32204.7 lineto
36304.4 32092.2 lineto
36360.7 31867.3 lineto
36360.7 31586.1 lineto
36304.4 31361.1 lineto
36248.2 31248.6 lineto
36191.9 31192.4 lineto
36079.5 31136.1 lineto
35967 31136.1 lineto
35854.5 31192.4 lineto
35798.2 31248.6 lineto
35742 31361.1 lineto
35685.8 31586.1 lineto
35685.8 31867.3 lineto
35742 32092.2 lineto
35798.2 32204.7 lineto
35854.5 32261 lineto
35967 32317.2 lineto
stroke
newpath
36866.9 31136.1 moveto
36866.9 31923.5 lineto
stroke
newpath
36866.9 31811 moveto
36923.1 31867.3 lineto
37035.6 31923.5 lineto
37204.3 31923.5 lineto
37316.8 31867.3 lineto
37373 31754.8 lineto
37373 31136.1 lineto
stroke
newpath
37373 31754.8 moveto
37429.3 31867.3 lineto
37541.8 31923.5 lineto
37710.5 31923.5 lineto
37823 31867.3 lineto
37879.2 31754.8 lineto
37879.2 31136.1 lineto
stroke
newpath
38441.7 31136.1 moveto
38441.7 31923.5 lineto
stroke
newpath
38441.7 31811 moveto
38497.9 31867.3 lineto
38610.4 31923.5 lineto
38779.1 31923.5 lineto
38891.6 31867.3 lineto
38947.8 31754.8 lineto
38947.8 31136.1 lineto
stroke
newpath
38947.8 31754.8 moveto
39004.1 31867.3 lineto
39116.6 31923.5 lineto
39285.3 31923.5 lineto
39397.8 31867.3 lineto
39454 31754.8 lineto
39454 31136.1 lineto
stroke
newpath
41760 32373.5 moveto
40747.6 30854.9 lineto
stroke
newpath
43278.6 32317.2 moveto
43391 32317.2 lineto
43503.5 32261 lineto
43559.8 32204.7 lineto
43616 32092.2 lineto
43672.3 31867.3 lineto
43672.3 31586.1 lineto
43616 31361.1 lineto
43559.8 31248.6 lineto
43503.5 31192.4 lineto
43391 31136.1 lineto
43278.6 31136.1 lineto
43166.1 31192.4 lineto
43109.8 31248.6 lineto
43053.6 31361.1 lineto
42997.3 31586.1 lineto
42997.3 31867.3 lineto
43053.6 32092.2 lineto
43109.8 32204.7 lineto
43166.1 32261 lineto
43278.6 32317.2 lineto
stroke
newpath
44178.4 31248.6 moveto
44234.7 31192.4 lineto
44178.4 31136.1 lineto
44122.2 31192.4 lineto
44178.4 31248.6 lineto
44178.4 31136.1 lineto
stroke
newpath
44965.8 32317.2 moveto
45078.3 32317.2 lineto
45190.8 32261 lineto
45247.1 32204.7 lineto
45303.3 32092.2 lineto
45359.5 31867.3 lineto
45359.5 31586.1 lineto
45303.3 31361.1 lineto
45247.1 31248.6 lineto
45190.8 31192.4 lineto
45078.3 31136.1 lineto
44965.8 31136.1 lineto
44853.4 31192.4 lineto
44797.1 31248.6 lineto
44740.9 31361.1 lineto
44684.6 31586.1 lineto
44684.6 31867.3 lineto
44740.9 32092.2 lineto
44797.1 32204.7 lineto
44853.4 32261 lineto
44965.8 32317.2 lineto
stroke
newpath
45753.2 32317.2 moveto
46484.4 32317.2 lineto
46090.7 31867.3 lineto
46259.4 31867.3 lineto
46371.9 31811 lineto
46428.2 31754.8 lineto
46484.4 31642.3 lineto
46484.4 31361.1 lineto
46428.2 31248.6 lineto
46371.9 31192.4 lineto
46259.4 31136.1 lineto
45922 31136.1 lineto
45809.5 31192.4 lineto
45753.2 31248.6 lineto
stroke
newpath
47553 32317.2 moveto
46990.6 32317.2 lineto
46934.3 31754.8 lineto
46990.6 31811 lineto
47103.1 31867.3 lineto
47384.3 31867.3 lineto
47496.8 31811 lineto
47553 31754.8 lineto
47609.3 31642.3 lineto
47609.3 31361.1 lineto
47553 31248.6 lineto
47496.8 31192.4 lineto
47384.3 31136.1 lineto
47103.1 31136.1 lineto
46990.6 31192.4 lineto
46934.3 31248.6 lineto
stroke
newpath
48059.2 32317.2 moveto
48059.2 32092.2 lineto
stroke
newpath
48509.2 32317.2 moveto
48509.2 32092.2 lineto
stroke
newpath
50252.7 30686.2 moveto
50196.4 30742.4 lineto
50084 30911.1 lineto
50027.7 31023.6 lineto
49971.5 31192.4 lineto
49915.2 31473.6 lineto
49915.2 31698.5 lineto
49971.5 31979.8 lineto
50027.7 32148.5 lineto
50084 32261 lineto
50196.4 32429.7 lineto
50252.7 32485.9 lineto
stroke
newpath
50871.4 31811 moveto
50758.9 31867.3 lineto
50702.6 31923.5 lineto
50646.4 32036 lineto
50646.4 32092.2 lineto
50702.6 32204.7 lineto
50758.9 32261 lineto
50871.4 32317.2 lineto
51096.3 32317.2 lineto
51208.8 32261 lineto
51265.1 32204.7 lineto
51321.3 32092.2 lineto
51321.3 32036 lineto
51265.1 31923.5 lineto
51208.8 31867.3 lineto
51096.3 31811 lineto
50871.4 31811 lineto
50758.9 31754.8 lineto
50702.6 31698.5 lineto
50646.4 31586.1 lineto
50646.4 31361.1 lineto
50702.6 31248.6 lineto
50758.9 31192.4 lineto
50871.4 31136.1 lineto
51096.3 31136.1 lineto
51208.8 31192.4 lineto
51265.1 31248.6 lineto
51321.3 31361.1 lineto
51321.3 31586.1 lineto
51265.1 31698.5 lineto
51208.8 31754.8 lineto
51096.3 31811 lineto
stroke
newpath
52727.4 31136.1 moveto
52727.4 32317.2 lineto
stroke
newpath
53233.6 31136.1 moveto
53233.6 31754.8 lineto
53177.3 31867.3 lineto
53064.8 31923.5 lineto
52896.1 31923.5 lineto
52783.6 31867.3 lineto
52727.4 31811 lineto
stroke
newpath
53964.7 31136.1 moveto
53852.2 31192.4 lineto
53796 31248.6 lineto
53739.7 31361.1 lineto
53739.7 31698.5 lineto
53796 31811 lineto
53852.2 31867.3 lineto
53964.7 31923.5 lineto
54133.4 31923.5 lineto
54245.9 31867.3 lineto
54302.2 31811 lineto
54358.4 31698.5 lineto
54358.4 31361.1 lineto
54302.2 31248.6 lineto
54245.9 31192.4 lineto
54133.4 31136.1 lineto
53964.7 31136.1 lineto
stroke
newpath
55033.3 31136.1 moveto
54920.8 31192.4 lineto
54864.6 31304.8 lineto
54864.6 32317.2 lineto
stroke
newpath
55933.2 31192.4 moveto
55820.7 31136.1 lineto
55595.8 31136.1 lineto
55483.3 31192.4 lineto
55427 31304.8 lineto
55427 31754.8 lineto
55483.3 31867.3 lineto
55595.8 31923.5 lineto
55820.7 31923.5 lineto
55933.2 31867.3 lineto
55989.5 31754.8 lineto
55989.5 31642.3 lineto
55427 31529.8 lineto
stroke
newpath
56439.4 31192.4 moveto
56551.9 31136.1 lineto
56776.9 31136.1 lineto
56889.4 31192.4 lineto
56945.6 31304.8 lineto
56945.6 31361.1 lineto
56889.4 31473.6 lineto
56776.9 31529.8 lineto
56608.1 31529.8 lineto
56495.7 31586.1 lineto
56439.4 31698.5 lineto
56439.4 31754.8 lineto
56495.7 31867.3 lineto
56608.1 31923.5 lineto
56776.9 31923.5 lineto
56889.4 31867.3 lineto
stroke
newpath
57339.3 30686.2 moveto
57395.5 30742.4 lineto
57508 30911.1 lineto
57564.3 31023.6 lineto
57620.5 31192.4 lineto
57676.8 31473.6 lineto
57676.8 31698.5 lineto
57620.5 31979.8 lineto
57564.3 32148.5 lineto
57508 32261 lineto
57395.5 32429.7 lineto
57339.3 32485.9 lineto
stroke
newpath
31601.6 30311.9 moveto
31601.6 29910.8 lineto
stroke
newpath
31401.1 30111.4 moveto
31802.2 30111.4 lineto
stroke
0 0 0 setrgbcolor
0 0 0 setrgbcolor
newpath
33548.5 29577.1 moveto
32873.6 29577.1 lineto
stroke
newpath
33211.1 29577.1 moveto
33211.1 30758.2 lineto
33098.6 30589.4 lineto
32986.1 30477 lineto
32873.6 30420.7 lineto
stroke
newpath
34054.7 29689.5 moveto
34111 29633.3 lineto
34054.7 29577.1 lineto
33998.5 29633.3 lineto
34054.7 29689.5 lineto
34054.7 29577.1 lineto
stroke
newpath
34842.1 30758.2 moveto
34954.6 30758.2 lineto
35067.1 30701.9 lineto
35123.3 30645.7 lineto
35179.6 30533.2 lineto
35235.8 30308.2 lineto
35235.8 30027 lineto
35179.6 29802 lineto
35123.3 29689.5 lineto
35067.1 29633.3 lineto
34954.6 29577.1 lineto
34842.1 29577.1 lineto
34729.6 29633.3 lineto
34673.4 29689.5 lineto
34617.1 29802 lineto
34560.9 30027 lineto
34560.9 30308.2 lineto
34617.1 30533.2 lineto
34673.4 30645.7 lineto
34729.6 30701.9 lineto
34842.1 30758.2 lineto
stroke
newpath
35967 30758.2 moveto
36079.5 30758.2 lineto
36191.9 30701.9 lineto
36248.2 30645.7 lineto
36304.4 30533.2 lineto
36360.7 30308.2 lineto
36360.7 30027 lineto
36304.4 29802 lineto
36248.2 29689.5 lineto
36191.9 29633.3 lineto
36079.5 29577.1 lineto
35967 29577.1 lineto
35854.5 29633.3 lineto
35798.2 29689.5 lineto
35742 29802 lineto
35685.8 30027 lineto
35685.8 30308.2 lineto
35742 30533.2 lineto
35798.2 30645.7 lineto
35854.5 30701.9 lineto
35967 30758.2 lineto
stroke
newpath
36866.9 29577.1 moveto
36866.9 30364.5 lineto
stroke
newpath
36866.9 30252 moveto
36923.1 30308.2 lineto
37035.6 30364.5 lineto
37204.3 30364.5 lineto
37316.8 30308.2 lineto
37373 30195.7 lineto
37373 29577.1 lineto
stroke
newpath
37373 30195.7 moveto
37429.3 30308.2 lineto
37541.8 30364.5 lineto
37710.5 30364.5 lineto
37823 30308.2 lineto
37879.2 30195.7 lineto
37879.2 29577.1 lineto
stroke
newpath
38441.7 29577.1 moveto
38441.7 30364.5 lineto
stroke
newpath
38441.7 30252 moveto
38497.9 30308.2 lineto
38610.4 30364.5 lineto
38779.1 30364.5 lineto
38891.6 30308.2 lineto
38947.8 30195.7 lineto
38947.8 29577.1 lineto
stroke
newpath
38947.8 30195.7 moveto
39004.1 30308.2 lineto
39116.6 30364.5 lineto
39285.3 30364.5 lineto
39397.8 30308.2 lineto
39454 30195.7 lineto
39454 29577.1 lineto
stroke
newpath
41760 30814.4 moveto
40747.6 29295.8 lineto
stroke
newpath
43278.6 30758.2 moveto
43391 30758.2 lineto
43503.5 30701.9 lineto
43559.8 30645.7 lineto
43616 30533.2 lineto
43672.3 30308.2 lineto
43672.3 30027 lineto
43616 29802 lineto
43559.8 29689.5 lineto
43503.5 29633.3 lineto
43391 29577.1 lineto
43278.6 29577.1 lineto
43166.1 29633.3 lineto
43109.8 29689.5 lineto
43053.6 29802 lineto
42997.3 30027 lineto
42997.3 30308.2 lineto
43053.6 30533.2 lineto
43109.8 30645.7 lineto
43166.1 30701.9 lineto
43278.6 30758.2 lineto
stroke
newpath
44178.4 29689.5 moveto
44234.7 29633.3 lineto
44178.4 29577.1 lineto
44122.2 29633.3 lineto
44178.4 29689.5 lineto
44178.4 29577.1 lineto
stroke
newpath
44965.8 30758.2 moveto
45078.3 30758.2 lineto
45190.8 30701.9 lineto
45247.1 30645.7 lineto
45303.3 30533.2 lineto
45359.5 30308.2 lineto
45359.5 30027 lineto
45303.3 29802 lineto
45247.1 29689.5 lineto
45190.8 29633.3 lineto
45078.3 29577.1 lineto
44965.8 29577.1 lineto
44853.4 29633.3 lineto
44797.1 29689.5 lineto
44740.9 29802 lineto
44684.6 30027 lineto
44684.6 30308.2 lineto
44740.9 30533.2 lineto
44797.1 30645.7 lineto
44853.4 30701.9 lineto
44965.8 30758.2 lineto
stroke
newpath
45753.2 30758.2 moveto
46484.4 30758.2 lineto
46090.7 30308.2 lineto
46259.4 30308.2 lineto
46371.9 30252 lineto
46428.2 30195.7 lineto
46484.4 30083.2 lineto
46484.4 29802 lineto
46428.2 29689.5 lineto
46371.9 29633.3 lineto
46259.4 29577.1 lineto
45922 29577.1 lineto
45809.5 29633.3 lineto
45753.2 29689.5 lineto
stroke
newpath
47046.8 29577.1 moveto
47271.8 29577.1 lineto
47384.3 29633.3 lineto
47440.5 29689.5 lineto
47553 29858.3 lineto
47609.3 30083.2 lineto
47609.3 30533.2 lineto
47553 30645.7 lineto
47496.8 30701.9 lineto
47384.3 30758.2 lineto
47159.3 30758.2 lineto
47046.8 30701.9 lineto
46990.6 30645.7 lineto
46934.3 30533.2 lineto
46934.3 30252 lineto
46990.6 30139.5 lineto
47046.8 30083.2 lineto
47159.3 30027 lineto
47384.3 30027 lineto
47496.8 30083.2 lineto
47553 30139.5 lineto
47609.3 30252 lineto
stroke
newpath
48059.2 30758.2 moveto
48059.2 30533.2 lineto
stroke
newpath
48509.2 30758.2 moveto
48509.2 30533.2 lineto
stroke
newpath
50252.7 29127.1 moveto
50196.4 29183.4 lineto
50084 29352.1 lineto
50027.7 29464.6 lineto
49971.5 29633.3 lineto
49915.2 29914.5 lineto
49915.2 30139.5 lineto
49971.5 30420.7 lineto
50027.7 30589.4 lineto
50084 30701.9 lineto
50196.4 30870.7 lineto
50252.7 30926.9 lineto
stroke
newpath
51265.1 30758.2 moveto
50702.6 30758.2 lineto
50646.4 30195.7 lineto
50702.6 30252 lineto
50815.1 30308.2 lineto
51096.3 30308.2 lineto
51208.8 30252 lineto
51265.1 30195.7 lineto
51321.3 30083.2 lineto
51321.3 29802 lineto
51265.1 29689.5 lineto
51208.8 29633.3 lineto
51096.3 29577.1 lineto
50815.1 29577.1 lineto
50702.6 29633.3 lineto
50646.4 29689.5 lineto
stroke
newpath
52446.2 29577.1 moveto
51771.2 29577.1 lineto
stroke
newpath
52108.7 29577.1 moveto
52108.7 30758.2 lineto
51996.2 30589.4 lineto
51883.7 30477 lineto
51771.2 30420.7 lineto
stroke
newpath
53852.2 29577.1 moveto
53852.2 30758.2 lineto
stroke
newpath
54358.4 29577.1 moveto
54358.4 30195.7 lineto
54302.2 30308.2 lineto
54189.7 30364.5 lineto
54021 30364.5 lineto
53908.5 30308.2 lineto
53852.2 30252 lineto
stroke
newpath
55089.6 29577.1 moveto
54977.1 29633.3 lineto
54920.8 29689.5 lineto
54864.6 29802 lineto
54864.6 30139.5 lineto
54920.8 30252 lineto
54977.1 30308.2 lineto
55089.6 30364.5 lineto
55258.3 30364.5 lineto
55370.8 30308.2 lineto
55427 30252 lineto
55483.3 30139.5 lineto
55483.3 29802 lineto
55427 29689.5 lineto
55370.8 29633.3 lineto
55258.3 29577.1 lineto
55089.6 29577.1 lineto
stroke
newpath
56158.2 29577.1 moveto
56045.7 29633.3 lineto
55989.5 29745.8 lineto
55989.5 30758.2 lineto
stroke
newpath
57058.1 29633.3 moveto
56945.6 29577.1 lineto
56720.6 29577.1 lineto
56608.1 29633.3 lineto
56551.9 29745.8 lineto
56551.9 30195.7 lineto
56608.1 30308.2 lineto
56720.6 30364.5 lineto
56945.6 30364.5 lineto
57058.1 30308.2 lineto
57114.3 30195.7 lineto
57114.3 30083.2 lineto
56551.9 29970.8 lineto
stroke
newpath
57564.3 29633.3 moveto
57676.8 29577.1 lineto
57901.7 29577.1 lineto
58014.2 29633.3 lineto
58070.5 29745.8 lineto
58070.5 29802 lineto
58014.2 29914.5 lineto
57901.7 29970.8 lineto
57733 29970.8 lineto
57620.5 30027 lineto
57564.3 30139.5 lineto
57564.3 30195.7 lineto
57620.5 30308.2 lineto
57733 30364.5 lineto
57901.7 30364.5 lineto
58014.2 30308.2 lineto
stroke
newpath
58464.2 29127.1 moveto
58520.4 29183.4 lineto
58632.9 29352.1 lineto
58689.1 29464.6 lineto
58745.4 29633.3 lineto
58801.6 29914.5 lineto
58801.6 30139.5 lineto
58745.4 30420.7 lineto
58689.1 30589.4 lineto
58632.9 30701.9 lineto
58520.4 30870.7 lineto
58464.2 30926.9 lineto
stroke
newpath
31731.7 28382.1 moveto
31731.7 28722.5 lineto
31391.3 28722.5 lineto
31391.3 28382.1 lineto
31731.7 28382.1 lineto
poly0
0 0 0 setrgbcolor
0 0 0 setrgbcolor
newpath
33548.5 28018 moveto
32873.6 28018 lineto
stroke
newpath
33211.1 28018 moveto
33211.1 29199.1 lineto
33098.6 29030.4 lineto
32986.1 28917.9 lineto
32873.6 28861.7 lineto
stroke
newpath
34054.7 28130.5 moveto
34111 28074.3 lineto
34054.7 28018 lineto
33998.5 28074.3 lineto
34054.7 28130.5 lineto
34054.7 28018 lineto
stroke
newpath
34560.9 29086.6 moveto
34617.1 29142.9 lineto
34729.6 29199.1 lineto
35010.8 29199.1 lineto
35123.3 29142.9 lineto
35179.6 29086.6 lineto
35235.8 28974.1 lineto
35235.8 28861.7 lineto
35179.6 28692.9 lineto
34504.7 28018 lineto
35235.8 28018 lineto
stroke
newpath
35967 29199.1 moveto
36079.5 29199.1 lineto
36191.9 29142.9 lineto
36248.2 29086.6 lineto
36304.4 28974.1 lineto
36360.7 28749.2 lineto
36360.7 28468 lineto
36304.4 28243 lineto
36248.2 28130.5 lineto
36191.9 28074.3 lineto
36079.5 28018 lineto
35967 28018 lineto
35854.5 28074.3 lineto
35798.2 28130.5 lineto
35742 28243 lineto
35685.8 28468 lineto
35685.8 28749.2 lineto
35742 28974.1 lineto
35798.2 29086.6 lineto
35854.5 29142.9 lineto
35967 29199.1 lineto
stroke
newpath
36866.9 28018 moveto
36866.9 28805.4 lineto
stroke
newpath
36866.9 28692.9 moveto
36923.1 28749.2 lineto
37035.6 28805.4 lineto
37204.3 28805.4 lineto
37316.8 28749.2 lineto
37373 28636.7 lineto
37373 28018 lineto
stroke
newpath
37373 28636.7 moveto
37429.3 28749.2 lineto
37541.8 28805.4 lineto
37710.5 28805.4 lineto
37823 28749.2 lineto
37879.2 28636.7 lineto
37879.2 28018 lineto
stroke
newpath
38441.7 28018 moveto
38441.7 28805.4 lineto
stroke
newpath
38441.7 28692.9 moveto
38497.9 28749.2 lineto
38610.4 28805.4 lineto
38779.1 28805.4 lineto
38891.6 28749.2 lineto
38947.8 28636.7 lineto
38947.8 28018 lineto
stroke
newpath
38947.8 28636.7 moveto
39004.1 28749.2 lineto
39116.6 28805.4 lineto
39285.3 28805.4 lineto
39397.8 28749.2 lineto
39454 28636.7 lineto
39454 28018 lineto
stroke
newpath
41760 29255.4 moveto
40747.6 27736.8 lineto
stroke
newpath
43278.6 29199.1 moveto
43391 29199.1 lineto
43503.5 29142.9 lineto
43559.8 29086.6 lineto
43616 28974.1 lineto
43672.3 28749.2 lineto
43672.3 28468 lineto
43616 28243 lineto
43559.8 28130.5 lineto
43503.5 28074.3 lineto
43391 28018 lineto
43278.6 28018 lineto
43166.1 28074.3 lineto
43109.8 28130.5 lineto
43053.6 28243 lineto
42997.3 28468 lineto
42997.3 28749.2 lineto
43053.6 28974.1 lineto
43109.8 29086.6 lineto
43166.1 29142.9 lineto
43278.6 29199.1 lineto
stroke
newpath
44178.4 28130.5 moveto
44234.7 28074.3 lineto
44178.4 28018 lineto
44122.2 28074.3 lineto
44178.4 28130.5 lineto
44178.4 28018 lineto
stroke
newpath
44965.8 29199.1 moveto
45078.3 29199.1 lineto
45190.8 29142.9 lineto
45247.1 29086.6 lineto
45303.3 28974.1 lineto
45359.5 28749.2 lineto
45359.5 28468 lineto
45303.3 28243 lineto
45247.1 28130.5 lineto
45190.8 28074.3 lineto
45078.3 28018 lineto
44965.8 28018 lineto
44853.4 28074.3 lineto
44797.1 28130.5 lineto
44740.9 28243 lineto
44684.6 28468 lineto
44684.6 28749.2 lineto
44740.9 28974.1 lineto
44797.1 29086.6 lineto
44853.4 29142.9 lineto
44965.8 29199.1 lineto
stroke
newpath
46371.9 28805.4 moveto
46371.9 28018 lineto
stroke
newpath
46090.7 29255.4 moveto
45809.5 28411.7 lineto
46540.6 28411.7 lineto
stroke
newpath
46878.1 29199.1 moveto
47665.5 29199.1 lineto
47159.3 28018 lineto
stroke
newpath
48059.2 29199.1 moveto
48059.2 28974.1 lineto
stroke
newpath
48509.2 29199.1 moveto
48509.2 28974.1 lineto
stroke
newpath
50252.7 27568.1 moveto
50196.4 27624.3 lineto
50084 27793 lineto
50027.7 27905.5 lineto
49971.5 28074.3 lineto
49915.2 28355.5 lineto
49915.2 28580.4 lineto
49971.5 28861.7 lineto
50027.7 29030.4 lineto
50084 29142.9 lineto
50196.4 29311.6 lineto
50252.7 29367.8 lineto
stroke
newpath
51208.8 29199.1 moveto
50983.8 29199.1 lineto
50871.4 29142.9 lineto
50815.1 29086.6 lineto
50702.6 28917.9 lineto
50646.4 28692.9 lineto
50646.4 28243 lineto
50702.6 28130.5 lineto
50758.9 28074.3 lineto
50871.4 28018 lineto
51096.3 28018 lineto
51208.8 28074.3 lineto
51265.1 28130.5 lineto
51321.3 28243 lineto
51321.3 28524.2 lineto
51265.1 28636.7 lineto
51208.8 28692.9 lineto
51096.3 28749.2 lineto
50871.4 28749.2 lineto
50758.9 28692.9 lineto
50702.6 28636.7 lineto
50646.4 28524.2 lineto
stroke
newpath
52727.4 28018 moveto
52727.4 29199.1 lineto
stroke
newpath
53233.6 28018 moveto
53233.6 28636.7 lineto
53177.3 28749.2 lineto
53064.8 28805.4 lineto
52896.1 28805.4 lineto
52783.6 28749.2 lineto
52727.4 28692.9 lineto
stroke
newpath
53964.7 28018 moveto
53852.2 28074.3 lineto
53796 28130.5 lineto
53739.7 28243 lineto
53739.7 28580.4 lineto
53796 28692.9 lineto
53852.2 28749.2 lineto
53964.7 28805.4 lineto
54133.4 28805.4 lineto
54245.9 28749.2 lineto
54302.2 28692.9 lineto
54358.4 28580.4 lineto
54358.4 28243 lineto
54302.2 28130.5 lineto
54245.9 28074.3 lineto
54133.4 28018 lineto
53964.7 28018 lineto
stroke
newpath
55033.3 28018 moveto
54920.8 28074.3 lineto
54864.6 28186.7 lineto
54864.6 29199.1 lineto
stroke
newpath
55933.2 28074.3 moveto
55820.7 28018 lineto
55595.8 28018 lineto
55483.3 28074.3 lineto
55427 28186.7 lineto
55427 28636.7 lineto
55483.3 28749.2 lineto
55595.8 28805.4 lineto
55820.7 28805.4 lineto
55933.2 28749.2 lineto
55989.5 28636.7 lineto
55989.5 28524.2 lineto
55427 28411.7 lineto
stroke
newpath
56439.4 28074.3 moveto
56551.9 28018 lineto
56776.9 28018 lineto
56889.4 28074.3 lineto
56945.6 28186.7 lineto
56945.6 28243 lineto
56889.4 28355.5 lineto
56776.9 28411.7 lineto
56608.1 28411.7 lineto
56495.7 28468 lineto
56439.4 28580.4 lineto
56439.4 28636.7 lineto
56495.7 28749.2 lineto
56608.1 28805.4 lineto
56776.9 28805.4 lineto
56889.4 28749.2 lineto
stroke
newpath
57339.3 27568.1 moveto
57395.5 27624.3 lineto
57508 27793 lineto
57564.3 27905.5 lineto
57620.5 28074.3 lineto
57676.8 28355.5 lineto
57676.8 28580.4 lineto
57620.5 28861.7 lineto
57564.3 29030.4 lineto
57508 29142.9 lineto
57395.5 29311.6 lineto
57339.3 29367.8 lineto
stroke
newpath
31541.5 26732.5 moveto
31802.2 26993.3 lineto
31541.5 27254 lineto
31280.8 26993.3 lineto
31541.5 26732.5 lineto
poly0
0 0 0 setrgbcolor
0 0 0 setrgbcolor
newpath
33548.5 26459 moveto
32873.6 26459 lineto
stroke
newpath
33211.1 26459 moveto
33211.1 27640.1 lineto
33098.6 27471.3 lineto
32986.1 27358.8 lineto
32873.6 27302.6 lineto
stroke
newpath
34054.7 26571.4 moveto
34111 26515.2 lineto
34054.7 26459 lineto
33998.5 26515.2 lineto
34054.7 26571.4 lineto
34054.7 26459 lineto
stroke
newpath
34504.7 27640.1 moveto
35235.8 27640.1 lineto
34842.1 27190.1 lineto
35010.8 27190.1 lineto
35123.3 27133.9 lineto
35179.6 27077.6 lineto
35235.8 26965.1 lineto
35235.8 26683.9 lineto
35179.6 26571.4 lineto
35123.3 26515.2 lineto
35010.8 26459 lineto
34673.4 26459 lineto
34560.9 26515.2 lineto
34504.7 26571.4 lineto
stroke
newpath
35967 27640.1 moveto
36079.5 27640.1 lineto
36191.9 27583.8 lineto
36248.2 27527.6 lineto
36304.4 27415.1 lineto
36360.7 27190.1 lineto
36360.7 26908.9 lineto
36304.4 26683.9 lineto
36248.2 26571.4 lineto
36191.9 26515.2 lineto
36079.5 26459 lineto
35967 26459 lineto
35854.5 26515.2 lineto
35798.2 26571.4 lineto
35742 26683.9 lineto
35685.8 26908.9 lineto
35685.8 27190.1 lineto
35742 27415.1 lineto
35798.2 27527.6 lineto
35854.5 27583.8 lineto
35967 27640.1 lineto
stroke
newpath
36866.9 26459 moveto
36866.9 27246.4 lineto
stroke
newpath
36866.9 27133.9 moveto
36923.1 27190.1 lineto
37035.6 27246.4 lineto
37204.3 27246.4 lineto
37316.8 27190.1 lineto
37373 27077.6 lineto
37373 26459 lineto
stroke
newpath
37373 27077.6 moveto
37429.3 27190.1 lineto
37541.8 27246.4 lineto
37710.5 27246.4 lineto
37823 27190.1 lineto
37879.2 27077.6 lineto
37879.2 26459 lineto
stroke
newpath
38441.7 26459 moveto
38441.7 27246.4 lineto
stroke
newpath
38441.7 27133.9 moveto
38497.9 27190.1 lineto
38610.4 27246.4 lineto
38779.1 27246.4 lineto
38891.6 27190.1 lineto
38947.8 27077.6 lineto
38947.8 26459 lineto
stroke
newpath
38947.8 27077.6 moveto
39004.1 27190.1 lineto
39116.6 27246.4 lineto
39285.3 27246.4 lineto
39397.8 27190.1 lineto
39454 27077.6 lineto
39454 26459 lineto
stroke
newpath
41760 27696.3 moveto
40747.6 26177.7 lineto
stroke
newpath
43278.6 27640.1 moveto
43391 27640.1 lineto
43503.5 27583.8 lineto
43559.8 27527.6 lineto
43616 27415.1 lineto
43672.3 27190.1 lineto
43672.3 26908.9 lineto
43616 26683.9 lineto
43559.8 26571.4 lineto
43503.5 26515.2 lineto
43391 26459 lineto
43278.6 26459 lineto
43166.1 26515.2 lineto
43109.8 26571.4 lineto
43053.6 26683.9 lineto
42997.3 26908.9 lineto
42997.3 27190.1 lineto
43053.6 27415.1 lineto
43109.8 27527.6 lineto
43166.1 27583.8 lineto
43278.6 27640.1 lineto
stroke
newpath
44178.4 26571.4 moveto
44234.7 26515.2 lineto
44178.4 26459 lineto
44122.2 26515.2 lineto
44178.4 26571.4 lineto
44178.4 26459 lineto
stroke
newpath
44965.8 27640.1 moveto
45078.3 27640.1 lineto
45190.8 27583.8 lineto
45247.1 27527.6 lineto
45303.3 27415.1 lineto
45359.5 27190.1 lineto
45359.5 26908.9 lineto
45303.3 26683.9 lineto
45247.1 26571.4 lineto
45190.8 26515.2 lineto
45078.3 26459 lineto
44965.8 26459 lineto
44853.4 26515.2 lineto
44797.1 26571.4 lineto
44740.9 26683.9 lineto
44684.6 26908.9 lineto
44684.6 27190.1 lineto
44740.9 27415.1 lineto
44797.1 27527.6 lineto
44853.4 27583.8 lineto
44965.8 27640.1 lineto
stroke
newpath
46428.2 27640.1 moveto
45865.7 27640.1 lineto
45809.5 27077.6 lineto
45865.7 27133.9 lineto
45978.2 27190.1 lineto
46259.4 27190.1 lineto
46371.9 27133.9 lineto
46428.2 27077.6 lineto
46484.4 26965.1 lineto
46484.4 26683.9 lineto
46428.2 26571.4 lineto
46371.9 26515.2 lineto
46259.4 26459 lineto
45978.2 26459 lineto
45865.7 26515.2 lineto
45809.5 26571.4 lineto
stroke
newpath
47609.3 26459 moveto
46934.3 26459 lineto
stroke
newpath
47271.8 26459 moveto
47271.8 27640.1 lineto
47159.3 27471.3 lineto
47046.8 27358.8 lineto
46934.3 27302.6 lineto
stroke
newpath
48059.2 27640.1 moveto
48059.2 27415.1 lineto
stroke
newpath
48509.2 27640.1 moveto
48509.2 27415.1 lineto
stroke
newpath
50252.7 26009 moveto
50196.4 26065.3 lineto
50084 26234 lineto
50027.7 26346.5 lineto
49971.5 26515.2 lineto
49915.2 26796.4 lineto
49915.2 27021.4 lineto
49971.5 27302.6 lineto
50027.7 27471.3 lineto
50084 27583.8 lineto
50196.4 27752.5 lineto
50252.7 27808.8 lineto
stroke
newpath
51208.8 27640.1 moveto
50983.8 27640.1 lineto
50871.4 27583.8 lineto
50815.1 27527.6 lineto
50702.6 27358.8 lineto
50646.4 27133.9 lineto
50646.4 26683.9 lineto
50702.6 26571.4 lineto
50758.9 26515.2 lineto
50871.4 26459 lineto
51096.3 26459 lineto
51208.8 26515.2 lineto
51265.1 26571.4 lineto
51321.3 26683.9 lineto
51321.3 26965.1 lineto
51265.1 27077.6 lineto
51208.8 27133.9 lineto
51096.3 27190.1 lineto
50871.4 27190.1 lineto
50758.9 27133.9 lineto
50702.6 27077.6 lineto
50646.4 26965.1 lineto
stroke
newpath
52727.4 26459 moveto
52727.4 27640.1 lineto
stroke
newpath
53233.6 26459 moveto
53233.6 27077.6 lineto
53177.3 27190.1 lineto
53064.8 27246.4 lineto
52896.1 27246.4 lineto
52783.6 27190.1 lineto
52727.4 27133.9 lineto
stroke
newpath
53964.7 26459 moveto
53852.2 26515.2 lineto
53796 26571.4 lineto
53739.7 26683.9 lineto
53739.7 27021.4 lineto
53796 27133.9 lineto
53852.2 27190.1 lineto
53964.7 27246.4 lineto
54133.4 27246.4 lineto
54245.9 27190.1 lineto
54302.2 27133.9 lineto
54358.4 27021.4 lineto
54358.4 26683.9 lineto
54302.2 26571.4 lineto
54245.9 26515.2 lineto
54133.4 26459 lineto
53964.7 26459 lineto
stroke
newpath
55033.3 26459 moveto
54920.8 26515.2 lineto
54864.6 26627.7 lineto
54864.6 27640.1 lineto
stroke
newpath
55933.2 26515.2 moveto
55820.7 26459 lineto
55595.8 26459 lineto
55483.3 26515.2 lineto
55427 26627.7 lineto
55427 27077.6 lineto
55483.3 27190.1 lineto
55595.8 27246.4 lineto
55820.7 27246.4 lineto
55933.2 27190.1 lineto
55989.5 27077.6 lineto
55989.5 26965.1 lineto
55427 26852.7 lineto
stroke
newpath
56439.4 26515.2 moveto
56551.9 26459 lineto
56776.9 26459 lineto
56889.4 26515.2 lineto
56945.6 26627.7 lineto
56945.6 26683.9 lineto
56889.4 26796.4 lineto
56776.9 26852.7 lineto
56608.1 26852.7 lineto
56495.7 26908.9 lineto
56439.4 27021.4 lineto
56439.4 27077.6 lineto
56495.7 27190.1 lineto
56608.1 27246.4 lineto
56776.9 27246.4 lineto
56889.4 27190.1 lineto
stroke
newpath
57339.3 26009 moveto
57395.5 26065.3 lineto
57508 26234 lineto
57564.3 26346.5 lineto
57620.5 26515.2 lineto
57676.8 26796.4 lineto
57676.8 27021.4 lineto
57620.5 27302.6 lineto
57564.3 27471.3 lineto
57508 27583.8 lineto
57395.5 27752.5 lineto
57339.3 27808.8 lineto
stroke
newpath
31200.5 25735 moveto
31802.2 25133.4 lineto
stroke
newpath
31802.2 25735 moveto
31200.5 25133.4 lineto
stroke
31501.4 25434.2 300.822 cir0
0 0 0 setrgbcolor
0 0 0 setrgbcolor
newpath
33548.5 24899.9 moveto
32873.6 24899.9 lineto
stroke
newpath
33211.1 24899.9 moveto
33211.1 26081 lineto
33098.6 25912.3 lineto
32986.1 25799.8 lineto
32873.6 25743.5 lineto
stroke
newpath
34054.7 25012.4 moveto
34111 24956.1 lineto
34054.7 24899.9 lineto
33998.5 24956.1 lineto
34054.7 25012.4 lineto
34054.7 24899.9 lineto
stroke
newpath
35179.6 26081 moveto
34617.1 26081 lineto
34560.9 25518.6 lineto
34617.1 25574.8 lineto
34729.6 25631.1 lineto
35010.8 25631.1 lineto
35123.3 25574.8 lineto
35179.6 25518.6 lineto
35235.8 25406.1 lineto
35235.8 25124.9 lineto
35179.6 25012.4 lineto
35123.3 24956.1 lineto
35010.8 24899.9 lineto
34729.6 24899.9 lineto
34617.1 24956.1 lineto
34560.9 25012.4 lineto
stroke
newpath
35967 26081 moveto
36079.5 26081 lineto
36191.9 26024.8 lineto
36248.2 25968.5 lineto
36304.4 25856 lineto
36360.7 25631.1 lineto
36360.7 25349.8 lineto
36304.4 25124.9 lineto
36248.2 25012.4 lineto
36191.9 24956.1 lineto
36079.5 24899.9 lineto
35967 24899.9 lineto
35854.5 24956.1 lineto
35798.2 25012.4 lineto
35742 25124.9 lineto
35685.8 25349.8 lineto
35685.8 25631.1 lineto
35742 25856 lineto
35798.2 25968.5 lineto
35854.5 26024.8 lineto
35967 26081 lineto
stroke
newpath
36866.9 24899.9 moveto
36866.9 25687.3 lineto
stroke
newpath
36866.9 25574.8 moveto
36923.1 25631.1 lineto
37035.6 25687.3 lineto
37204.3 25687.3 lineto
37316.8 25631.1 lineto
37373 25518.6 lineto
37373 24899.9 lineto
stroke
newpath
37373 25518.6 moveto
37429.3 25631.1 lineto
37541.8 25687.3 lineto
37710.5 25687.3 lineto
37823 25631.1 lineto
37879.2 25518.6 lineto
37879.2 24899.9 lineto
stroke
newpath
38441.7 24899.9 moveto
38441.7 25687.3 lineto
stroke
newpath
38441.7 25574.8 moveto
38497.9 25631.1 lineto
38610.4 25687.3 lineto
38779.1 25687.3 lineto
38891.6 25631.1 lineto
38947.8 25518.6 lineto
38947.8 24899.9 lineto
stroke
newpath
38947.8 25518.6 moveto
39004.1 25631.1 lineto
39116.6 25687.3 lineto
39285.3 25687.3 lineto
39397.8 25631.1 lineto
39454 25518.6 lineto
39454 24899.9 lineto
stroke
newpath
41760 26137.2 moveto
40747.6 24618.7 lineto
stroke
newpath
43278.6 26081 moveto
43391 26081 lineto
43503.5 26024.8 lineto
43559.8 25968.5 lineto
43616 25856 lineto
43672.3 25631.1 lineto
43672.3 25349.8 lineto
43616 25124.9 lineto
43559.8 25012.4 lineto
43503.5 24956.1 lineto
43391 24899.9 lineto
43278.6 24899.9 lineto
43166.1 24956.1 lineto
43109.8 25012.4 lineto
43053.6 25124.9 lineto
42997.3 25349.8 lineto
42997.3 25631.1 lineto
43053.6 25856 lineto
43109.8 25968.5 lineto
43166.1 26024.8 lineto
43278.6 26081 lineto
stroke
newpath
44178.4 25012.4 moveto
44234.7 24956.1 lineto
44178.4 24899.9 lineto
44122.2 24956.1 lineto
44178.4 25012.4 lineto
44178.4 24899.9 lineto
stroke
newpath
44965.8 26081 moveto
45078.3 26081 lineto
45190.8 26024.8 lineto
45247.1 25968.5 lineto
45303.3 25856 lineto
45359.5 25631.1 lineto
45359.5 25349.8 lineto
45303.3 25124.9 lineto
45247.1 25012.4 lineto
45190.8 24956.1 lineto
45078.3 24899.9 lineto
44965.8 24899.9 lineto
44853.4 24956.1 lineto
44797.1 25012.4 lineto
44740.9 25124.9 lineto
44684.6 25349.8 lineto
44684.6 25631.1 lineto
44740.9 25856 lineto
44797.1 25968.5 lineto
44853.4 26024.8 lineto
44965.8 26081 lineto
stroke
newpath
46428.2 26081 moveto
45865.7 26081 lineto
45809.5 25518.6 lineto
45865.7 25574.8 lineto
45978.2 25631.1 lineto
46259.4 25631.1 lineto
46371.9 25574.8 lineto
46428.2 25518.6 lineto
46484.4 25406.1 lineto
46484.4 25124.9 lineto
46428.2 25012.4 lineto
46371.9 24956.1 lineto
46259.4 24899.9 lineto
45978.2 24899.9 lineto
45865.7 24956.1 lineto
45809.5 25012.4 lineto
stroke
newpath
47046.8 24899.9 moveto
47271.8 24899.9 lineto
47384.3 24956.1 lineto
47440.5 25012.4 lineto
47553 25181.1 lineto
47609.3 25406.1 lineto
47609.3 25856 lineto
47553 25968.5 lineto
47496.8 26024.8 lineto
47384.3 26081 lineto
47159.3 26081 lineto
47046.8 26024.8 lineto
46990.6 25968.5 lineto
46934.3 25856 lineto
46934.3 25574.8 lineto
46990.6 25462.3 lineto
47046.8 25406.1 lineto
47159.3 25349.8 lineto
47384.3 25349.8 lineto
47496.8 25406.1 lineto
47553 25462.3 lineto
47609.3 25574.8 lineto
stroke
newpath
48059.2 26081 moveto
48059.2 25856 lineto
stroke
newpath
48509.2 26081 moveto
48509.2 25856 lineto
stroke
newpath
50252.7 24450 moveto
50196.4 24506.2 lineto
50084 24674.9 lineto
50027.7 24787.4 lineto
49971.5 24956.1 lineto
49915.2 25237.4 lineto
49915.2 25462.3 lineto
49971.5 25743.5 lineto
50027.7 25912.3 lineto
50084 26024.8 lineto
50196.4 26193.5 lineto
50252.7 26249.7 lineto
stroke
newpath
51321.3 24899.9 moveto
50646.4 24899.9 lineto
stroke
newpath
50983.8 24899.9 moveto
50983.8 26081 lineto
50871.4 25912.3 lineto
50758.9 25799.8 lineto
50646.4 25743.5 lineto
stroke
newpath
51771.2 25968.5 moveto
51827.5 26024.8 lineto
51940 26081 lineto
52221.2 26081 lineto
52333.7 26024.8 lineto
52389.9 25968.5 lineto
52446.2 25856 lineto
52446.2 25743.5 lineto
52389.9 25574.8 lineto
51715 24899.9 lineto
52446.2 24899.9 lineto
stroke
newpath
53852.2 24899.9 moveto
53852.2 26081 lineto
stroke
newpath
54358.4 24899.9 moveto
54358.4 25518.6 lineto
54302.2 25631.1 lineto
54189.7 25687.3 lineto
54021 25687.3 lineto
53908.5 25631.1 lineto
53852.2 25574.8 lineto
stroke
newpath
55089.6 24899.9 moveto
54977.1 24956.1 lineto
54920.8 25012.4 lineto
54864.6 25124.9 lineto
54864.6 25462.3 lineto
54920.8 25574.8 lineto
54977.1 25631.1 lineto
55089.6 25687.3 lineto
55258.3 25687.3 lineto
55370.8 25631.1 lineto
55427 25574.8 lineto
55483.3 25462.3 lineto
55483.3 25124.9 lineto
55427 25012.4 lineto
55370.8 24956.1 lineto
55258.3 24899.9 lineto
55089.6 24899.9 lineto
stroke
newpath
56158.2 24899.9 moveto
56045.7 24956.1 lineto
55989.5 25068.6 lineto
55989.5 26081 lineto
stroke
newpath
57058.1 24956.1 moveto
56945.6 24899.9 lineto
56720.6 24899.9 lineto
56608.1 24956.1 lineto
56551.9 25068.6 lineto
56551.9 25518.6 lineto
56608.1 25631.1 lineto
56720.6 25687.3 lineto
56945.6 25687.3 lineto
57058.1 25631.1 lineto
57114.3 25518.6 lineto
57114.3 25406.1 lineto
56551.9 25293.6 lineto
stroke
newpath
57564.3 24956.1 moveto
57676.8 24899.9 lineto
57901.7 24899.9 lineto
58014.2 24956.1 lineto
58070.5 25068.6 lineto
58070.5 25124.9 lineto
58014.2 25237.4 lineto
57901.7 25293.6 lineto
57733 25293.6 lineto
57620.5 25349.8 lineto
57564.3 25462.3 lineto
57564.3 25518.6 lineto
57620.5 25631.1 lineto
57733 25687.3 lineto
57901.7 25687.3 lineto
58014.2 25631.1 lineto
stroke
newpath
58464.2 24450 moveto
58520.4 24506.2 lineto
58632.9 24674.9 lineto
58689.1 24787.4 lineto
58745.4 24956.1 lineto
58801.6 25237.4 lineto
58801.6 25462.3 lineto
58745.4 25743.5 lineto
58689.1 25912.3 lineto
58632.9 26024.8 lineto
58520.4 26193.5 lineto
58464.2 26249.7 lineto
stroke
newpath
31080.2 24236.1 moveto
31802.2 23514.2 lineto
stroke
newpath
31802.2 24236.1 moveto
31080.2 23514.2 lineto
stroke
newpath
31441.2 24236.1 moveto
31441.2 23514.2 lineto
stroke
newpath
31080.2 23875.2 moveto
31802.2 23875.2 lineto
stroke
0 0 0 setrgbcolor
0 0 0 setrgbcolor
newpath
33548.5 23340.8 moveto
32873.6 23340.8 lineto
stroke
newpath
33211.1 23340.8 moveto
33211.1 24521.9 lineto
33098.6 24353.2 lineto
32986.1 24240.7 lineto
32873.6 24184.5 lineto
stroke
newpath
34054.7 23453.3 moveto
34111 23397.1 lineto
34054.7 23340.8 lineto
33998.5 23397.1 lineto
34054.7 23453.3 lineto
34054.7 23340.8 lineto
stroke
newpath
34785.9 24015.8 moveto
34673.4 24072 lineto
34617.1 24128.2 lineto
34560.9 24240.7 lineto
34560.9 24297 lineto
34617.1 24409.5 lineto
34673.4 24465.7 lineto
34785.9 24521.9 lineto
35010.8 24521.9 lineto
35123.3 24465.7 lineto
35179.6 24409.5 lineto
35235.8 24297 lineto
35235.8 24240.7 lineto
35179.6 24128.2 lineto
35123.3 24072 lineto
35010.8 24015.8 lineto
34785.9 24015.8 lineto
34673.4 23959.5 lineto
34617.1 23903.3 lineto
34560.9 23790.8 lineto
34560.9 23565.8 lineto
34617.1 23453.3 lineto
34673.4 23397.1 lineto
34785.9 23340.8 lineto
35010.8 23340.8 lineto
35123.3 23397.1 lineto
35179.6 23453.3 lineto
35235.8 23565.8 lineto
35235.8 23790.8 lineto
35179.6 23903.3 lineto
35123.3 23959.5 lineto
35010.8 24015.8 lineto
stroke
newpath
35967 24521.9 moveto
36079.5 24521.9 lineto
36191.9 24465.7 lineto
36248.2 24409.5 lineto
36304.4 24297 lineto
36360.7 24072 lineto
36360.7 23790.8 lineto
36304.4 23565.8 lineto
36248.2 23453.3 lineto
36191.9 23397.1 lineto
36079.5 23340.8 lineto
35967 23340.8 lineto
35854.5 23397.1 lineto
35798.2 23453.3 lineto
35742 23565.8 lineto
35685.8 23790.8 lineto
35685.8 24072 lineto
35742 24297 lineto
35798.2 24409.5 lineto
35854.5 24465.7 lineto
35967 24521.9 lineto
stroke
newpath
36866.9 23340.8 moveto
36866.9 24128.2 lineto
stroke
newpath
36866.9 24015.8 moveto
36923.1 24072 lineto
37035.6 24128.2 lineto
37204.3 24128.2 lineto
37316.8 24072 lineto
37373 23959.5 lineto
37373 23340.8 lineto
stroke
newpath
37373 23959.5 moveto
37429.3 24072 lineto
37541.8 24128.2 lineto
37710.5 24128.2 lineto
37823 24072 lineto
37879.2 23959.5 lineto
37879.2 23340.8 lineto
stroke
newpath
38441.7 23340.8 moveto
38441.7 24128.2 lineto
stroke
newpath
38441.7 24015.8 moveto
38497.9 24072 lineto
38610.4 24128.2 lineto
38779.1 24128.2 lineto
38891.6 24072 lineto
38947.8 23959.5 lineto
38947.8 23340.8 lineto
stroke
newpath
38947.8 23959.5 moveto
39004.1 24072 lineto
39116.6 24128.2 lineto
39285.3 24128.2 lineto
39397.8 24072 lineto
39454 23959.5 lineto
39454 23340.8 lineto
stroke
newpath
41760 24578.2 moveto
40747.6 23059.6 lineto
stroke
newpath
43278.6 24521.9 moveto
43391 24521.9 lineto
43503.5 24465.7 lineto
43559.8 24409.5 lineto
43616 24297 lineto
43672.3 24072 lineto
43672.3 23790.8 lineto
43616 23565.8 lineto
43559.8 23453.3 lineto
43503.5 23397.1 lineto
43391 23340.8 lineto
43278.6 23340.8 lineto
43166.1 23397.1 lineto
43109.8 23453.3 lineto
43053.6 23565.8 lineto
42997.3 23790.8 lineto
42997.3 24072 lineto
43053.6 24297 lineto
43109.8 24409.5 lineto
43166.1 24465.7 lineto
43278.6 24521.9 lineto
stroke
newpath
44178.4 23453.3 moveto
44234.7 23397.1 lineto
44178.4 23340.8 lineto
44122.2 23397.1 lineto
44178.4 23453.3 lineto
44178.4 23340.8 lineto
stroke
newpath
44965.8 24521.9 moveto
45078.3 24521.9 lineto
45190.8 24465.7 lineto
45247.1 24409.5 lineto
45303.3 24297 lineto
45359.5 24072 lineto
45359.5 23790.8 lineto
45303.3 23565.8 lineto
45247.1 23453.3 lineto
45190.8 23397.1 lineto
45078.3 23340.8 lineto
44965.8 23340.8 lineto
44853.4 23397.1 lineto
44797.1 23453.3 lineto
44740.9 23565.8 lineto
44684.6 23790.8 lineto
44684.6 24072 lineto
44740.9 24297 lineto
44797.1 24409.5 lineto
44853.4 24465.7 lineto
44965.8 24521.9 lineto
stroke
newpath
45753.2 24521.9 moveto
46540.6 24521.9 lineto
46034.5 23340.8 lineto
stroke
newpath
47609.3 23340.8 moveto
46934.3 23340.8 lineto
stroke
newpath
47271.8 23340.8 moveto
47271.8 24521.9 lineto
47159.3 24353.2 lineto
47046.8 24240.7 lineto
46934.3 24184.5 lineto
stroke
newpath
48059.2 24521.9 moveto
48059.2 24297 lineto
stroke
newpath
48509.2 24521.9 moveto
48509.2 24297 lineto
stroke
newpath
50252.7 22890.9 moveto
50196.4 22947.1 lineto
50084 23115.9 lineto
50027.7 23228.4 lineto
49971.5 23397.1 lineto
49915.2 23678.3 lineto
49915.2 23903.3 lineto
49971.5 24184.5 lineto
50027.7 24353.2 lineto
50084 24465.7 lineto
50196.4 24634.4 lineto
50252.7 24690.7 lineto
stroke
newpath
50927.6 24521.9 moveto
51040.1 24521.9 lineto
51152.6 24465.7 lineto
51208.8 24409.5 lineto
51265.1 24297 lineto
51321.3 24072 lineto
51321.3 23790.8 lineto
51265.1 23565.8 lineto
51208.8 23453.3 lineto
51152.6 23397.1 lineto
51040.1 23340.8 lineto
50927.6 23340.8 lineto
50815.1 23397.1 lineto
50758.9 23453.3 lineto
50702.6 23565.8 lineto
50646.4 23790.8 lineto
50646.4 24072 lineto
50702.6 24297 lineto
50758.9 24409.5 lineto
50815.1 24465.7 lineto
50927.6 24521.9 lineto
stroke
newpath
52727.4 23340.8 moveto
52727.4 24521.9 lineto
stroke
newpath
53233.6 23340.8 moveto
53233.6 23959.5 lineto
53177.3 24072 lineto
53064.8 24128.2 lineto
52896.1 24128.2 lineto
52783.6 24072 lineto
52727.4 24015.8 lineto
stroke
newpath
53964.7 23340.8 moveto
53852.2 23397.1 lineto
53796 23453.3 lineto
53739.7 23565.8 lineto
53739.7 23903.3 lineto
53796 24015.8 lineto
53852.2 24072 lineto
53964.7 24128.2 lineto
54133.4 24128.2 lineto
54245.9 24072 lineto
54302.2 24015.8 lineto
54358.4 23903.3 lineto
54358.4 23565.8 lineto
54302.2 23453.3 lineto
54245.9 23397.1 lineto
54133.4 23340.8 lineto
53964.7 23340.8 lineto
stroke
newpath
55033.3 23340.8 moveto
54920.8 23397.1 lineto
54864.6 23509.6 lineto
54864.6 24521.9 lineto
stroke
newpath
55933.2 23397.1 moveto
55820.7 23340.8 lineto
55595.8 23340.8 lineto
55483.3 23397.1 lineto
55427 23509.6 lineto
55427 23959.5 lineto
55483.3 24072 lineto
55595.8 24128.2 lineto
55820.7 24128.2 lineto
55933.2 24072 lineto
55989.5 23959.5 lineto
55989.5 23847 lineto
55427 23734.5 lineto
stroke
newpath
56439.4 23397.1 moveto
56551.9 23340.8 lineto
56776.9 23340.8 lineto
56889.4 23397.1 lineto
56945.6 23509.6 lineto
56945.6 23565.8 lineto
56889.4 23678.3 lineto
56776.9 23734.5 lineto
56608.1 23734.5 lineto
56495.7 23790.8 lineto
56439.4 23903.3 lineto
56439.4 23959.5 lineto
56495.7 24072 lineto
56608.1 24128.2 lineto
56776.9 24128.2 lineto
56889.4 24072 lineto
stroke
newpath
58351.7 23790.8 moveto
59251.6 23790.8 lineto
stroke
newpath
58801.6 23340.8 moveto
58801.6 24240.7 lineto
stroke
newpath
60657.6 24409.5 moveto
60713.9 24465.7 lineto
60826.4 24521.9 lineto
61107.6 24521.9 lineto
61220.1 24465.7 lineto
61276.3 24409.5 lineto
61332.5 24297 lineto
61332.5 24184.5 lineto
61276.3 24015.8 lineto
60601.4 23340.8 lineto
61332.5 23340.8 lineto
stroke
newpath
62682.4 23397.1 moveto
62794.9 23340.8 lineto
63019.8 23340.8 lineto
63132.3 23397.1 lineto
63188.6 23509.6 lineto
63188.6 23565.8 lineto
63132.3 23678.3 lineto
63019.8 23734.5 lineto
62851.1 23734.5 lineto
62738.6 23790.8 lineto
62682.4 23903.3 lineto
62682.4 23959.5 lineto
62738.6 24072 lineto
62851.1 24128.2 lineto
63019.8 24128.2 lineto
63132.3 24072 lineto
stroke
newpath
63863.5 23340.8 moveto
63751 23397.1 lineto
63694.8 23509.6 lineto
63694.8 24521.9 lineto
stroke
newpath
64482.2 23340.8 moveto
64369.7 23397.1 lineto
64313.4 23453.3 lineto
64257.2 23565.8 lineto
64257.2 23903.3 lineto
64313.4 24015.8 lineto
64369.7 24072 lineto
64482.2 24128.2 lineto
64650.9 24128.2 lineto
64763.4 24072 lineto
64819.6 24015.8 lineto
64875.9 23903.3 lineto
64875.9 23565.8 lineto
64819.6 23453.3 lineto
64763.4 23397.1 lineto
64650.9 23340.8 lineto
64482.2 23340.8 lineto
stroke
newpath
65213.3 24128.2 moveto
65663.3 24128.2 lineto
stroke
newpath
65382 24521.9 moveto
65382 23509.6 lineto
65438.3 23397.1 lineto
65550.8 23340.8 lineto
65663.3 23340.8 lineto
stroke
newpath
66000.7 23397.1 moveto
66113.2 23340.8 lineto
66338.2 23340.8 lineto
66450.7 23397.1 lineto
66506.9 23509.6 lineto
66506.9 23565.8 lineto
66450.7 23678.3 lineto
66338.2 23734.5 lineto
66169.4 23734.5 lineto
66057 23790.8 lineto
66000.7 23903.3 lineto
66000.7 23959.5 lineto
66057 24072 lineto
66169.4 24128.2 lineto
66338.2 24128.2 lineto
66450.7 24072 lineto
stroke
newpath
66900.6 22890.9 moveto
66956.8 22947.1 lineto
67069.3 23115.9 lineto
67125.6 23228.4 lineto
67181.8 23397.1 lineto
67238.1 23678.3 lineto
67238.1 23903.3 lineto
67181.8 24184.5 lineto
67125.6 24353.2 lineto
67069.3 24465.7 lineto
66956.8 24634.4 lineto
66900.6 24690.7 lineto
stroke
newpath
30518.7 22957.8 moveto
31802.2 21674.3 lineto
stroke
newpath
31802.2 22957.8 moveto
30518.7 21674.3 lineto
stroke
newpath
31614.2 21862.3 moveto
31614.2 22769.9 lineto
30706.6 22769.9 lineto
30706.6 21862.3 lineto
31614.2 21862.3 lineto
poly0
0 0 0 setrgbcolor
0 0 0 setrgbcolor
newpath
32817.4 22962.9 moveto
33548.5 22962.9 lineto
33154.8 22512.9 lineto
33323.6 22512.9 lineto
33436 22456.7 lineto
33492.3 22400.5 lineto
33548.5 22288 lineto
33548.5 22006.8 lineto
33492.3 21894.3 lineto
33436 21838 lineto
33323.6 21781.8 lineto
32986.1 21781.8 lineto
32873.6 21838 lineto
32817.4 21894.3 lineto
stroke
newpath
34054.7 21894.3 moveto
34111 21838 lineto
34054.7 21781.8 lineto
33998.5 21838 lineto
34054.7 21894.3 lineto
34054.7 21781.8 lineto
stroke
newpath
34560.9 22850.4 moveto
34617.1 22906.6 lineto
34729.6 22962.9 lineto
35010.8 22962.9 lineto
35123.3 22906.6 lineto
35179.6 22850.4 lineto
35235.8 22737.9 lineto
35235.8 22625.4 lineto
35179.6 22456.7 lineto
34504.7 21781.8 lineto
35235.8 21781.8 lineto
stroke
newpath
35967 22962.9 moveto
36079.5 22962.9 lineto
36191.9 22906.6 lineto
36248.2 22850.4 lineto
36304.4 22737.9 lineto
36360.7 22512.9 lineto
36360.7 22231.7 lineto
36304.4 22006.8 lineto
36248.2 21894.3 lineto
36191.9 21838 lineto
36079.5 21781.8 lineto
35967 21781.8 lineto
35854.5 21838 lineto
35798.2 21894.3 lineto
35742 22006.8 lineto
35685.8 22231.7 lineto
35685.8 22512.9 lineto
35742 22737.9 lineto
35798.2 22850.4 lineto
35854.5 22906.6 lineto
35967 22962.9 lineto
stroke
newpath
36866.9 21781.8 moveto
36866.9 22569.2 lineto
stroke
newpath
36866.9 22456.7 moveto
36923.1 22512.9 lineto
37035.6 22569.2 lineto
37204.3 22569.2 lineto
37316.8 22512.9 lineto
37373 22400.5 lineto
37373 21781.8 lineto
stroke
newpath
37373 22400.5 moveto
37429.3 22512.9 lineto
37541.8 22569.2 lineto
37710.5 22569.2 lineto
37823 22512.9 lineto
37879.2 22400.5 lineto
37879.2 21781.8 lineto
stroke
newpath
38441.7 21781.8 moveto
38441.7 22569.2 lineto
stroke
newpath
38441.7 22456.7 moveto
38497.9 22512.9 lineto
38610.4 22569.2 lineto
38779.1 22569.2 lineto
38891.6 22512.9 lineto
38947.8 22400.5 lineto
38947.8 21781.8 lineto
stroke
newpath
38947.8 22400.5 moveto
39004.1 22512.9 lineto
39116.6 22569.2 lineto
39285.3 22569.2 lineto
39397.8 22512.9 lineto
39454 22400.5 lineto
39454 21781.8 lineto
stroke
newpath
41760 23019.1 moveto
40747.6 21500.6 lineto
stroke
newpath
43278.6 22962.9 moveto
43391 22962.9 lineto
43503.5 22906.6 lineto
43559.8 22850.4 lineto
43616 22737.9 lineto
43672.3 22512.9 lineto
43672.3 22231.7 lineto
43616 22006.8 lineto
43559.8 21894.3 lineto
43503.5 21838 lineto
43391 21781.8 lineto
43278.6 21781.8 lineto
43166.1 21838 lineto
43109.8 21894.3 lineto
43053.6 22006.8 lineto
42997.3 22231.7 lineto
42997.3 22512.9 lineto
43053.6 22737.9 lineto
43109.8 22850.4 lineto
43166.1 22906.6 lineto
43278.6 22962.9 lineto
stroke
newpath
44178.4 21894.3 moveto
44234.7 21838 lineto
44178.4 21781.8 lineto
44122.2 21838 lineto
44178.4 21894.3 lineto
44178.4 21781.8 lineto
stroke
newpath
45359.5 21781.8 moveto
44684.6 21781.8 lineto
stroke
newpath
45022.1 21781.8 moveto
45022.1 22962.9 lineto
44909.6 22794.2 lineto
44797.1 22681.7 lineto
44684.6 22625.4 lineto
stroke
newpath
45809.5 22850.4 moveto
45865.7 22906.6 lineto
45978.2 22962.9 lineto
46259.4 22962.9 lineto
46371.9 22906.6 lineto
46428.2 22850.4 lineto
46484.4 22737.9 lineto
46484.4 22625.4 lineto
46428.2 22456.7 lineto
45753.2 21781.8 lineto
46484.4 21781.8 lineto
stroke
newpath
47496.8 22962.9 moveto
47271.8 22962.9 lineto
47159.3 22906.6 lineto
47103.1 22850.4 lineto
46990.6 22681.7 lineto
46934.3 22456.7 lineto
46934.3 22006.8 lineto
46990.6 21894.3 lineto
47046.8 21838 lineto
47159.3 21781.8 lineto
47384.3 21781.8 lineto
47496.8 21838 lineto
47553 21894.3 lineto
47609.3 22006.8 lineto
47609.3 22288 lineto
47553 22400.5 lineto
47496.8 22456.7 lineto
47384.3 22512.9 lineto
47159.3 22512.9 lineto
47046.8 22456.7 lineto
46990.6 22400.5 lineto
46934.3 22288 lineto
stroke
newpath
48059.2 22962.9 moveto
48059.2 22737.9 lineto
stroke
newpath
48509.2 22962.9 moveto
48509.2 22737.9 lineto
stroke
newpath
50252.7 21331.8 moveto
50196.4 21388.1 lineto
50084 21556.8 lineto
50027.7 21669.3 lineto
49971.5 21838 lineto
49915.2 22119.2 lineto
49915.2 22344.2 lineto
49971.5 22625.4 lineto
50027.7 22794.2 lineto
50084 22906.6 lineto
50196.4 23075.4 lineto
50252.7 23131.6 lineto
stroke
newpath
50590.1 22962.9 moveto
51321.3 22962.9 lineto
50927.6 22512.9 lineto
51096.3 22512.9 lineto
51208.8 22456.7 lineto
51265.1 22400.5 lineto
51321.3 22288 lineto
51321.3 22006.8 lineto
51265.1 21894.3 lineto
51208.8 21838 lineto
51096.3 21781.8 lineto
50758.9 21781.8 lineto
50646.4 21838 lineto
50590.1 21894.3 lineto
stroke
newpath
52727.4 21781.8 moveto
52727.4 22962.9 lineto
stroke
newpath
53233.6 21781.8 moveto
53233.6 22400.5 lineto
53177.3 22512.9 lineto
53064.8 22569.2 lineto
52896.1 22569.2 lineto
52783.6 22512.9 lineto
52727.4 22456.7 lineto
stroke
newpath
53964.7 21781.8 moveto
53852.2 21838 lineto
53796 21894.3 lineto
53739.7 22006.8 lineto
53739.7 22344.2 lineto
53796 22456.7 lineto
53852.2 22512.9 lineto
53964.7 22569.2 lineto
54133.4 22569.2 lineto
54245.9 22512.9 lineto
54302.2 22456.7 lineto
54358.4 22344.2 lineto
54358.4 22006.8 lineto
54302.2 21894.3 lineto
54245.9 21838 lineto
54133.4 21781.8 lineto
53964.7 21781.8 lineto
stroke
newpath
55033.3 21781.8 moveto
54920.8 21838 lineto
54864.6 21950.5 lineto
54864.6 22962.9 lineto
stroke
newpath
55933.2 21838 moveto
55820.7 21781.8 lineto
55595.8 21781.8 lineto
55483.3 21838 lineto
55427 21950.5 lineto
55427 22400.5 lineto
55483.3 22512.9 lineto
55595.8 22569.2 lineto
55820.7 22569.2 lineto
55933.2 22512.9 lineto
55989.5 22400.5 lineto
55989.5 22288 lineto
55427 22175.5 lineto
stroke
newpath
56439.4 21838 moveto
56551.9 21781.8 lineto
56776.9 21781.8 lineto
56889.4 21838 lineto
56945.6 21950.5 lineto
56945.6 22006.8 lineto
56889.4 22119.2 lineto
56776.9 22175.5 lineto
56608.1 22175.5 lineto
56495.7 22231.7 lineto
56439.4 22344.2 lineto
56439.4 22400.5 lineto
56495.7 22512.9 lineto
56608.1 22569.2 lineto
56776.9 22569.2 lineto
56889.4 22512.9 lineto
stroke
newpath
57339.3 21331.8 moveto
57395.5 21388.1 lineto
57508 21556.8 lineto
57564.3 21669.3 lineto
57620.5 21838 lineto
57676.8 22119.2 lineto
57676.8 22344.2 lineto
57620.5 22625.4 lineto
57564.3 22794.2 lineto
57508 22906.6 lineto
57395.5 23075.4 lineto
57339.3 23131.6 lineto
stroke
newpath
59476.5 21331.8 moveto
59420.3 21388.1 lineto
59307.8 21556.8 lineto
59251.6 21669.3 lineto
59195.3 21838 lineto
59139.1 22119.2 lineto
59139.1 22344.2 lineto
59195.3 22625.4 lineto
59251.6 22794.2 lineto
59307.8 22906.6 lineto
59420.3 23075.4 lineto
59476.5 23131.6 lineto
stroke
newpath
59926.5 22569.2 moveto
59926.5 21781.8 lineto
stroke
newpath
59926.5 22456.7 moveto
59982.7 22512.9 lineto
60095.2 22569.2 lineto
60263.9 22569.2 lineto
60376.4 22512.9 lineto
60432.7 22400.5 lineto
60432.7 21781.8 lineto
stroke
newpath
61163.8 21781.8 moveto
61051.3 21838 lineto
60995.1 21894.3 lineto
60938.8 22006.8 lineto
60938.8 22344.2 lineto
60995.1 22456.7 lineto
61051.3 22512.9 lineto
61163.8 22569.2 lineto
61332.5 22569.2 lineto
61445 22512.9 lineto
61501.3 22456.7 lineto
61557.5 22344.2 lineto
61557.5 22006.8 lineto
61501.3 21894.3 lineto
61445 21838 lineto
61332.5 21781.8 lineto
61163.8 21781.8 lineto
stroke
newpath
61895 22569.2 moveto
62344.9 22569.2 lineto
stroke
newpath
62063.7 22962.9 moveto
62063.7 21950.5 lineto
62119.9 21838 lineto
62232.4 21781.8 lineto
62344.9 21781.8 lineto
stroke
newpath
63638.5 22569.2 moveto
63638.5 21388.1 lineto
stroke
newpath
63638.5 22512.9 moveto
63751 22569.2 lineto
63976 22569.2 lineto
64088.5 22512.9 lineto
64144.7 22456.7 lineto
64200.9 22344.2 lineto
64200.9 22006.8 lineto
64144.7 21894.3 lineto
64088.5 21838 lineto
63976 21781.8 lineto
63751 21781.8 lineto
63638.5 21838 lineto
stroke
newpath
64875.9 21781.8 moveto
64763.4 21838 lineto
64707.1 21950.5 lineto
64707.1 22962.9 lineto
stroke
newpath
65832 21781.8 moveto
65832 22400.5 lineto
65775.7 22512.9 lineto
65663.3 22569.2 lineto
65438.3 22569.2 lineto
65325.8 22512.9 lineto
stroke
newpath
65832 21838 moveto
65719.5 21781.8 lineto
65438.3 21781.8 lineto
65325.8 21838 lineto
65269.6 21950.5 lineto
65269.6 22063 lineto
65325.8 22175.5 lineto
65438.3 22231.7 lineto
65719.5 22231.7 lineto
65832 22288 lineto
stroke
newpath
66225.7 22569.2 moveto
66675.6 22569.2 lineto
stroke
newpath
66394.4 22962.9 moveto
66394.4 21950.5 lineto
66450.7 21838 lineto
66563.1 21781.8 lineto
66675.6 21781.8 lineto
stroke
newpath
67519.3 21838 moveto
67406.8 21781.8 lineto
67181.8 21781.8 lineto
67069.3 21838 lineto
67013.1 21950.5 lineto
67013.1 22400.5 lineto
67069.3 22512.9 lineto
67181.8 22569.2 lineto
67406.8 22569.2 lineto
67519.3 22512.9 lineto
67575.5 22400.5 lineto
67575.5 22288 lineto
67013.1 22175.5 lineto
stroke
newpath
68587.9 21781.8 moveto
68587.9 22962.9 lineto
stroke
newpath
68587.9 21838 moveto
68475.4 21781.8 lineto
68250.4 21781.8 lineto
68137.9 21838 lineto
68081.7 21894.3 lineto
68025.5 22006.8 lineto
68025.5 22344.2 lineto
68081.7 22456.7 lineto
68137.9 22512.9 lineto
68250.4 22569.2 lineto
68475.4 22569.2 lineto
68587.9 22512.9 lineto
stroke
newpath
69037.8 21331.8 moveto
69094.1 21388.1 lineto
69206.6 21556.8 lineto
69262.8 21669.3 lineto
69319 21838 lineto
69375.3 22119.2 lineto
69375.3 22344.2 lineto
69319 22625.4 lineto
69262.8 22794.2 lineto
69206.6 22906.6 lineto
69094.1 23075.4 lineto
69037.8 23131.6 lineto
stroke
showpage
grestore
%%EOF
