EESchema Schematic File Version 4
EELAYER 30 0
EELAYER END
$Descr A4 11693 8268
encoding utf-8
Sheet 1 1
Title "GuitarFuzzEffectPedal"
Date "2021-02-20"
Rev "v01"
Comp ""
Comment1 ""
Comment2 ""
Comment3 ""
Comment4 "Author: Damjan Prerad"
$EndDescr
$Comp
L Device:Q_PNP_CBE Q1
U 1 1 60319033
P 4725 2800
F 0 "Q1" H 4915 2846 50  0000 L CNN
F 1 "Q_PNP_CBE" H 4915 2755 50  0000 L CNN
F 2 "Transistors_OldSowjetAera:OldSowjetaera_Transistor_Type-II_BigPads" H 4925 2900 50  0001 C CNN
F 3 "~" H 4725 2800 50  0001 C CNN
	1    4725 2800
	1    0    0    -1  
$EndComp
$Comp
L Device:Q_PNP_CBE Q2
U 1 1 6031944A
P 5425 2500
F 0 "Q2" H 5615 2546 50  0000 L CNN
F 1 "Q_PNP_CBE" H 5615 2455 50  0000 L CNN
F 2 "Transistors_OldSowjetAera:OldSowjetaera_Transistor_Type-II_BigPads" H 5625 2600 50  0001 C CNN
F 3 "~" H 5425 2500 50  0001 C CNN
	1    5425 2500
	1    0    0    -1  
$EndComp
$Comp
L Device:R R2
U 1 1 60319CE3
P 5150 3450
F 0 "R2" V 4943 3450 50  0000 C CNN
F 1 "100k" V 5034 3450 50  0000 C CNN
F 2 "Resistors_THT:R_Axial_DIN0207_L6.3mm_D2.5mm_P7.62mm_Horizontal" V 5080 3450 50  0001 C CNN
F 3 "~" H 5150 3450 50  0001 C CNN
	1    5150 3450
	0    1    1    0   
$EndComp
$Comp
L Device:R_POT_TRIM RV2
U 1 1 6031C110
P 5525 1925
F 0 "RV2" H 5456 1971 50  0000 R CNN
F 1 "100k" H 5456 1880 50  0000 R CNN
F 2 "Potentiometers:Potentiometer_Trimmer_Piher_PT-10v10_Horizontal_Px10.0mm_Py5.0mm_MountLS" H 5525 1925 50  0001 C CNN
F 3 "~" H 5525 1925 50  0001 C CNN
	1    5525 1925
	1    0    0    -1  
$EndComp
$Comp
L Device:R_POT_TRIM RV1
U 1 1 6031D69F
P 4825 2275
F 0 "RV1" H 4756 2321 50  0000 R CNN
F 1 "100k" H 4756 2230 50  0000 R CNN
F 2 "Potentiometers:Potentiometer_Trimmer_Piher_PT-10v10_Horizontal_Px10.0mm_Py5.0mm_MountLS" H 4825 2275 50  0001 C CNN
F 3 "~" H 4825 2275 50  0001 C CNN
	1    4825 2275
	1    0    0    -1  
$EndComp
$Comp
L Device:R R3
U 1 1 6031EECC
P 5525 1425
F 0 "R3" H 5595 1471 50  0000 L CNN
F 1 "470" H 5595 1380 50  0000 L CNN
F 2 "Resistors_THT:R_Axial_DIN0207_L6.3mm_D2.5mm_P7.62mm_Horizontal" V 5455 1425 50  0001 C CNN
F 3 "~" H 5525 1425 50  0001 C CNN
	1    5525 1425
	1    0    0    -1  
$EndComp
$Comp
L Device:R_POT RV4
U 1 1 6031F9A0
P 6625 1950
F 0 "RV4" H 6556 1996 50  0000 R CNN
F 1 "500k" H 6556 1905 50  0000 R CNN
F 2 "Potentiometers:Potentiometer_WirePads" H 6625 1950 50  0001 C CNN
F 3 "~" H 6625 1950 50  0001 C CNN
	1    6625 1950
	1    0    0    -1  
$EndComp
$Comp
L Device:R_POT RV3
U 1 1 603201EF
P 5525 3825
F 0 "RV3" H 5455 3871 50  0000 R CNN
F 1 "1k" H 5455 3780 50  0000 R CNN
F 2 "Potentiometers:Potentiometer_WirePads" H 5525 3825 50  0001 C CNN
F 3 "~" H 5525 3825 50  0001 C CNN
	1    5525 3825
	1    0    0    -1  
$EndComp
$Comp
L Device:C C1
U 1 1 60322C10
P 4150 2800
F 0 "C1" V 3898 2800 50  0000 C CNN
F 1 "2.2uF" V 3989 2800 50  0000 C CNN
F 2 "Capacitors_THT:C_Disc_D4.3mm_W1.9mm_P5.00mm" H 4188 2650 50  0001 C CNN
F 3 "~" H 4150 2800 50  0001 C CNN
	1    4150 2800
	0    1    1    0   
$EndComp
$Comp
L Device:C C6
U 1 1 603233E8
P 6075 1675
F 0 "C6" V 5823 1675 50  0000 C CNN
F 1 "10nF" V 5914 1675 50  0000 C CNN
F 2 "Capacitors_THT:C_Disc_D4.3mm_W1.9mm_P5.00mm" H 6113 1525 50  0001 C CNN
F 3 "~" H 6075 1675 50  0001 C CNN
	1    6075 1675
	0    1    1    0   
$EndComp
$Comp
L Device:CP C5
U 1 1 6032555C
P 5925 4075
F 0 "C5" H 6043 4121 50  0000 L CNN
F 1 "20uF" H 6043 4030 50  0000 L CNN
F 2 "Capacitors_THT:CP_Radial_D10.0mm_P3.80mm" H 5963 3925 50  0001 C CNN
F 3 "~" H 5925 4075 50  0001 C CNN
	1    5925 4075
	-1   0    0    1   
$EndComp
$Comp
L power:VCC #PWR06
U 1 1 60326265
P 4825 3150
F 0 "#PWR06" H 4825 3000 50  0001 C CNN
F 1 "VCC" H 4840 3323 50  0000 C CNN
F 2 "" H 4825 3150 50  0001 C CNN
F 3 "" H 4825 3150 50  0001 C CNN
	1    4825 3150
	-1   0    0    1   
$EndComp
$Comp
L power:VCC #PWR08
U 1 1 6032705E
P 5525 4425
F 0 "#PWR08" H 5525 4275 50  0001 C CNN
F 1 "VCC" H 5540 4598 50  0000 C CNN
F 2 "" H 5525 4425 50  0001 C CNN
F 3 "" H 5525 4425 50  0001 C CNN
	1    5525 4425
	-1   0    0    1   
$EndComp
$Comp
L power:GND #PWR07
U 1 1 60327A6C
P 5150 1100
F 0 "#PWR07" H 5150 850 50  0001 C CNN
F 1 "GND" H 5155 927 50  0000 C CNN
F 2 "" H 5150 1100 50  0001 C CNN
F 3 "" H 5150 1100 50  0001 C CNN
	1    5150 1100
	-1   0    0    1   
$EndComp
$Comp
L power:VCC #PWR09
U 1 1 603287F3
P 6625 2275
F 0 "#PWR09" H 6625 2125 50  0001 C CNN
F 1 "VCC" H 6640 2448 50  0000 C CNN
F 2 "" H 6625 2275 50  0001 C CNN
F 3 "" H 6625 2275 50  0001 C CNN
	1    6625 2275
	-1   0    0    1   
$EndComp
$Comp
L power:GND #PWR010
U 1 1 6032937B
P 7500 2375
F 0 "#PWR010" H 7500 2125 50  0001 C CNN
F 1 "GND" H 7505 2202 50  0000 C CNN
F 2 "" H 7500 2375 50  0001 C CNN
F 3 "" H 7500 2375 50  0001 C CNN
	1    7500 2375
	1    0    0    -1  
$EndComp
$Comp
L Device:CP C3
U 1 1 6032A5C6
P 3175 6075
F 0 "C3" H 3293 6121 50  0000 L CNN
F 1 "470uF" H 3293 6030 50  0000 L CNN
F 2 "Capacitors_THT:CP_Radial_D10.0mm_P5.00mm" H 3213 5925 50  0001 C CNN
F 3 "~" H 3175 6075 50  0001 C CNN
	1    3175 6075
	1    0    0    -1  
$EndComp
$Comp
L power:VCC #PWR04
U 1 1 6032E56C
P 4600 5700
F 0 "#PWR04" H 4600 5550 50  0001 C CNN
F 1 "VCC" H 4615 5873 50  0000 C CNN
F 2 "" H 4600 5700 50  0001 C CNN
F 3 "" H 4600 5700 50  0001 C CNN
	1    4600 5700
	1    0    0    -1  
$EndComp
Wire Wire Line
	6625 2275 6625 2100
Wire Wire Line
	4525 2800 4425 2800
Wire Wire Line
	4825 2425 4825 2500
Wire Wire Line
	4825 3000 4825 3150
Wire Wire Line
	5000 3450 4425 3450
Wire Wire Line
	4425 3450 4425 2800
Connection ~ 4425 2800
Wire Wire Line
	4425 2800 4325 2800
Wire Wire Line
	5300 3450 5525 3450
Wire Wire Line
	5525 3450 5525 3675
Wire Wire Line
	5525 3975 5525 4325
Wire Wire Line
	5675 3825 5925 3825
Wire Wire Line
	5925 3825 5925 3925
Wire Wire Line
	5925 4225 5925 4325
Wire Wire Line
	5925 4325 5525 4325
Connection ~ 5525 4325
Wire Wire Line
	5525 4325 5525 4425
Wire Wire Line
	5525 2700 5525 3450
Connection ~ 5525 3450
Wire Wire Line
	5225 2500 5100 2500
Connection ~ 4825 2500
Wire Wire Line
	4825 2500 4825 2600
Wire Wire Line
	4975 2275 5075 2275
Wire Wire Line
	5075 2275 5075 2500
Connection ~ 5075 2500
Wire Wire Line
	5075 2500 4825 2500
Wire Wire Line
	5525 2075 5525 2150
Wire Wire Line
	5525 1575 5525 1675
Wire Wire Line
	5925 1675 5525 1675
Connection ~ 5525 1675
Wire Wire Line
	5525 1675 5525 1775
Wire Wire Line
	6225 1675 6625 1675
Wire Wire Line
	6625 1675 6625 1800
Wire Wire Line
	5150 1100 5150 1200
Wire Wire Line
	5150 1200 5525 1200
Wire Wire Line
	5525 1200 5525 1275
Wire Wire Line
	5150 1200 4825 1200
Wire Wire Line
	4825 1200 4825 2125
Connection ~ 5150 1200
Wire Wire Line
	5675 1925 5725 1925
Wire Wire Line
	5725 1925 5725 2150
Wire Wire Line
	5725 2150 5525 2150
Connection ~ 5525 2150
Wire Wire Line
	5525 2150 5525 2300
$Comp
L Device:R R1
U 1 1 6036494B
P 4600 6425
F 0 "R1" H 4670 6471 50  0000 L CNN
F 1 "1k" H 4670 6380 50  0000 L CNN
F 2 "Resistors_THT:R_Axial_DIN0207_L6.3mm_D2.5mm_P7.62mm_Horizontal" V 4530 6425 50  0001 C CNN
F 3 "~" H 4600 6425 50  0001 C CNN
	1    4600 6425
	1    0    0    -1  
$EndComp
$Comp
L Device:LED D1
U 1 1 603656A3
P 4600 6025
F 0 "D1" V 4639 5907 50  0000 R CNN
F 1 "LED" V 4548 5907 50  0000 R CNN
F 2 "LEDs:LED_D5.0mm" H 4600 6025 50  0001 C CNN
F 3 "~" H 4600 6025 50  0001 C CNN
	1    4600 6025
	0    -1   -1   0   
$EndComp
Wire Wire Line
	4600 6175 4600 6225
$Comp
L Device:C C2
U 1 1 60392F13
P 4500 2500
F 0 "C2" V 4700 2500 50  0000 C CNN
F 1 "Cx" V 4625 2500 50  0000 C CNN
F 2 "Capacitors_THT:C_Disc_D4.3mm_W1.9mm_P5.00mm" H 4538 2350 50  0001 C CNN
F 3 "~" H 4500 2500 50  0001 C CNN
	1    4500 2500
	0    1    1    0   
$EndComp
$Comp
L Device:C C4
U 1 1 60393467
P 5300 2150
F 0 "C4" V 5500 2125 50  0000 C CNN
F 1 "Cx" V 5425 2150 50  0000 C CNN
F 2 "Capacitors_THT:C_Disc_D4.3mm_W1.9mm_P5.00mm" H 5338 2000 50  0001 C CNN
F 3 "~" H 5300 2150 50  0001 C CNN
	1    5300 2150
	0    1    1    0   
$EndComp
Wire Wire Line
	5150 2150 5100 2150
Wire Wire Line
	5100 2150 5100 2500
Connection ~ 5100 2500
Wire Wire Line
	5100 2500 5075 2500
Wire Wire Line
	5450 2150 5525 2150
Wire Wire Line
	4650 2500 4825 2500
Wire Wire Line
	4350 2500 4325 2500
Wire Wire Line
	4325 2500 4325 2800
Connection ~ 4325 2800
Wire Wire Line
	4325 2800 4300 2800
$Comp
L Diode:1N4001 D2
U 1 1 603B87DF
P 1850 5150
F 0 "D2" H 1850 5325 50  0000 C CNN
F 1 "1N4001" H 1850 5250 50  0000 C CNN
F 2 "Diodes_THT:D_5W_P12.70mm_Horizontal" H 1850 4975 50  0001 C CNN
F 3 "http://www.vishay.com/docs/88503/1n4001.pdf" H 1850 5150 50  0001 C CNN
	1    1850 5150
	-1   0    0    1   
$EndComp
$Comp
L Connector:Screw_Terminal_01x02 J3
U 1 1 603D29A9
P 1375 5250
F 0 "J3" H 1400 5475 50  0000 C CNN
F 1 "Screw_Terminal_01x02" H 1575 5375 50  0000 C CNN
F 2 "Pin_Headers:Pin_Header_Straight_1x02_Pitch2.54mm" H 1375 5250 50  0001 C CNN
F 3 "~" H 1375 5250 50  0001 C CNN
	1    1375 5250
	-1   0    0    1   
$EndComp
$Comp
L power:GND #PWR02
U 1 1 603E452B
P 4600 6875
F 0 "#PWR02" H 4600 6625 50  0001 C CNN
F 1 "GND" H 4605 6702 50  0000 C CNN
F 2 "" H 4600 6875 50  0001 C CNN
F 3 "" H 4600 6875 50  0001 C CNN
	1    4600 6875
	1    0    0    -1  
$EndComp
Wire Wire Line
	4600 6575 4600 6875
$Comp
L Regulator_Linear:L7809 U1
U 1 1 603FACC9
P 2775 5825
F 0 "U1" H 2775 6067 50  0000 C CNN
F 1 "L7809" H 2775 5976 50  0000 C CNN
F 2 "digikey-footprints:TO-220-3" H 2800 5675 50  0001 L CIN
F 3 "http://www.st.com/content/ccc/resource/technical/document/datasheet/41/4f/b3/b0/12/d4/47/88/CD00000444.pdf/files/CD00000444.pdf/jcr:content/translations/en.CD00000444.pdf" H 2775 5775 50  0001 C CNN
	1    2775 5825
	1    0    0    -1  
$EndComp
$Comp
L Diode:1N4001 D4
U 1 1 603FE318
P 2800 5425
F 0 "D4" H 2800 5600 50  0000 C CNN
F 1 "1N4001" H 2800 5525 50  0000 C CNN
F 2 "Diodes_THT:D_5W_P12.70mm_Horizontal" H 2800 5250 50  0001 C CNN
F 3 "http://www.vishay.com/docs/88503/1n4001.pdf" H 2800 5425 50  0001 C CNN
	1    2800 5425
	1    0    0    -1  
$EndComp
$Comp
L Device:CP C7
U 1 1 60407200
P 2325 6100
F 0 "C7" H 2443 6146 50  0000 L CNN
F 1 "220uF" H 2443 6055 50  0000 L CNN
F 2 "Capacitors_THT:CP_Radial_D10.0mm_P5.00mm" H 2363 5950 50  0001 C CNN
F 3 "~" H 2325 6100 50  0001 C CNN
	1    2325 6100
	1    0    0    -1  
$EndComp
Wire Wire Line
	2950 5425 3175 5425
Wire Wire Line
	3175 5425 3175 5825
Wire Wire Line
	3175 5825 3075 5825
Wire Wire Line
	2325 5425 2325 5825
Wire Wire Line
	2325 5425 2650 5425
Connection ~ 2325 5825
Wire Wire Line
	2325 5950 2325 5825
$Comp
L Diode:1N4001 D3
U 1 1 60435B2E
P 2050 5825
F 0 "D3" H 2050 6000 50  0000 C CNN
F 1 "1N4001" H 2050 5925 50  0000 C CNN
F 2 "Diodes_THT:D_5W_P12.70mm_Horizontal" H 2050 5650 50  0001 C CNN
F 3 "http://www.vishay.com/docs/88503/1n4001.pdf" H 2050 5825 50  0001 C CNN
	1    2050 5825
	-1   0    0    1   
$EndComp
Wire Wire Line
	2200 5825 2325 5825
Wire Wire Line
	1575 5150 1700 5150
Wire Wire Line
	1575 5250 1675 5250
Wire Wire Line
	2000 5150 3175 5150
Wire Wire Line
	3175 5150 3175 5425
Connection ~ 3175 5425
Connection ~ 3175 5825
Wire Wire Line
	3775 5825 3775 5950
Wire Wire Line
	3175 5825 3775 5825
$Comp
L Connector:Conn_01x01_Female J5
U 1 1 604E0E05
P 3600 2800
F 0 "J5" H 3550 2875 50  0000 L CNN
F 1 "Conn_01x01_Female" V 3575 1975 50  0000 L CNN
F 2 "Connectors:Pin_d1.3mm_L10.0mm_W3.5mm_Flat" H 3600 2800 50  0001 C CNN
F 3 "~" H 3600 2800 50  0001 C CNN
	1    3600 2800
	1    0    0    -1  
$EndComp
$Comp
L Connector:Conn_01x01_Female J6
U 1 1 604E1D12
P 3725 2800
F 0 "J6" H 3700 2725 50  0000 C CNN
F 1 "Conn_01x01_Female" V 3700 3250 50  0000 C CNN
F 2 "Connectors:Pin_d1.3mm_L10.0mm_W3.5mm_Flat" H 3725 2800 50  0001 C CNN
F 3 "~" H 3725 2800 50  0001 C CNN
	1    3725 2800
	-1   0    0    1   
$EndComp
$Comp
L Connector:Conn_01x01_Female J7
U 1 1 604E9DB4
P 7075 1950
F 0 "J7" H 7025 1850 50  0000 L CNN
F 1 "Conn_01x01_Female" V 7050 2025 50  0000 L CNN
F 2 "Connectors:Pin_d1.3mm_L10.0mm_W3.5mm_Flat" H 7075 1950 50  0001 C CNN
F 3 "~" H 7075 1950 50  0001 C CNN
	1    7075 1950
	1    0    0    -1  
$EndComp
$Comp
L Connector:Conn_01x01_Female J8
U 1 1 604EA597
P 7225 1950
F 0 "J8" H 7225 2050 50  0000 C CNN
F 1 "Conn_01x01_Female" V 7200 1500 50  0000 C CNN
F 2 "Connectors:Pin_d1.3mm_L10.0mm_W3.5mm_Flat" H 7225 1950 50  0001 C CNN
F 3 "~" H 7225 1950 50  0001 C CNN
	1    7225 1950
	-1   0    0    1   
$EndComp
Wire Wire Line
	3925 2800 3950 2800
Wire Wire Line
	6875 1950 6775 1950
Wire Wire Line
	4600 5700 4600 5825
$Comp
L Connector:Conn_01x01_Female J9
U 1 1 6050B055
P 4150 5825
F 0 "J9" H 4075 5725 50  0000 L CNN
F 1 "Conn_01x01_Female" V 4125 5875 50  0000 L CNN
F 2 "Connectors:Pin_d1.3mm_L10.0mm_W3.5mm_Flat" H 4150 5825 50  0001 C CNN
F 3 "~" H 4150 5825 50  0001 C CNN
	1    4150 5825
	1    0    0    -1  
$EndComp
$Comp
L Connector:Conn_01x01_Female J10
U 1 1 6051275A
P 4275 5825
F 0 "J10" H 4275 5925 50  0000 C CNN
F 1 "Conn_01x01_Female" V 4250 5400 50  0000 C CNN
F 2 "Connectors:Pin_d1.3mm_L10.0mm_W3.5mm_Flat" H 4275 5825 50  0001 C CNN
F 3 "~" H 4275 5825 50  0001 C CNN
	1    4275 5825
	-1   0    0    1   
$EndComp
Wire Wire Line
	4475 5825 4600 5825
Connection ~ 4600 5825
Wire Wire Line
	4600 5825 4600 5875
$Comp
L Connector_123:AudioJack3_Switch J2
U 1 1 605796D6
P 8125 2150
F 0 "J2" H 7845 2058 50  0000 R CNN
F 1 "AudioJack3_Switch" H 7845 2149 50  0000 R CNN
F 2 "Connectors:NMJ6HCD2" H 8125 2150 50  0001 C CNN
F 3 "~" H 8125 2150 50  0001 C CNN
	1    8125 2150
	-1   0    0    1   
$EndComp
$Comp
L Connector_123:AudioJack3_Switch J1
U 1 1 60582F51
P 2550 2600
F 0 "J1" H 2532 3025 50  0000 C CNN
F 1 "AudioJack3_Switch" H 2532 2934 50  0000 C CNN
F 2 "Connectors:NMJ6HCD2" H 2550 2600 50  0001 C CNN
F 3 "~" H 2550 2600 50  0001 C CNN
	1    2550 2600
	1    0    0    -1  
$EndComp
$Comp
L Connector:Barrel_Jack_Switch J4
U 1 1 604D045A
P 1300 5925
F 0 "J4" H 1357 6242 50  0000 C CNN
F 1 "Barrel_Jack_Switch" H 1357 6151 50  0000 C CNN
F 2 "digikey-footprints:Barrel_Jack_5.5mmODx2.1mmID_PJ-202A" H 1350 5885 50  0001 C CNN
F 3 "~" H 1350 5885 50  0001 C CNN
	1    1300 5925
	1    0    0    -1  
$EndComp
Wire Wire Line
	1600 5825 1900 5825
Wire Wire Line
	1600 6025 1875 6025
Wire Wire Line
	1600 5925 1675 5925
Wire Wire Line
	1675 5250 1675 5925
$Comp
L Connector:Conn_01x02_Male J15
U 1 1 60542E61
P 5125 6075
F 0 "J15" H 5097 5957 50  0000 R CNN
F 1 "Conn_01x02_Male" H 5097 6048 50  0000 R CNN
F 2 "Pin_Headers:Pin_Header_Straight_1x02_Pitch2.54mm" H 5125 6075 50  0001 C CNN
F 3 "~" H 5125 6075 50  0001 C CNN
	1    5125 6075
	-1   0    0    1   
$EndComp
Wire Wire Line
	4600 5825 4875 5825
Wire Wire Line
	4875 5825 4875 5975
Wire Wire Line
	4875 5975 4925 5975
Wire Wire Line
	4925 6075 4875 6075
Wire Wire Line
	4875 6075 4875 6225
Wire Wire Line
	4875 6225 4600 6225
Connection ~ 4600 6225
Wire Wire Line
	4600 6225 4600 6275
Wire Wire Line
	1875 6550 2325 6550
Wire Wire Line
	1875 6025 1875 6550
Wire Wire Line
	2325 6250 2325 6550
Connection ~ 2325 6550
Wire Wire Line
	2325 6550 2775 6550
Wire Wire Line
	2775 6125 2775 6550
Connection ~ 2775 6550
Wire Wire Line
	2775 6550 3175 6550
Wire Wire Line
	3175 6225 3175 6550
Connection ~ 3175 6550
Wire Wire Line
	3175 6550 3775 6550
Wire Wire Line
	3775 6250 3775 6550
Wire Wire Line
	2325 5825 2475 5825
$Comp
L power:GND #PWR03
U 1 1 6055A193
P 2775 6625
F 0 "#PWR03" H 2775 6375 50  0001 C CNN
F 1 "GND" H 2780 6452 50  0000 C CNN
F 2 "" H 2775 6625 50  0001 C CNN
F 3 "" H 2775 6625 50  0001 C CNN
	1    2775 6625
	1    0    0    -1  
$EndComp
Wire Wire Line
	2775 6550 2775 6625
Wire Wire Line
	3775 5825 3950 5825
Connection ~ 3775 5825
$Comp
L Device:R R4
U 1 1 605A7E05
P 3950 3075
F 0 "R4" V 3743 3075 50  0000 C CNN
F 1 "1M" V 3834 3075 50  0000 C CNN
F 2 "Resistors_THT:R_Axial_DIN0207_L6.3mm_D2.5mm_P7.62mm_Horizontal" V 3880 3075 50  0001 C CNN
F 3 "~" H 3950 3075 50  0001 C CNN
	1    3950 3075
	-1   0    0    1   
$EndComp
$Comp
L power:VCC #PWR05
U 1 1 605A8529
P 3950 3350
F 0 "#PWR05" H 3950 3200 50  0001 C CNN
F 1 "VCC" H 3965 3523 50  0000 C CNN
F 2 "" H 3950 3350 50  0001 C CNN
F 3 "" H 3950 3350 50  0001 C CNN
	1    3950 3350
	-1   0    0    1   
$EndComp
Wire Wire Line
	3950 3350 3950 3225
Wire Wire Line
	3950 2925 3950 2800
Connection ~ 3950 2800
Wire Wire Line
	3950 2800 4000 2800
Wire Wire Line
	2750 2500 2975 2500
Wire Wire Line
	2750 2800 2975 2800
Wire Wire Line
	2975 2800 2975 2500
Wire Wire Line
	2975 2800 3400 2800
Connection ~ 2975 2800
Wire Wire Line
	2750 2400 2875 2400
Wire Wire Line
	2875 2400 2875 2700
$Comp
L power:GND #PWR0101
U 1 1 605DDCB9
P 2875 3100
F 0 "#PWR0101" H 2875 2850 50  0001 C CNN
F 1 "GND" H 2880 2927 50  0000 C CNN
F 2 "" H 2875 3100 50  0001 C CNN
F 3 "" H 2875 3100 50  0001 C CNN
	1    2875 3100
	1    0    0    -1  
$EndComp
Wire Wire Line
	2750 2700 2875 2700
Connection ~ 2875 2700
Wire Wire Line
	2875 2700 2875 3100
Wire Wire Line
	7925 2050 7500 2050
Wire Wire Line
	7925 2350 7500 2350
Wire Wire Line
	7500 2050 7500 2350
Connection ~ 7500 2350
Wire Wire Line
	7500 2350 7500 2375
Wire Wire Line
	7925 2250 7850 2250
Wire Wire Line
	7850 1950 7925 1950
Wire Wire Line
	7850 2250 7850 1950
Wire Wire Line
	7425 1950 7850 1950
Connection ~ 7850 1950
Wire Wire Line
	3175 5825 3175 5925
$Comp
L Device:C C8
U 1 1 603EDA26
P 3775 6100
F 0 "C8" H 3890 6146 50  0000 L CNN
F 1 "100nF" H 3890 6055 50  0000 L CNN
F 2 "Capacitors_THT:C_Disc_D4.3mm_W1.9mm_P5.00mm" H 3813 5950 50  0001 C CNN
F 3 "~" H 3775 6100 50  0001 C CNN
	1    3775 6100
	1    0    0    -1  
$EndComp
$EndSCHEMATC
